Version 4
SHEET 1 2208 680
WIRE 912 -96 720 -96
WIRE 912 -80 912 -96
WIRE 720 32 720 -16
WIRE 768 32 720 32
WIRE 944 32 832 32
WIRE 272 64 272 -96
WIRE 720 64 720 32
WIRE 80 128 0 128
WIRE 224 128 80 128
WIRE 528 128 432 128
WIRE 672 128 528 128
WIRE 912 128 912 0
WIRE 80 144 80 128
WIRE 528 144 528 128
WIRE 720 176 720 160
WIRE 848 176 720 176
WIRE 272 192 272 160
WIRE 720 192 720 176
WIRE 912 272 912 224
WIRE 944 272 944 32
WIRE 944 272 912 272
WIRE 1040 272 1040 224
WIRE 1040 272 1024 272
WIRE 272 288 272 272
WIRE 352 288 272 288
WIRE 400 288 352 288
WIRE 720 288 720 272
WIRE 912 336 912 272
WIRE 224 352 192 352
WIRE 240 352 224 352
WIRE 672 352 640 352
WIRE 688 352 672 352
WIRE 272 416 272 384
WIRE 720 416 720 384
WIRE 192 496 192 352
WIRE 272 496 192 496
WIRE 640 496 640 352
WIRE 720 496 640 496
WIRE 912 496 912 416
WIRE 912 496 720 496
WIRE 272 544 272 496
WIRE 720 544 720 496
FLAG 80 224 0
FLAG 400 352 0
FLAG 0 208 0
FLAG 528 224 0
FLAG 1040 336 0
FLAG 432 208 0
FLAG 352 288 OUT1
FLAG 1040 224 OUT2
SYMBOL njf 224 64 R0
SYMATTR InstName J1
SYMATTR Value BF245B
SYMBOL njf 224 288 R0
SYMATTR InstName J2
SYMATTR Value BF245B
SYMBOL res 256 176 R0
SYMATTR InstName R1
SYMATTR Value 100
SYMBOL res 256 400 R0
SYMATTR InstName R2
SYMATTR Value 100
SYMBOL SBORKA\\Parasitic\\resEU 64 128 R0
WINDOW 39 36 104 Left 2
WINDOW 40 36 132 Left 2
SYMATTR SpiceLine2 Ls=5n
SYMATTR Value R=1Meg
SYMATTR InstName U1
SYMBOL Vcc_ 272 -128 R0
SYMATTR Value Vcc=10
SYMATTR InstName U2
SYMBOL cap 384 288 R0
SYMATTR InstName CLoad1
SYMATTR Value 15p
SYMBOL Vcc_ 272 576 R180
SYMATTR Value Vcc=-10
SYMATTR InstName U3
SYMBOL voltage 0 112 R0
WINDOW 123 -29 132 Left 2
WINDOW 39 0 0 Left 2
SYMATTR Value2 AC 1
SYMATTR InstName V1
SYMATTR Value ""
SYMBOL njf 672 64 R0
SYMATTR InstName J3
SYMATTR Value BF245B
SYMBOL njf 672 288 R0
SYMATTR InstName J4
SYMATTR Value BF245B
SYMBOL res 704 176 R0
SYMATTR InstName R3
SYMATTR Value 1k
SYMBOL SBORKA\\Parasitic\\resEU 512 128 R0
WINDOW 39 36 104 Left 2
WINDOW 40 36 132 Left 2
SYMATTR SpiceLine2 Ls=5n
SYMATTR Value R=1Meg
SYMATTR InstName U4
SYMBOL Vcc_ 720 -128 R0
SYMATTR Value Vcc=10
SYMATTR InstName U5
SYMBOL cap 1024 272 R0
SYMATTR InstName CLoad2
SYMATTR Value 15p
SYMBOL Vcc_ 720 576 R180
SYMATTR Value Vcc=-10
SYMATTR InstName U6
SYMBOL voltage 432 112 R0
WINDOW 123 -21 124 Left 2
WINDOW 39 0 0 Left 2
SYMATTR Value2 AC 1
SYMATTR InstName V2
SYMATTR Value ""
SYMBOL SBORKA\\BJT\\bfr92 848 128 R0
WINDOW 38 0 0 Left 2
SYMATTR InstName U7
SYMBOL res 704 -112 R0
SYMATTR InstName R4
SYMATTR Value 1k
SYMBOL res 896 320 R0
SYMATTR InstName R5
SYMATTR Value 2k
SYMBOL res 704 400 R0
SYMATTR InstName R6
SYMATTR Value 330
SYMBOL cap 832 16 R90
WINDOW 0 0 32 VBottom 2
WINDOW 3 32 32 VTop 2
SYMATTR InstName C1
SYMATTR Value 100n
SYMBOL res 896 -96 R0
SYMATTR InstName R7
SYMATTR Value 20
SYMBOL res 1040 256 R90
WINDOW 0 0 56 VBottom 2
WINDOW 3 32 56 VTop 2
SYMATTR InstName R8
SYMATTR Value 20
TEXT 280 0 Left 2 !.ac dec 10 100k 1Gig
TEXT 1128 16 Left 4 !.meas F1 when Mag (v(out1))=1/sqrt(2)\n.meas F2 when Mag (v(out2))=1/sqrt(2)
TEXT 1136 144 Left 4 ;f1: mag (v(out1))=1/sqrt(2) AT 2.98707e+007\nf2: mag (v(out2))=1/sqrt(2) AT 2.27059e+008
TEXT 1304 304 Left 5 ;F1=30Meg\nF2=227Meg
LINE Normal 768 416 688 480 2
LINE Normal 747 426 768 416 2
LINE Normal 756 434 747 426 2
LINE Normal 767 417 756 434 2
