Version 4
SHEET 1 2956 1376
WIRE 416 -16 144 -16
WIRE 528 -16 416 -16
WIRE 144 16 144 -16
WIRE 144 144 144 96
WIRE 176 144 144 144
WIRE 272 144 240 144
WIRE 320 144 272 144
WIRE 144 160 144 144
WIRE 144 176 144 160
WIRE 416 176 416 -16
WIRE 528 176 528 -16
WIRE -272 240 -320 240
WIRE 16 240 -32 240
WIRE 96 240 16 240
WIRE 144 288 144 272
WIRE -320 304 -320 240
WIRE 16 304 16 240
WIRE 144 304 144 288
WIRE 272 304 272 144
WIRE 16 416 16 384
WIRE 16 416 -48 416
WIRE 144 416 144 384
WIRE 144 416 16 416
WIRE 272 416 272 384
WIRE 272 416 144 416
WIRE 416 416 416 240
WIRE 416 416 272 416
WIRE 528 416 528 256
WIRE 528 416 416 416
WIRE 416 432 416 416
WIRE -320 448 -320 384
WIRE -48 448 -48 416
FLAG -32 240 in
IOPIN -32 240 In
FLAG 320 144 out
IOPIN 320 144 Out
FLAG 416 432 0
FLAG -48 448 0
FLAG -320 448 0
FLAG -272 240 in
IOPIN -272 240 Out
FLAG 144 288 s
FLAG 144 160 d
SYMBOL res 128 0 R0
SYMATTR InstName R1
SYMATTR Value 6.8k
SYMBOL res 128 288 R0
SYMATTR InstName R2
SYMATTR Value 2.2k
SYMBOL res 0 288 R0
SYMATTR InstName R3
SYMATTR Value 3.3Meg
SYMBOL res 256 288 R0
SYMATTR InstName R4
SYMATTR Value 51k
SYMBOL polcap 176 160 R270
WINDOW 0 32 32 VTop 2
WINDOW 3 0 32 VBottom 2
SYMATTR InstName C1
SYMATTR Value 4.7u
SYMBOL polcap 400 176 R0
SYMATTR InstName C2
SYMATTR Value 10u
SYMBOL Misc\\battery 528 160 R0
SYMATTR InstName V1
SYMATTR Value 9
SYMBOL njf 96 176 R0
SYMATTR InstName J1
SYMATTR Value J201
SYMBOL Misc\\signal -320 288 R0
SYMATTR InstName V2
SYMATTR Value SINE(0 {AMPL} {FREQ1}
TEXT -312 -168 Left 2 !.four {FREQ1} V(out)  ; It's only useful when one knows the frequency
TEXT -312 -120 Left 2 !.tran 0 {20/FREQ1} 0 {1m/FREQ1}
TEXT -312 -88 Left 2 !.option plotwinsize=0
TEXT -312 -256 Left 2 !.param AMPL 0.6
TEXT -312 -224 Left 2 ;.step param AMPL 0.1 1 0.05
TEXT -312 -288 Left 2 !.param FREQ1=1k
TEXT -312 -352 Left 2 !.inc disto_meas.txt
TEXT -312 -480 Left 2 !.meas t1 FIND time WHEN V(out)=0 RISE=10\n.meas t2 FIND time WHEN V(out)=0 RISE=20\n.meas freq param (20-10)/(t2-t1)
TEXT -312 -520 Left 2 ;The frequency will be calculated from the time span from the 10th and 20th edge.
TEXT -312 -384 Left 2 ;Calculate distortion with this frequency
TEXT -304 -728 Left 4 ;Distortion Analyis with MEASURE\nView the results with\nView -> SPICE Error Log
