Version 4
SHEET 1 1616 880
WIRE 480 -1136 336 -1136
WIRE 528 -1136 480 -1136
WIRE 528 -1120 528 -1136
WIRE 272 -1088 192 -1088
WIRE 336 -1008 336 -1040
WIRE 480 -912 480 -1136
WIRE 480 -912 336 -912
WIRE 272 -864 160 -864
FLAG 528 -1040 0
FLAG 336 -1008 0
FLAG 192 -1008 0
FLAG 336 -816 0
FLAG 160 -784 0
SYMBOL voltage 528 -1136 R0
WINDOW 123 0 0 Left 0
WINDOW 39 0 0 Left 0
SYMATTR InstName V1
SYMATTR Value 12V
SYMBOL ZZZ\\BJT\\NECbjt 272 -1136 R0
WINDOW 38 38 43 Left 2
SYMATTR InstName U1
SYMBOL current 192 -1008 R180
WINDOW 0 24 80 Left 2
WINDOW 3 24 0 Left 2
WINDOW 123 0 0 Left 0
WINDOW 39 0 0 Left 0
SYMATTR InstName I1
SYMATTR Value 1mA
SYMBOL ZZZ\\BJT\\NECbjt 272 -912 R0
WINDOW 38 38 43 Left 2
SYMATTR SpiceModel NE68000/CEL
SYMATTR InstName U2
SYMBOL bi2 160 -864 R0
SYMATTR InstName B1
SYMATTR Value I=i(i1)
TEXT 148 -984 Left 2 !.dc V1 0 5 10m i1 0 1m 0.2m
