Version 4
SHEET 1 1588 1028
WIRE -16 -112 -16 -128
WIRE -16 0 -16 -32
WIRE -16 32 -16 0
WIRE -192 80 -208 80
WIRE -80 80 -192 80
WIRE -208 96 -208 80
WIRE -16 144 -16 128
WIRE -16 256 -16 240
WIRE -16 368 -16 336
WIRE -16 400 -16 368
WIRE -192 448 -208 448
WIRE -80 448 -192 448
WIRE -208 464 -208 448
WIRE -16 512 -16 496
WIRE -16 608 -16 592
WIRE -16 720 -16 688
WIRE -16 752 -16 720
WIRE -192 800 -208 800
WIRE -80 800 -192 800
WIRE -208 816 -208 800
WIRE -16 864 -16 848
FLAG -16 144 0
FLAG -16 -128 0
FLAG -16 0 C1
FLAG -208 176 0
FLAG -192 80 B1
FLAG -16 512 0
FLAG -16 240 0
FLAG -16 368 C2
FLAG -208 544 0
FLAG -192 448 B2
FLAG -16 864 0
FLAG -16 592 0
FLAG -16 720 C3
FLAG -208 896 0
FLAG -192 800 B3
SYMBOL npn -80 32 R0
SYMATTR InstName Q1
SYMATTR Value QPWR
SYMBOL current -16 -112 R0
SYMATTR InstName I1
SYMATTR Value {I}
SYMBOL bv -208 80 R0
SYMATTR InstName B1
SYMATTR Value V=0.6+10k*(V(c1)-5)
SYMBOL npn -80 400 R0
SYMATTR InstName Q2
SYMATTR Value tip35x
SYMATTR Prefix xQN
SYMBOL current -16 256 R0
SYMATTR InstName I2
SYMATTR Value {I}
SYMBOL bv -208 448 R0
SYMATTR InstName B2
SYMATTR Value V=0.6+10k*(V(c2)-5)
SYMBOL npn -80 752 R0
SYMATTR InstName Q3
SYMATTR Value QPWRmy
SYMBOL current -16 608 R0
SYMATTR InstName I3
SYMATTR Value {I}
SYMBOL bv -208 800 R0
SYMATTR InstName B3
SYMATTR Value V=0.6+10k*(V(c3)-5)
TEXT 80 -64 Left 2 !*TIP35\n.MODEL QPWR NPN (IS=1.84P NF=1 BF=81.5 VAF=161 IKF=8.33 ISE=1.97N NE=2\n+ BR=4 NR=1 VAR=20 IKR=12.5 RE=13.2M RB=53M RC=5.3M XTB=1.5\n+ CJE=801P VJE=.6 MJE=.3 CJC=520P VJC=.22 MJC=.2 TF=54.1N TR=2.08U)\n \n \n*SRC=TIP35;TIP35;BJTs NPN;Power;80V 25A\n*SYM=POWBJTN\n.SUBCKT TIP35x 1 2 3\n* TERMINALS: C B E\n* 80 Volt 25 Amp SiNPN Power Transistor 11-11-1992\nQ1 1 2 3 QPWR .67\nQ2 1 4 3 QPWR .33\nRBS 2 4 23\n.MODEL QPWR NPN (IS=1.84P NF=1 BF=81.5 VAF=161 IKF=8.33 ISE=1.97N NE=2\n+ BR=4 NR=1 VAR=20 IKR=12.5 RE=13.2M RB=53M RC=5.3M XTB=1.5\n+ CJE=801P VJE=.6 MJE=.3 CJC=520P VJC=.22 MJC=.2 TF=54.1N TR=2.08U)\n.ENDS
TEXT 96 -128 Left 2 !.step dec param i 100m 30 50
TEXT -154 -68 Left 2 !.op
TEXT 40 592 Left 2 !.MODEL QPWRmy NPN (IS=1.84P NF=1 BF=81.5 VAF=161 IKF=8.33 ISE=1.97N NE=2\n+ BR=4 NR=1 VAR=20 IKR=12.5 RE=13.2M RB=53M RC=5.3M XTB=1.5  nk=0.54\n+ CJE=801P VJE=.6 MJE=.3 CJC=520P VJC=.22 MJC=.2 TF=54.1N TR=2.08U)
TEXT 80 752 Left 4 ;Plot Ic(Q1)/Ib(q1)  Ix(Q2:C)/Ix(Q2:B) Ic(Q3)/ib(q3)
