Version 4
SHEET 1 1124 680
WIRE 112 -96 16 -96
WIRE 272 -96 112 -96
WIRE 464 -96 384 -96
WIRE 272 -48 224 -48
WIRE 384 -16 384 -48
WIRE 464 -16 464 -96
WIRE 560 -16 464 -16
WIRE 224 16 224 -48
WIRE 560 16 560 -16
WIRE 224 128 224 16
WIRE 256 128 224 128
WIRE 464 128 464 -16
WIRE 464 128 368 128
WIRE 16 160 16 -96
WIRE 368 208 368 176
WIRE 16 256 16 240
WIRE 112 256 16 256
WIRE 256 256 256 176
WIRE 256 256 112 256
FLAG 112 -96 x3
FLAG 112 256 x4
FLAG 528 256 0
FLAG 528 176 x5
FLAG 560 96 0
FLAG 368 208 0
FLAG 384 -16 0
FLAG 224 16 0
SYMBOL current 16 240 R180
WINDOW 0 24 80 Left 2
WINDOW 3 24 0 Left 2
WINDOW 123 24 52 Left 2
WINDOW 39 0 0 Left 2
SYMATTR InstName I3
SYMATTR Value ""
SYMATTR Value2 AC 1
SYMBOL bv 528 160 R0
SYMATTR InstName B1
SYMATTR Value V=v(x3,x4)
SYMBOL res 544 0 R0
SYMATTR InstName R1
SYMATTR Value 50
SYMBOL Balun 304 128 R0
WINDOW 3 8 -44 Bottom 2
SYMATTR InstName X2
SYMATTR SpiceLine2 R=45m
SYMBOL Balun 320 -96 R0
WINDOW 3 8 -44 Bottom 2
SYMATTR InstName X1
SYMATTR SpiceLine2 R=45m
TEXT -224 384 Left 2 !.ac dec 100 1meg 1Gig
TEXT 40 48 Left 4 ;Rin=200
TEXT 592 168 Left 4 ;Rin=V(X5)
LINE Normal 304 208 304 272 2
LINE Normal 304 208 304 208 2
LINE Normal 320 224 304 208 2
LINE Normal 288 224 320 224 2
LINE Normal 304 208 288 224 2
