Version 4
SHEET 1 880 680
WIRE -272 16 -288 16
WIRE -176 16 -192 16
WIRE -32 16 -80 16
WIRE 16 16 -32 16
WIRE 160 16 96 16
WIRE 208 16 160 16
WIRE 112 96 -48 96
WIRE 240 96 208 96
WIRE 352 96 240 96
WIRE 240 112 240 96
WIRE 368 192 352 192
WIRE 480 192 448 192
WIRE 560 192 480 192
WIRE -112 208 -144 208
WIRE 0 208 -32 208
WIRE 16 208 0 208
WIRE -272 256 -272 240
WIRE 464 384 464 368
FLAG -272 256 0
FLAG -48 96 a[0:10]
FLAG 352 96 a[1:11]
FLAG -32 16 b[0:10]
FLAG 160 16 b[1:11]
FLAG -288 16 0
FLAG -176 16 b[0]
FLAG 0 208 a[0]
FLAG 352 192 a[11]
FLAG 480 192 Out
FLAG -144 208 in
FLAG -272 160 in
FLAG 240 176 0
SYMBOL voltage 112 16 R90
WINDOW 0 -32 56 VBottom 2
WINDOW 3 32 56 VTop 2
WINDOW 123 0 0 Left 2
WINDOW 39 0 0 Left 2
SYMATTR InstName V1
SYMATTR Value 1
SYMBOL voltage -176 16 R90
WINDOW 0 -32 56 VBottom 2
WINDOW 3 32 56 VTop 2
WINDOW 123 0 0 Left 2
WINDOW 39 0 0 Left 2
SYMATTR InstName V0
SYMATTR Value 0
SYMBOL voltage -16 208 R90
WINDOW 0 -32 56 VBottom 2
WINDOW 3 32 56 VTop 2
WINDOW 123 0 0 Left 2
WINDOW 39 0 0 Left 2
SYMATTR InstName V2
SYMATTR Value 0
SYMBOL voltage 464 192 R90
WINDOW 0 -32 56 VBottom 2
WINDOW 3 32 56 VTop 2
WINDOW 123 0 0 Left 2
WINDOW 39 0 0 Left 2
SYMATTR InstName V3
SYMATTR Value 0
SYMBOL voltage -272 144 R0
WINDOW 123 22 101 Left 2
WINDOW 39 24 124 Left 2
SYMATTR Value2 AC 1 0
SYMATTR InstName V4
SYMATTR Value ""
SYMBOL Ri 160 96 R0
SYMATTR InstName X[0:10]
SYMBOL cap 224 112 R0
SYMATTR InstName C1[1:11]
SYMATTR Value 100p
TEXT -152 -168 Left 2 !.param L1=1u R1=1m C1=100p K=1.1
TEXT -248 328 Left 2 !.ac dec 100 100k 100Meg
