Version 4
SHEET 1 3280 2104
WIRE 1312 1792 1216 1792
WIRE 1424 1792 1312 1792
WIRE 1568 1792 1504 1792
WIRE 1216 1824 1216 1792
WIRE 1072 1904 1040 1904
WIRE 1168 1904 1152 1904
WIRE 1568 1904 1568 1792
WIRE 1040 1936 1040 1904
WIRE 1216 1952 1216 1920
WIRE 1568 2016 1568 1984
WIRE 1040 2064 1040 2016
FLAG 1040 2064 0
FLAG 1568 2016 0
FLAG 1216 1952 0
FLAG 1312 1792 Out
FLAG 1040 1904 in
SYMBOL VOLTAGE 1040 1920 R0
WINDOW 39 0 0 Left 2
WINDOW 123 0 0 Left 2
WINDOW 0 37 53 Left 2
SYMATTR InstName Vgs
SYMATTR Value PULSE(0 10 100n 30n 30n 500n 2u)
SYMBOL voltage 1568 1888 R0
WINDOW 39 0 0 Left 2
WINDOW 123 0 0 Left 2
SYMATTR InstName Vds
SYMATTR Value 400
SYMBOL NMOS 1168 1824 R0
SYMATTR InstName M1
SYMATTR Value TK31V60X_AB
SYMBOL res 1520 1776 R90
WINDOW 0 0 56 VBottom 2
WINDOW 3 32 56 VTop 2
SYMATTR InstName R1
SYMATTR Value 26
SYMBOL res 1168 1888 R90
WINDOW 0 0 56 VBottom 2
WINDOW 3 32 56 VTop 2
SYMATTR InstName R2
SYMATTR Value 10
TEXT 1288 1680 Left 2 !.lib TK31V60X_AB.lib
TEXT 1006 2088 Left 2 !.tran 1u
