Version 4
SHEET 1 3280 2104
WIRE 1456 1792 1216 1792
WIRE 1216 1824 1216 1792
WIRE 1168 1904 1040 1904
WIRE 1456 1904 1456 1792
WIRE 1040 1920 1040 1904
WIRE 1216 1952 1216 1920
WIRE 1456 2016 1456 1984
WIRE 1040 2064 1040 2000
FLAG 1040 2064 0
FLAG 1456 2016 0
FLAG 1216 1952 0
FLAG 1600 1808 Ciss
FLAG 1600 1888 0
SYMBOL voltage 1456 1888 R0
WINDOW 39 0 0 Left 2
SYMATTR InstName Vds
SYMATTR Value {Vds}
SYMBOL NMOS 1168 1824 R0
SYMATTR InstName M1
SYMATTR Value TK31V60X_AB
SYMBOL voltage 1600 1792 R0
WINDOW 123 -244 -69 Left 2
WINDOW 39 0 0 Left 2
SYMATTR Value2 AC {tbl({Vds},  0.1,5k,  1,4k, 10,4k, 20,3.1k,  600,3k)}
SYMATTR InstName V1
SYMATTR Value ""
SYMBOL voltage 1040 1904 R0
WINDOW 39 0 0 Left 2
WINDOW 123 24 124 Left 2
SYMATTR Value2 AC {A} -90
SYMATTR InstName Vgs
SYMATTR Value {Vds}
TEXT 1656 1912 Left 2 !.lib TK31V60X_AB.lib
TEXT 1040 1792 Left 2 !.ac list {F}
TEXT 1032 1728 Left 2 !.param F=1kHz A=1/(2*Pi*F}
TEXT 1080 2064 Left 2 !.step dec param Vds 0.1 600 10
