Version 4
SHEET 1 1212 680
WIRE 160 144 32 144
WIRE 272 144 224 144
WIRE 368 144 272 144
WIRE 32 160 32 144
WIRE 160 224 160 144
WIRE 176 224 160 224
FLAG 224 240 0
FLAG 32 240 0
FLAG 368 224 0
FLAG 272 144 x
SYMBOL Misc\\nigbt 176 144 R0
SYMATTR InstName Z1
SYMBOL voltage 32 144 R0
WINDOW 123 0 0 Left 2
WINDOW 39 0 0 Left 2
SYMATTR InstName V2
SYMATTR Value 15
SYMBOL current 368 224 R180
WINDOW 0 24 80 Left 2
WINDOW 3 -241 36 Left 2
WINDOW 123 0 0 Left 2
WINDOW 39 0 0 Left 2
SYMATTR InstName I1
SYMATTR Value PWL(0 0 0.1 150)
TEXT 0 264 Left 2 !.tran 0 1 0.9 uic
TEXT 32 8 Left 2 !.model NIGBT NIGBT Vt=5.8 Kp=70  WB=250u NB=0.6e14 area=85u\n+Tau=12u Cgs=20n Coxd=34.0n Agd=35u
TEXT 216 304 Left 2 !.temp 25 125
