Version 4
SHEET 1 1240 680
WIRE 320 0 240 0
WIRE 512 0 416 0
WIRE 576 0 512 0
WIRE 192 16 160 16
WIRE -80 48 -480 48
WIRE -480 112 -480 48
WIRE -368 112 -480 112
WIRE -160 160 -192 160
WIRE -80 160 -160 160
WIRE 160 160 160 16
WIRE 160 160 128 160
WIRE 192 160 160 160
WIRE 544 160 304 160
WIRE -480 176 -480 112
WIRE -368 176 -384 176
WIRE 288 208 288 192
WIRE 352 208 288 208
WIRE 384 208 352 208
WIRE 256 224 256 192
WIRE 224 240 224 192
WIRE 224 240 -48 240
WIRE 256 240 256 224
WIRE 272 240 272 192
WIRE 352 240 272 240
WIRE 384 240 352 240
WIRE -384 272 -384 176
WIRE -48 272 -48 240
WIRE -48 272 -384 272
WIRE -480 288 -480 256
WIRE -384 304 -384 272
FLAG 544 160 out
IOPIN 544 160 Out
FLAG 192 192 0
FLAG 352 240 w[n]
FLAG 352 208 h[n]
FLAG -480 288 0
FLAG -384 384 0
FLAG -160 240 0
FLAG -80 48 analog
FLAG -80 160 digital
FLAG 192 64 0
FLAG 240 80 0
FLAG 320 32 0
FLAG 416 32 0
FLAG 512 80 0
FLAG 576 0 in
IOPIN 576 0 Out
FLAG 128 160 analog
DATAFLAG 256 224 ""
SYMBOL Filter 256 160 R0
WINDOW 40 33 210 Center 2
WINDOW 39 26 178 Center 2
WINDOW 123 37 146 Center 2
WINDOW 3 30 113 Center 2
SYMATTR SpiceLine2 G=1 Asc=3 Ap=1 As=60 N=64
SYMATTR SpiceLine f0=-192k fc=0 BWp=48k BWs=60k
SYMATTR Value2 Win=11 Choice=5 sim=1 test=0 SH=0 Fact=1
SYMATTR Value sigma=0.5 nT=0 a0=0.42 a1=0.5 a2=0.08 a3=0 a4=0
SYMATTR InstName U1
SYMATTR SpiceModel FIR
SYMBOL voltage -480 160 R0
SYMATTR InstName V2
SYMATTR Value sin 0 1 20k ac 1
SYMBOL SpecialFunctions\\sample -288 144 R0
SYMATTR InstName A1
SYMATTR SpiceLine Rout=1 ref=0.1
SYMBOL voltage -384 288 R0
WINDOW 0 27 93 Left 2
WINDOW 3 -36 128 Left 2
SYMATTR InstName V3
SYMATTR Value pulse 0 1 0 {1m/192k} 0 0 {1/192k}
SYMBOL current -160 240 M180
WINDOW 0 35 58 Left 2
WINDOW 3 28 5 Left 2
SYMATTR InstName I1
SYMATTR Value ac 1
SYMBOL g 240 -16 R0
WINDOW 0 11 3 Left 2
SYMATTR InstName G1
SYMATTR Value 1
SYMBOL tline 368 16 R0
WINDOW 3 13 34 Top 2
SYMATTR InstName T1
SYMATTR Value Td={63/2/192k} Z0=1
SYMBOL res 496 -16 R0
SYMATTR InstName R1
SYMATTR Value 1
TEXT 576 344 Left 2 !.ac lin 4096 1 95999
TEXT 576 312 Left 2 ;.tran 500u
TEXT 576 240 Left 2 !.save v(out) v(in)
