Version 4
SHEET 1 968 680
WIRE 352 128 208 128
WIRE 208 144 208 128
WIRE 352 160 352 128
FLAG 208 240 0
FLAG 160 224 0
FLAG 352 240 0
SYMBOL nmos 160 144 R0
SYMATTR InstName M1
SYMATTR Value irfb4137
SYMBOL voltage 352 144 R0
WINDOW 123 0 0 Left 2
WINDOW 39 0 0 Left 2
SYMATTR InstName V1
SYMATTR Value 300
TEXT 144 264 Left 2 !.dc v1 1 310 1
TEXT -24 -56 Left 2 !.model irfb4137 Vdmos VTO=5.21813 LAMBDA=0.0198786 KP=36.7886\n+CGS=5.05n  CGDmin=46.5p rs=0.1m rd=56m Rg=3.4\n+ Rds=60Meg IS=4.20626e-10 Rb=1.78m N=1.21183 BV=310 nbv=10\n+IBV=0.00025 EG=1.2 XTI=4 TT=1e-07 CGDmax=4.1n a=1\n+CJo=5.04224e-09 VJ=0.5 M=0.684157 FC=0.1 Ksubthres=0.25 \n+ mfg=International_Rectifier Vds=300 Ron=69m Qg=125n)
