Version 4
SHEET 1 2680 864
WIRE 1360 528 1360 512
WIRE 1472 528 1360 528
WIRE 1584 528 1536 528
WIRE 1632 528 1584 528
WIRE 1360 560 1360 528
WIRE 1632 560 1632 528
WIRE 1360 688 1360 640
FLAG 1360 688 0
FLAG 1360 512 B
FLAG 1632 640 0
FLAG 1584 528 syn
SYMBOL voltage 1360 544 R0
WINDOW 123 0 0 Left 0
WINDOW 39 0 0 Left 0
SYMATTR InstName V3
SYMATTR Value SINE(0 2 1kHz)
SYMBOL diode 1472 544 R270
WINDOW 0 32 32 VTop 2
WINDOW 3 0 32 VBottom 2
SYMATTR InstName D1
SYMBOL res 1616 544 R0
SYMATTR InstName R1
SYMATTR Value 1k
TEXT 992 744 Left 2 !.tran 0 10 0 10u
TEXT 960 784 Left 2 !.wave mumu.wav 8 11025 V(syn) ; This means save node V(syn) as a .wav file, 8 bit resolution, 11025 samples per second
TEXT 960 824 Left 2 !.wave 1kHz.wav 8 11025 V(b) ;
