Version 4
SHEET 1 1092 680
WIRE 176 -64 80 -64
WIRE 352 -64 256 -64
WIRE 400 -64 352 -64
WIRE 80 128 80 -64
WIRE 128 128 80 128
WIRE 160 128 128 128
WIRE 320 128 288 128
WIRE 352 128 352 -64
WIRE 352 128 320 128
WIRE 0 208 -16 208
WIRE 112 208 80 208
WIRE 160 208 112 208
WIRE 320 208 288 208
WIRE 368 208 320 208
WIRE 464 208 448 208
WIRE 176 352 160 352
WIRE 272 352 256 352
FLAG 400 -64 0
FLAG 128 128 p
FLAG 320 128 n
FLAG 112 208 Tcold
FLAG 320 208 Thot
FLAG 160 352 0
FLAG 272 352 Text
FLAG -16 208 Text
FLAG 464 208 Text
SYMBOL voltage 272 352 R90
WINDOW 0 -31 28 VLeft 2
WINDOW 3 46 67 VRight 2
WINDOW 123 0 0 Left 2
WINDOW 39 0 0 Left 2
SYMATTR InstName Vte
SYMATTR Value 20
SYMBOL voltage 160 -64 R270
WINDOW 0 63 57 VBottom 2
WINDOW 3 -33 56 VBottom 2
WINDOW 123 0 0 Left 2
WINDOW 39 0 0 Left 2
SYMATTR InstName V1
SYMATTR Value 12
SYMBOL res 352 192 M90
WINDOW 0 5 56 VBottom 2
WINDOW 3 26 56 VTop 2
SYMATTR InstName RqH
SYMATTR Value {RqH}
SYMBOL TEC1-12706 224 176 R0
WINDOW 3 -3 -106 Bottom 2
WINDOW 39 -1 87 Top 2
SYMATTR Value Se={Se} R0={R0}
SYMATTR SpiceLine Cq={Cq} Rq={Rq}
SYMATTR InstName X2
SYMBOL res -16 192 M90
WINDOW 0 5 56 VBottom 2
WINDOW 3 26 56 VTop 2
SYMATTR InstName RqC
SYMATTR Value {RqC}
TEXT 0 -104 Left 2 !.dc V1 -9 15 0.1
TEXT 352 272 Left 2 ;Open Water
TEXT -192 -24 Left 2 !; TEC1-12706\n.param Se=53m R0=1.8 \n.param Rq=1.8 Cq=15
TEXT 456 176 Left 2 ;Environment
TEXT -8 264 Left 2 ;Open Air
TEXT 392 -24 Left 2 !; Termal Resistance\n.param aA=7; {W/(K*m2)} Air\n.param aW=500; {W/(K*m2)} Water\n.param s=4e-2**2 ; {m2} TEC1-12706\n.param RqC=1/(aA*s)\n.param RqH=1/(aW*s)
TEXT -144 176 Left 2 ;Environment
TEXT 256 384 Left 2 ;Environment
