Version 4
SHEET 1 3280 2100
WIRE 1360 1792 1216 1792
WIRE 1568 1792 1440 1792
WIRE 1216 1824 1216 1792
WIRE 1088 1904 1040 1904
WIRE 1168 1904 1088 1904
WIRE 1568 1904 1568 1792
WIRE 1040 1936 1040 1904
WIRE 1040 2064 1040 2016
WIRE 1216 2064 1216 1920
WIRE 1568 2080 1568 1984
FLAG 1088 1904 2
FLAG 1040 2064 0
FLAG 1568 2080 0
FLAG 1216 2064 0
SYMBOL VOLTAGE 1040 1920 R0
WINDOW 39 0 0 Left 0
WINDOW 123 0 0 Left 0
SYMATTR InstName Vgs
SYMATTR Value 0
SYMBOL voltage 1568 1888 R0
WINDOW 39 0 0 Left 0
WINDOW 123 0 0 Left 0
SYMATTR InstName Vds
SYMATTR Value {vds}
SYMBOL RES 1456 1776 R90
WINDOW 0 0 56 VBottom 0
WINDOW 3 32 56 VTop 0
SYMATTR InstName R1
SYMATTR Value 0.001
SYMBOL NMOS 1168 1824 R0
SYMATTR InstName M1
SYMATTR VALUE TN2404K
TEXT 944 1672 LEFT 0 .dc vgs 0 5
TEXT 904 1624 LEFT 0 .model TN2404K VDMOS(Rg=3 Vto=1.56 Rd=1150.0m Rs=460.0m Kp=1.2 Lambda=1.646 Cgdmax=0.27n Cgdmin=0.01n Cgs=1.04n Cjo=0.44n Vj=1.00 m=0.50  Rb=21m Is= 4.6E-0011 N=0.985 tt=60n mfg=Vishay Vds=240 Ron=2300m Qg=4.87n)
TEXT 944 1712 Left 0 !.save i(r1)
TEXT 1608 1576 Left 0 ;Sweep Vgs   vs Fixed Vds
TEXT 944 1776 LEFT 0 .param1 vds=10

