Version 4
SHEET 1 912 680
WIRE 144 16 -48 16
WIRE 336 16 144 16
WIRE 144 64 144 16
WIRE 336 64 336 16
WIRE -48 128 -48 16
WIRE 224 160 192 160
WIRE 256 160 224 160
WIRE 480 160 416 160
WIRE 560 160 480 160
WIRE 480 176 480 160
WIRE 480 272 480 256
WIRE -48 288 -48 208
WIRE 144 288 144 256
WIRE 144 288 -48 288
WIRE 336 288 336 256
WIRE 336 288 144 288
WIRE -48 320 -48 288
FLAG -48 320 0
FLAG 224 160 MF
FLAG 560 160 Speed
FLAG 480 272 0
SYMBOL Stator 144 160 R0
WINDOW 39 13 137 Top 2
SYMATTR SpiceLine L=1 R=1000 K=10
SYMATTR InstName X1
SYMBOL voltage -48 112 R0
WINDOW 123 0 0 Left 2
WINDOW 39 0 0 Left 2
SYMATTR InstName V1
SYMATTR Value SINE(0 311 50)
SYMBOL Rotor 336 160 R0
WINDOW 39 23 134 Top 2
SYMATTR SpiceLine L=100m R=100
SYMATTR InstName X2
SYMBOL current 480 176 R0
WINDOW 0 46 37 Left 2
WINDOW 3 33 66 Left 2
WINDOW 123 0 0 Left 2
WINDOW 39 0 0 Left 2
SYMATTR InstName I_Load
SYMATTR Value 11
TEXT 448 40 Left 2 !.tran 1 startup
