Version 4
SHEET 1 2784 1180
WIRE 128 96 32 96
WIRE 32 112 32 96
WIRE 544 112 400 112
WIRE 640 112 544 112
WIRE 640 144 640 112
WIRE 464 192 400 192
WIRE 128 224 128 176
WIRE 464 224 464 192
WIRE 32 304 32 176
WIRE 128 304 32 304
WIRE 128 320 128 304
WIRE 416 384 304 384
WIRE 560 384 416 384
WIRE 656 384 560 384
WIRE 656 416 656 384
WIRE 304 496 304 448
WIRE 416 496 304 496
WIRE 416 608 416 576
WIRE 496 672 384 672
WIRE 640 672 496 672
WIRE 736 672 640 672
WIRE 736 704 736 672
WIRE 384 784 384 736
WIRE 496 784 384 784
WIRE 496 896 496 864
FLAG 128 320 0
FLAG 544 112 out1
FLAG 464 224 0
FLAG 640 224 0
FLAG 560 384 out2
FLAG 416 608 0
FLAG 656 496 0
FLAG 640 672 out3
FLAG 496 896 0
FLAG 736 784 0
FLAG 416 464 0
FLAG 496 752 0
SYMBOL ind2 112 80 R0
WINDOW 39 36 108 Left 2
SYMATTR SpiceLine Rser={rs}
SYMATTR InstName L1
SYMATTR Value {L}
SYMATTR Type ind
SYMBOL cap 16 112 R0
WINDOW 3 -11 -20 VRight 2
SYMATTR Value {1/(2*pi*475.5k)**2/L}
SYMATTR InstName C1
SYMBOL voltage 128 208 R0
WINDOW 123 24 124 Left 2
WINDOW 39 0 0 Left 2
SYMATTR Value2 AC {a}
SYMATTR InstName V1
SYMATTR Value SINE(0 {a} 475500)
SYMBOL ind2 416 96 M0
WINDOW 3 -125 58 Left 2
WINDOW 39 -30 114 Left 2
SYMATTR Value {L*p**2}
SYMATTR InstName L2
SYMATTR Type ind
SYMBOL ind2 432 368 M0
WINDOW 3 -125 58 Left 2
WINDOW 39 -192 98 Left 2
SYMATTR Value {L*p**2}
SYMATTR SpiceLine Rser={Rs*p**2}
SYMATTR InstName L3
SYMATTR Type ind
SYMBOL voltage 416 480 R0
WINDOW 123 24 124 Left 2
WINDOW 39 0 0 Left 2
SYMATTR Value2 AC {-a*p}
SYMATTR InstName V3
SYMATTR Value SINE(0 {a*p} 475500 0 0 180)
SYMBOL cap 288 384 R0
WINDOW 3 -14 -55 VRight 2
SYMATTR Value {1/(2*pi*475.5k)**2/L/p**2}
SYMATTR InstName C2
SYMBOL res 624 128 R0
SYMATTR InstName R1
SYMATTR Value {R}
SYMBOL res 640 400 R0
SYMATTR InstName R2
SYMATTR Value {R}
SYMBOL ind2 512 656 M0
WINDOW 3 -125 58 Left 2
WINDOW 39 -192 98 Left 2
SYMATTR Value {L*p**2}
SYMATTR SpiceLine Rpar={Rs*p**2*Q**2}
SYMATTR InstName L4
SYMATTR Type ind
SYMBOL voltage 496 768 R0
WINDOW 123 24 124 Left 2
WINDOW 39 0 0 Left 2
SYMATTR Value2 AC {-a*p}
SYMATTR InstName V2
SYMATTR Value SINE(0 {a*p} 475500 0 0 180)
SYMBOL cap 368 672 R0
WINDOW 3 -14 -55 VRight 2
SYMATTR Value {1/(2*pi*475.5k)**2/L/p**2}
SYMATTR InstName C3
SYMBOL res 720 688 R0
SYMATTR InstName R3
SYMATTR Value {R}
TEXT 472 328 Left 2 !.param Q=100 L=500u F=475.5k rs=2*pi*F*L/Q p=0.1
TEXT 192 104 Left 2 !k12 L1 L2 1
TEXT 760 184 Left 4 !.tran 0 500u 0 20n
TEXT 72 48 Left 5 ;MA
TEXT 752 272 Left 2 !.param a=1 R=2k
TEXT 784 408 Left 2 !.step param  R list 1Meg   2.2k 50
TEXT 920 472 Left 4 !.opt reltol=100u
