(module L298P (layer F.Cu) (tedit 4ED1B1D2)
  (fp_text reference IC2 (at 0 0) (layer F.SilkS)
    (effects (font (thickness 0.3048)))
  )
  (fp_text value L298P (at -0.24892 -2.75082) (layer F.SilkS)
    (effects (font (thickness 0.3048)))
  )
  (fp_line (start -5.4991 -7.00024) (end -5.4991 8.001) (layer F.SilkS) (width 0.381))
  (fp_line (start -4.50088 -8.001) (end 5.4991 -8.001) (layer F.SilkS) (width 0.381))
  (fp_line (start -4.50088 -8.001) (end -5.4991 -7.00024) (layer F.SilkS) (width 0.381))
  (fp_line (start 1.50114 -8.001) (end 1.50114 -6.49986) (layer F.SilkS) (width 0.381))
  (fp_line (start 1.50114 -6.49986) (end -1.50114 -6.49986) (layer F.SilkS) (width 0.381))
  (fp_line (start -1.50114 -6.49986) (end -1.50114 -8.001) (layer F.SilkS) (width 0.381))
  (fp_line (start 1.50114 8.001) (end 1.50114 6.49986) (layer F.SilkS) (width 0.381))
  (fp_line (start 1.50114 6.49986) (end -1.50114 6.49986) (layer F.SilkS) (width 0.381))
  (fp_line (start -1.50114 6.49986) (end -1.50114 8.001) (layer F.SilkS) (width 0.381))
  (fp_line (start -5.50164 8.001) (end 5.4991 8.001) (layer F.SilkS) (width 0.381))
  (fp_line (start 5.4991 8.001) (end 5.4991 -7.99846) (layer F.SilkS) (width 0.381))
  (pad 1 thru_hole rect (at -6.87578 -5.85216 90) (size 0.59944 1.99898) (layers *.Cu *.Mask F.SilkS))
  (pad 2 thru_hole rect (at -6.87578 -4.58216 90) (size 0.59944 1.99898) (layers *.Cu *.Mask F.SilkS))
  (pad 3 thru_hole rect (at -6.87578 -3.31216 90) (size 0.59944 1.99898) (layers *.Cu *.Mask F.SilkS))
  (pad 4 thru_hole rect (at -6.87578 -2.04216 90) (size 0.59944 1.99898) (layers *.Cu *.Mask F.SilkS))
  (pad 5 thru_hole rect (at -6.87578 -0.77216 90) (size 0.59944 1.99898) (layers *.Cu *.Mask F.SilkS))
  (pad 6 thru_hole rect (at -6.87578 0.49784 90) (size 0.59944 1.99898) (layers *.Cu *.Mask F.SilkS))
  (pad 7 thru_hole rect (at -6.87578 1.76784 90) (size 0.59944 1.99898) (layers *.Cu *.Mask F.SilkS))
  (pad 8 thru_hole rect (at -6.87578 3.03784 90) (size 0.59944 1.99898) (layers *.Cu *.Mask F.SilkS))
  (pad 9 thru_hole rect (at -6.87578 4.30784 90) (size 0.59944 1.99898) (layers *.Cu *.Mask F.SilkS))
  (pad 10 thru_hole rect (at -6.87578 5.57784 90) (size 0.59944 1.99898) (layers *.Cu *.Mask F.SilkS))
  (pad 11 thru_hole rect (at 6.91388 5.6007 90) (size 0.59944 1.99898) (layers *.Cu *.Mask F.SilkS))
  (pad 12 thru_hole rect (at 6.91388 4.3307 90) (size 0.59944 1.99898) (layers *.Cu *.Mask F.SilkS))
  (pad 13 thru_hole rect (at 6.91388 3.0607 90) (size 0.59944 1.99898) (layers *.Cu *.Mask F.SilkS))
  (pad 14 thru_hole rect (at 6.91388 1.7907 90) (size 0.59944 1.99898) (layers *.Cu *.Mask F.SilkS))
  (pad 15 thru_hole rect (at 6.91388 0.5207 90) (size 0.59944 1.99898) (layers *.Cu *.Mask F.SilkS))
  (pad 16 thru_hole rect (at 6.91388 -0.7493 90) (size 0.59944 1.99898) (layers *.Cu *.Mask F.SilkS))
  (pad 17 thru_hole rect (at 6.91388 -2.0193 90) (size 0.59944 1.99898) (layers *.Cu *.Mask F.SilkS))
  (pad 18 thru_hole rect (at 6.91388 -4.5593 90) (size 0.59944 1.99898) (layers *.Cu *.Mask F.SilkS))
  (pad 19 thru_hole rect (at 6.91388 -3.2893 90) (size 0.59944 1.99898) (layers *.Cu *.Mask F.SilkS))
  (pad 20 thru_hole rect (at 6.91388 -5.8293 90) (size 0.59944 1.99898) (layers *.Cu *.Mask F.SilkS))
)
