Version 4
SHEET 1 1340 680
WIRE 192 128 176 128
WIRE 240 128 192 128
WIRE 432 128 384 128
WIRE 464 128 432 128
WIRE 576 128 464 128
WIRE 640 128 576 128
WIRE 688 128 640 128
WIRE 768 128 752 128
WIRE 976 128 768 128
WIRE 240 144 240 128
WIRE 432 160 432 128
WIRE 384 176 384 128
WIRE 576 192 576 128
WIRE 608 192 576 192
WIRE 768 192 768 128
WIRE 816 192 768 192
WIRE 576 208 576 192
WIRE 768 208 768 192
WIRE 528 224 512 224
WIRE 640 224 640 128
WIRE 720 224 640 224
WIRE 608 256 608 192
WIRE 608 256 576 256
WIRE 816 256 816 192
WIRE 816 256 768 256
WIRE 432 304 432 224
WIRE 512 304 512 224
WIRE 512 304 432 304
WIRE 576 304 512 304
WIRE 192 512 192 192
WIRE 192 512 176 512
WIRE 240 512 240 288
WIRE 240 512 192 512
WIRE 384 512 384 256
WIRE 432 512 432 304
WIRE 432 512 384 512
WIRE 768 512 768 304
WIRE 768 512 432 512
WIRE 976 512 768 512
FLAG 176 128 A
IOPIN 176 128 In
FLAG 176 512 K
IOPIN 176 512 In
FLAG 976 128 Out+
IOPIN 976 128 Out
FLAG 976 512 Out-
IOPIN 976 512 Out
FLAG 464 128 v
SYMBOL diode 224 144 R0
SYMATTR InstName D1
SYMATTR Value Din
SYMBOL voltage 240 192 R0
WINDOW 0 38 39 Left 2
WINDOW 123 0 0 Left 2
WINDOW 39 0 0 Left 2
SYMATTR InstName V1
SYMATTR Value 0
SYMBOL cap 176 128 R0
WINDOW 3 -27 56 Left 2
WINDOW 39 -21 80 VRight 2
SYMATTR Value 50p
SYMATTR SpiceLine Rpar=22Meg
SYMATTR InstName C1
SYMBOL diode 416 160 R0
SYMATTR InstName D2
SYMATTR Value Dph
SYMBOL bi 384 256 R180
WINDOW 0 24 80 Left 2
WINDOW 3 48 -154 VRight 2
SYMATTR InstName B1
SYMATTR Value I=i(v1)*{15u/10m}
SYMBOL diode 688 144 R270
WINDOW 0 32 32 VTop 2
WINDOW 3 0 32 VBottom 2
SYMATTR InstName D3
SYMATTR Value Dideal
SYMBOL pmos4 720 304 M180
WINDOW 123 58 134 Left 2
SYMATTR Value2 l=10u w=100u
SYMATTR InstName M1
SYMATTR Value P
SYMBOL pmos4 528 304 M180
WINDOW 123 -47 -21 Left 2
SYMATTR Value2 l=500u w=10u
SYMATTR InstName M2
SYMATTR Value P
TEXT 184 -56 Left 2 !.model Din d is=1e-18 rs=1 n=1.46
TEXT 184 -24 Left 2 !.model Dph d is=10f n=16 cjo=15p rs=10 mj=0
TEXT 184 16 Left 2 !.model Dideal d is=10f tt=1u
TEXT 136 48 Left 2 !.model P  pmos (Vto=0.2 Kp=8u  Lambda=1m tox=0.12u cgdo=2n cgdo=2n  cgbo=4n)\n.model N  Nmos (Vto=0.8 Kp=20u  Lambda=1m  tox=0.12u cgdo=2n cgdo=2n  cgbo=4n)
TEXT 688 -24 Left 3 ;!!!
