Version 4
SHEET 1 1640 928
WIRE 256 64 144 64
WIRE 272 64 256 64
WIRE 352 96 352 64
WIRE 144 112 144 64
WIRE 176 112 144 112
WIRE 256 128 256 64
WIRE 256 128 240 128
WIRE 96 144 32 144
WIRE 128 144 96 144
WIRE 176 144 128 144
WIRE 256 240 144 240
WIRE 272 240 256 240
WIRE 352 272 352 240
WIRE 144 288 144 240
WIRE 176 288 144 288
WIRE 256 304 256 240
WIRE 256 304 240 304
WIRE 96 320 96 144
WIRE 176 320 96 320
FLAG 448 160 0
FLAG 448 80 VCC
FLAG 208 96 VCC
FLAG 208 272 VCC
FLAG 32 224 0
FLAG 256 64 Os
FLAG 256 240 Oa
FLAG 352 96 0
FLAG 352 272 0
FLAG 208 160 0
FLAG 208 336 0
FLAG 128 144 in
SYMBOL voltage 448 64 R0
WINDOW 123 0 0 Left 2
WINDOW 39 0 0 Left 2
SYMATTR InstName V1
SYMATTR Value 15V
SYMBOL voltage 32 128 R0
WINDOW 3 387 254 Right 2
WINDOW 39 0 0 Left 2
SYMATTR Value PULSE(500mV 3 5u 10n 10n 15u 40u)
SYMATTR InstName V3
SYMBOL LM2902_AB 208 240 R0
SYMATTR InstName U2
SYMBOL res 368 48 R90
WINDOW 0 0 56 VBottom 2
WINDOW 3 35 54 VTop 2
SYMATTR InstName R1
SYMATTR Value 2K
SYMBOL res 368 224 R90
WINDOW 0 0 56 VBottom 2
WINDOW 3 35 54 VTop 2
SYMATTR InstName R2
SYMATTR Value 2K
SYMBOL LM2902_ST 208 128 R0
SYMATTR InstName U1
TEXT 24 56 Left 2 !.tran 30u
TEXT 368 200 Left 2 !.opt plotwinsize=0
TEXT 40 -8 Left 3 ;Voltage Follower Pulse Response
