Version 4
SHEET 1 1720 800
WIRE 496 -32 480 -32
WIRE 496 0 480 0
WIRE 368 64 112 64
WIRE 112 80 112 64
WIRE 480 96 480 80
WIRE 480 96 432 96
WIRE 512 96 480 96
WIRE 432 112 432 96
WIRE 512 112 512 96
WIRE 368 208 368 144
WIRE 624 208 576 208
WIRE 704 208 624 208
WIRE 848 208 704 208
WIRE 704 224 704 208
WIRE 432 256 432 192
WIRE 432 256 416 256
WIRE 512 256 512 192
WIRE 528 256 512 256
WIRE 112 304 112 160
WIRE 368 304 112 304
WIRE 704 304 704 288
WIRE 704 304 576 304
FLAG 848 288 0
FLAG 624 208 X
FLAG 496 -32 b
FLAG 496 0 h
FLAG 112 304 0
FLAG 704 304 0
SYMBOL voltage 112 64 R0
WINDOW 3 39 56 Left 2
WINDOW 123 0 0 Left 2
WINDOW 39 0 0 Left 2
SYMATTR Value SINE(0 1800 50)
SYMATTR InstName V1
SYMBOL res 352 48 R0
WINDOW 0 -37 53 Left 2
WINDOW 3 43 51 Left 2
SYMATTR InstName R1
SYMATTR Value 6
SYMBOL SBORKA\\TRANSFORMS\\Winding_RC 416 224 R0
WINDOW 0 -16 -40 Invisible 2
WINDOW 123 -118 93 Top 2
SYMATTR InstName U1
SYMATTR Value2 Rser=1u Cpar=1p
SYMBOL SBORKA\\TRANSFORMS\\Winding_RC 528 224 M0
WINDOW 0 -16 -40 Invisible 2
WINDOW 123 -57 100 Top 2
SYMATTR InstName U2
SYMATTR Value2 Rser=290 Cpar=100f
SYMATTR SpiceLine N=3000
SYMBOL res 832 192 R0
SYMATTR InstName R2
SYMATTR Value {R}
SYMBOL SBORKA\\TRANSFORMS\\Core_B_H 480 32 R0
WINDOW 0 -37 5 Invisible 2
WINDOW 3 67 -64 Left 2
WINDOW 123 57 -42 Left 2
WINDOW 40 51 -90 Left 2
SYMATTR InstName U3
SYMATTR Value Hc=22 Bs=490m Br=100m
SYMATTR Value2 A=103.5u Lm=69.9m Lg=0
SYMATTR SpiceLine2 Fe=1Meg
SYMBOL voltage 432 96 R0
WINDOW 0 14 22 Left 2
WINDOW 3 -8 56 Left 2
SYMATTR InstName Va1
SYMATTR Value 0
SYMBOL voltage 512 96 R0
WINDOW 0 14 22 Left 2
WINDOW 3 -6 58 Left 2
SYMATTR InstName Va2
SYMATTR Value 0
SYMBOL TVSdiode 688 224 R0
WINDOW 3 47 38 Left 2
SYMATTR Value Lim7V5
SYMATTR InstName D1
TEXT 128 24 Left 2 !.opt gshunt=1n reltol=100u
TEXT 632 152 Left 2 !.step param R list 100 1G
TEXT 664 72 Left 2 !.tran 200m
TEXT 128 160 Left 2 ;1800V/6Ohm=300A
TEXT 96 408 Left 2 !.model Lim7V5 D Ron=1  Roff=50Meg Vfwd=7.5 epsilon=6 Vrev=7.5 revepsilon=6
