Version 4
SHEET 1 1312 848
WIRE 208 96 176 96
WIRE 320 96 272 96
WIRE 864 112 864 80
WIRE 960 112 960 80
WIRE 624 128 592 128
WIRE 736 128 688 128
WIRE 64 192 32 192
WIRE 176 192 176 96
WIRE 176 192 144 192
WIRE 208 192 176 192
WIRE 320 192 320 96
WIRE 320 192 288 192
WIRE 592 224 592 128
WIRE 624 224 592 224
WIRE 736 224 736 128
WIRE 736 224 704 224
WIRE 864 224 864 192
WIRE 960 224 960 192
WIRE 240 320 240 304
WIRE 176 336 176 192
WIRE 208 336 176 336
WIRE 672 336 672 320
WIRE 320 352 320 192
WIRE 320 352 272 352
WIRE 352 352 320 352
WIRE 400 352 352 352
WIRE 464 352 400 352
WIRE 592 352 592 224
WIRE 592 352 544 352
WIRE 640 352 592 352
WIRE 48 368 -32 368
WIRE 208 368 128 368
WIRE 736 368 736 224
WIRE 736 368 704 368
WIRE 816 368 736 368
WIRE 864 368 816 368
WIRE 960 368 864 368
WIRE -32 384 -32 368
WIRE 640 384 592 384
WIRE 864 384 864 368
WIRE 960 384 960 368
WIRE 240 416 240 384
WIRE 592 416 592 384
WIRE 672 416 672 400
WIRE -32 480 -32 464
WIRE 864 480 864 464
WIRE 960 480 960 448
FLAG 864 224 0
FLAG 960 224 0
FLAG -32 480 0
FLAG -32 368 IN
FLAG 960 368 OUT
FLAG 864 480 0
FLAG 960 480 0
FLAG 240 416 V-
FLAG 960 80 V-
FLAG 864 80 V+
FLAG 240 304 V+
FLAG 32 192 0
FLAG 672 416 V-
FLAG 672 320 V+
FLAG 592 416 0
FLAG 352 352 1
DATAFLAG 816 368 "round($*10k)/10k"
DATAFLAG 400 352 "round($*10k)/10k"
SYMBOL voltage 864 96 R0
SYMATTR InstName V1
SYMATTR Value 5
SYMBOL voltage 960 96 R0
SYMATTR InstName V2
SYMATTR Value -5
SYMBOL voltage -32 368 R0
WINDOW 123 24 124 Left 2
WINDOW 39 0 0 Left 2
SYMATTR InstName V3
SYMATTR Value PULSE(0 1 0 1n 1n 100u 200u)
SYMATTR Value2 AC 1
SYMBOL LTC6241 240 352 R0
SYMATTR InstName U1
SYMBOL res 848 368 R0
SYMATTR InstName RL
SYMATTR Value 1K
SYMBOL cap 944 384 R0
SYMATTR InstName CL
SYMATTR Value 5p
SYMBOL res 32 384 R270
WINDOW 0 32 56 VTop 2
WINDOW 3 0 56 VBottom 2
SYMATTR InstName R2
SYMATTR Value 1k
SYMBOL res 192 208 R270
WINDOW 0 32 56 VTop 2
WINDOW 3 0 56 VBottom 2
SYMATTR InstName R3
SYMATTR Value 10k
SYMBOL res 48 208 R270
WINDOW 0 32 56 VTop 2
WINDOW 3 0 56 VBottom 2
SYMATTR InstName R4
SYMATTR Value 1k
SYMBOL cap 208 112 R270
WINDOW 0 32 32 VTop 2
WINDOW 3 0 32 VBottom 2
SYMATTR InstName C2
SYMATTR Value 10p
SYMBOL LTC6241 672 368 R0
SYMATTR InstName U2
SYMBOL res 608 240 R270
WINDOW 0 32 56 VTop 2
WINDOW 3 0 56 VBottom 2
SYMATTR InstName R5
SYMATTR Value 10k
SYMBOL res 448 368 R270
WINDOW 0 32 56 VTop 2
WINDOW 3 0 56 VBottom 2
SYMATTR InstName R6
SYMATTR Value 1k
SYMBOL cap 624 144 R270
WINDOW 0 32 32 VTop 2
WINDOW 3 0 32 VBottom 2
SYMATTR InstName C1
SYMATTR Value 100p
TEXT 504 552 Left 2 ;.tran 1m
TEXT -32 656 Left 2 !.step dec param FSTOP 1 1e6 10
TEXT -32 568 Left 2 !.param FSTART=.1 FSTOP=1e6\n.noise V(out) V1 dec 100 {FSTART} {FSTOP}
TEXT -32 696 Left 2 !.measure vtotnoise RMS V(onoise)*sqrt(FSTOP-FSTART)
TEXT -48 776 Left 2 ;View -> SPICE Error Log\nClick the right mouse button in the Error Log File and select "Plot .step'ed .meas data".\nA plot window with "vtotnoise" will be shown. Left click on any x-axis value and select "Logaritmic".
RECTANGLE Normal 608 736 -48 624 2
