#VRML V2.0 utf8
#Exported from Wings 3D 1.4.1
DEF cube2_copy3 Transform {
  children [
    Shape {
      appearance Appearance {
        material DEF pins Material {
          diffuseColor 0.7 0.7 0.7
          emissiveColor 0.7 0.7 0.7
          specularColor 0.7 0.7 0.7
          ambientIntensity 0.6999999999999998
          transparency 0.0
          shininess 1.0
        }
      }
      geometry IndexedFaceSet {
        normalPerVertex TRUE
        coord Coordinate { point [
          -1.4749996666666665 0.5700000000000001 0.5100000000000001,
          -1.4749996666666665 -0.5700000000000001 0.5100000000000001,
          -1.5749996666666666 -0.5700000000000001 0.4900000000000001,
          -1.5749996666666666 0.5700000000000001 0.4900000000000001,
          -1.4749996666666665 0.5700000000000001 0.10500000000000002,
          -1.4749996666666665 -0.5700000000000001 0.10500000000000002,
          -1.5749996666666666 -0.5700000000000001 0.12500000000000003,
          -1.5749996666666666 0.5700000000000001 0.12500000000000003,
          -1.4549996666666665 -0.5700000000000001 0.61,
          -1.4549996666666665 0.5700000000000001 0.61,
          -1.5749996666666666 0.5700000000000001 0.61,
          -1.5749996666666666 -0.5700000000000001 0.61,
          -1.3549996666666666 -0.5700000000000001 0.5100000000000001,
          -1.3549996666666666 0.5700000000000001 0.5100000000000001,
          -1.3549996666666666 0.5700000000000001 0.61,
          -1.3549996666666666 -0.5700000000000001 0.61,
          -1.4549996666666665 0.5700000000000001 0.005000000000000028,
          -1.4549996666666665 -0.5700000000000001 0.005000000000000028,
          -1.5749996666666666 -0.5700000000000001 0.005000000000000028,
          -1.5749996666666666 0.5700000000000001 0.005000000000000028,
          -1.0749996666666664 -0.5700000000000001 0.005000000000000028,
          -1.0749996666666664 0.57 0.005000000000000028,
          -1.0749996666666664 0.57 0.10500000000000002,
          -1.0749996666666664 -0.5700000000000001 0.10500000000000002 ] }
        coordIndex [
          0, 1, 5, 4, -1,
          0, 3, 10, 9, -1,
          0, 4, 7, 3, -1,
          0, 9, 14, 13, -1,
          0, 13, 12, 1, -1,
          1, 2, 6, 5, -1,
          1, 8, 11, 2, -1,
          1, 12, 15, 8, -1,
          2, 3, 7, 6, -1,
          2, 11, 10, 3, -1,
          4, 5, 23, 22, -1,
          4, 16, 19, 7, -1,
          4, 22, 21, 16, -1,
          5, 6, 18, 17, -1,
          5, 17, 20, 23, -1,
          6, 7, 19, 18, -1,
          8, 9, 10, 11, -1,
          8, 15, 14, 9, -1,
          12, 13, 14, 15, -1,
          16, 17, 18, 19, -1,
          16, 21, 20, 17, -1,
          20, 21, 22, 23, -1 ]
        normal Normal { vector [
          0.30151134457776363 0.9045340337332909 -0.30151134457776363,
          0.30151134457776363 -0.9045340337332909 -0.30151134457776363,
          -0.7071067811865475 -0.7071067811865475 0.0,
          -0.7071067811865475 0.7071067811865475 0.0,
          0.3015113445777637 0.9045340337332909 0.30151134457776363,
          0.30151134457776363 -0.9045340337332909 0.30151134457776363,
          -0.7071067811865475 -0.7071067811865475 0.0,
          -0.7071067811865475 0.7071067811865475 0.0,
          0.0 -0.7071067811865475 0.7071067811865475,
          0.0 0.7071067811865475 0.7071067811865475,
          -0.5773502691896258 0.5773502691896258 0.5773502691896258,
          -0.5773502691896258 -0.5773502691896258 0.5773502691896258,
          0.5773502691896258 -0.5773502691896258 -0.5773502691896258,
          0.5773502691896258 0.5773502691896258 -0.5773502691896258,
          0.5773502691896258 0.5773502691896258 0.5773502691896258,
          0.5773502691896258 -0.5773502691896258 0.5773502691896258,
          1.0064695247972913e-16 0.7071067811865475 -0.7071067811865475,
          0.0 -0.7071067811865475 -0.7071067811865475,
          -0.5773502691896258 -0.5773502691896258 -0.5773502691896258,
          -0.5773502691896258 0.5773502691896258 -0.5773502691896258,
          0.5773502691896258 -0.5773502691896258 -0.5773502691896258,
          0.5773502691896258 0.5773502691896257 -0.5773502691896257,
          0.5773502691896258 0.5773502691896257 0.5773502691896257,
          0.5773502691896258 -0.5773502691896258 0.5773502691896258 ] }
        normalIndex [
          0, 1, 5, 4, -1,
          0, 3, 10, 9, -1,
          0, 4, 7, 3, -1,
          0, 9, 14, 13, -1,
          0, 13, 12, 1, -1,
          1, 2, 6, 5, -1,
          1, 8, 11, 2, -1,
          1, 12, 15, 8, -1,
          2, 3, 7, 6, -1,
          2, 11, 10, 3, -1,
          4, 5, 23, 22, -1,
          4, 16, 19, 7, -1,
          4, 22, 21, 16, -1,
          5, 6, 18, 17, -1,
          5, 17, 20, 23, -1,
          6, 7, 19, 18, -1,
          8, 9, 10, 11, -1,
          8, 15, 14, 9, -1,
          12, 13, 14, 15, -1,
          16, 17, 18, 19, -1,
          16, 21, 20, 17, -1,
          20, 21, 22, 23, -1 ]
      }
    }
  ]
}

DEF cube2 Transform {
  children [
    Shape {
      appearance Appearance {
        material USE pins
      }
      geometry IndexedFaceSet {
        normalPerVertex TRUE
        coord Coordinate { point [
          1.4749999999999999 -0.5700000000000001 0.5100000000000001,
          1.4749999999999999 0.5700000000000001 0.5100000000000001,
          1.575 0.5700000000000001 0.4900000000000001,
          1.575 -0.5700000000000001 0.4900000000000001,
          1.4749999999999999 -0.5700000000000001 0.10500000000000002,
          1.4749999999999999 0.5700000000000001 0.10500000000000002,
          1.575 0.5700000000000001 0.12500000000000003,
          1.575 -0.5700000000000001 0.12500000000000003,
          1.4549999999999998 0.5700000000000001 0.61,
          1.4549999999999998 -0.5700000000000001 0.61,
          1.575 -0.5700000000000001 0.61,
          1.575 0.5700000000000001 0.61,
          1.355 0.5700000000000001 0.5100000000000001,
          1.355 -0.5700000000000001 0.5100000000000001,
          1.355 -0.5700000000000001 0.61,
          1.355 0.5700000000000001 0.61,
          1.4549999999999998 -0.5700000000000001 0.005000000000000028,
          1.4549999999999998 0.5700000000000001 0.005000000000000028,
          1.575 0.5700000000000001 0.005000000000000028,
          1.575 -0.5700000000000001 0.005000000000000028,
          1.0749999999999997 0.5700000000000001 0.005000000000000028,
          1.0749999999999997 -0.5700000000000001 0.005000000000000028,
          1.0749999999999997 -0.5700000000000001 0.10500000000000002,
          1.0749999999999997 0.5700000000000001 0.10500000000000002 ] }
        coordIndex [
          0, 1, 5, 4, -1,
          0, 3, 10, 9, -1,
          0, 4, 7, 3, -1,
          0, 9, 14, 13, -1,
          0, 13, 12, 1, -1,
          1, 2, 6, 5, -1,
          1, 8, 11, 2, -1,
          1, 12, 15, 8, -1,
          2, 3, 7, 6, -1,
          2, 11, 10, 3, -1,
          4, 5, 23, 22, -1,
          4, 16, 19, 7, -1,
          4, 22, 21, 16, -1,
          5, 6, 18, 17, -1,
          5, 17, 20, 23, -1,
          6, 7, 19, 18, -1,
          8, 9, 10, 11, -1,
          8, 15, 14, 9, -1,
          12, 13, 14, 15, -1,
          16, 17, 18, 19, -1,
          16, 21, 20, 17, -1,
          20, 21, 22, 23, -1 ]
        normal Normal { vector [
          -0.30151134457776363 -0.9045340337332909 -0.30151134457776363,
          -0.30151134457776363 0.9045340337332909 -0.30151134457776363,
          0.7071067811865475 0.7071067811865475 0.0,
          0.7071067811865475 -0.7071067811865475 0.0,
          -0.30151134457776363 -0.9045340337332909 0.30151134457776363,
          -0.30151134457776363 0.9045340337332909 0.30151134457776363,
          0.7071067811865475 0.7071067811865475 0.0,
          0.7071067811865475 -0.7071067811865475 0.0,
          0.0 0.7071067811865475 0.7071067811865475,
          0.0 -0.7071067811865475 0.7071067811865475,
          0.5773502691896258 -0.5773502691896258 0.5773502691896258,
          0.5773502691896258 0.5773502691896258 0.5773502691896258,
          -0.5773502691896258 0.5773502691896258 -0.5773502691896258,
          -0.5773502691896258 -0.5773502691896258 -0.5773502691896258,
          -0.5773502691896258 -0.5773502691896258 0.5773502691896258,
          -0.5773502691896258 0.5773502691896258 0.5773502691896258,
          0.0 -0.7071067811865475 -0.7071067811865475,
          0.0 0.7071067811865475 -0.7071067811865475,
          0.5773502691896258 0.5773502691896258 -0.5773502691896258,
          0.5773502691896258 -0.5773502691896258 -0.5773502691896258,
          -0.5773502691896258 0.5773502691896258 -0.5773502691896258,
          -0.5773502691896258 -0.5773502691896258 -0.5773502691896258,
          -0.5773502691896258 -0.5773502691896258 0.5773502691896258,
          -0.5773502691896258 0.5773502691896258 0.5773502691896258 ] }
        normalIndex [
          0, 1, 5, 4, -1,
          0, 3, 10, 9, -1,
          0, 4, 7, 3, -1,
          0, 9, 14, 13, -1,
          0, 13, 12, 1, -1,
          1, 2, 6, 5, -1,
          1, 8, 11, 2, -1,
          1, 12, 15, 8, -1,
          2, 3, 7, 6, -1,
          2, 11, 10, 3, -1,
          4, 5, 23, 22, -1,
          4, 16, 19, 7, -1,
          4, 22, 21, 16, -1,
          5, 6, 18, 17, -1,
          5, 17, 20, 23, -1,
          6, 7, 19, 18, -1,
          8, 9, 10, 11, -1,
          8, 15, 14, 9, -1,
          12, 13, 14, 15, -1,
          16, 17, 18, 19, -1,
          16, 21, 20, 17, -1,
          20, 21, 22, 23, -1 ]
      }
    }
  ]
}

DEF cube1 Transform {
  children [
    Shape {
      appearance Appearance {
        material DEF mold Material {
          diffuseColor 0.1 0.1 0.1
          emissiveColor 0.1 0.1 0.1
          specularColor 0.1 0.1 0.1
          ambientIntensity 0.10000000000000002
          transparency 0.0
          shininess 1.0
        }
      }
      geometry IndexedFaceSet {
        normalPerVertex TRUE
        coord Coordinate { point [
          -1.35 -1.1749999999999998 0.5499999999999999,
          -1.35 1.1749999999999998 0.5499999999999999,
          1.35 1.1749999999999998 0.5499999999999999,
          1.35 -1.1749999999999998 0.5499999999999999,
          -1.2465 -1.0924999999999998 0.12499999999999997,
          -1.2465 1.0924999999999998 0.12499999999999997,
          1.2465 1.0924999999999998 0.12499999999999997,
          1.2465 -1.0924999999999998 0.12499999999999997,
          -1.2465000098043524 1.0924999999999998 0.9749999999999993,
          -1.2465000098043524 -1.0924999999999998 0.9749999999999993,
          1.2464999123768823 -1.0924999999999998 0.9750001019246101,
          1.2464999123768823 1.0924999999999998 0.9750001019246101,
          -0.9499998333333334 -1.0924999999999998 0.12499999999999997,
          0.9499998333333333 -1.0924999999999998 0.12499999999999997,
          -0.9499998333333334 1.0924999999999998 0.12499999999999997,
          0.9499998333333333 1.0924999999999998 0.12499999999999997,
          0.9499998333333333 1.0784999999999998 0.05499999999999998,
          0.9499998333333333 -1.0784999999999998 0.05499999999999998,
          -0.9499998333333334 -1.0784999999999998 0.05499999999999998,
          -0.9499998333333334 1.0784999999999998 0.05499999999999998,
          0.9358999118144485 1.0924999999999998 0.9750002815397011,
          0.9358999118144484 -1.0924999999999998 0.9750002815397011 ] }
        coordIndex [
          0, 1, 5, 4, -1,
          0, 3, 10, 21, 9, -1,
          0, 4, 12, 13, 7, 3, -1,
          0, 9, 8, 1, -1,
          1, 2, 6, 15, 14, 5, -1,
          1, 8, 20, 11, 2, -1,
          2, 3, 7, 6, -1,
          2, 11, 10, 3, -1,
          4, 5, 14, 12, -1,
          6, 7, 13, 15, -1,
          8, 9, 21, 20, -1,
          12, 14, 19, 18, -1,
          12, 18, 17, 13, -1,
          13, 17, 16, 15, -1,
          14, 15, 16, 19, -1,
          16, 17, 18, 19, -1 ]
        normal Normal { vector [
          -0.7034513596811487 -0.7107434027571007 -3.007266734178065e-8,
          -0.7034513596811488 0.7107434027571007 -3.007266721116101e-8,
          0.7034513513350396 0.7107434110175811 2.6651073581549927e-8,
          0.7034513513350396 -0.7107434110175811 2.665107345093028e-8,
          -0.48920586391562465 -0.49427701723193646 -0.7185874010493555,
          -0.48920586391562465 0.49427701723193646 -0.7185874010493555,
          0.48920586391562465 0.49427701723193646 -0.7185874010493555,
          0.48920586391562465 -0.49427701723193646 -0.7185874010493555,
          -0.489205929971575 0.49427701987226463 0.7185873542630983,
          -0.4892059299715751 -0.4942770198722648 0.718587354263098,
          0.48920605683246104 -0.4942769427074273 0.7185873209751432,
          0.48920605683246104 0.49427694270742717 0.7185873209751434,
          -0.38423698203943757 -0.7539713709381581 -0.5328124561596312,
          0.38423698203943757 -0.7539713709381581 -0.5328124561596312,
          -0.38423698203943757 0.7539713709381581 -0.5328124561596312,
          0.38423698203943757 0.7539713709381581 -0.5328124561596312,
          0.5429467143877109 0.5324030560584667 -0.6494273255994043,
          0.5429467143877109 -0.5324030560584667 -0.6494273255994043,
          -0.5429467143877109 -0.5324030560584667 -0.6494273255994043,
          -0.5429467143877109 0.5324030560584667 -0.6494273255994043,
          1.8560531525843767e-7 0.40895186477805934 0.9125559557060123,
          1.8560531525843767e-7 -0.40895186477805945 0.9125559557060121 ] }
        normalIndex [
          0, 1, 5, 4, -1,
          0, 3, 10, 21, 9, -1,
          0, 4, 12, 13, 7, 3, -1,
          0, 9, 8, 1, -1,
          1, 2, 6, 15, 14, 5, -1,
          1, 8, 20, 11, 2, -1,
          2, 3, 7, 6, -1,
          2, 11, 10, 3, -1,
          4, 5, 14, 12, -1,
          6, 7, 13, 15, -1,
          8, 9, 21, 20, -1,
          12, 14, 19, 18, -1,
          12, 18, 17, 13, -1,
          13, 17, 16, 15, -1,
          14, 15, 16, 19, -1,
          16, 17, 18, 19, -1 ]
      }
    },
    Shape {
      appearance Appearance {
        material DEF mark Material {
          diffuseColor 1.0 1.0 1.0
          emissiveColor 1.0 1.0 1.0
          specularColor 1.0 1.0 1.0
          ambientIntensity 1.0
          transparency 0.0
          shininess 1.0
        }
      }
      geometry IndexedFaceSet {
        normalPerVertex TRUE
        coord Coordinate { point [
          1.2464999123768823 -1.0924999999999998 0.9750001019246101,
          1.2464999123768823 1.0924999999999998 0.9750001019246101,
          0.9358999118144485 1.0924999999999998 0.9750002815397011,
          0.9358999118144484 -1.0924999999999998 0.9750002815397011 ] }
        coordIndex [
          0, 1, 2, 3, -1 ]
        normal Normal { vector [
          0.48920605683246104 -0.4942769427074273 0.7185873209751432,
          0.48920605683246104 0.49427694270742717 0.7185873209751434,
          1.8560531525843767e-7 0.40895186477805934 0.9125559557060123,
          1.8560531525843767e-7 -0.40895186477805945 0.9125559557060121 ] }
        normalIndex [
          0, 1, 2, 3, -1 ]
      }
    }
  ]
}

