Version 4
SHEET 1 880 680
WIRE 368 32 192 32
WIRE 368 48 368 32
WIRE 192 128 192 32
WIRE 224 176 192 176
WIRE 144 208 32 208
WIRE 32 224 32 208
WIRE 192 240 192 224
WIRE 224 240 224 176
WIRE 224 240 192 240
WIRE 192 272 192 240
FLAG 192 272 0
FLAG 368 128 0
FLAG 32 304 0
SYMBOL voltage 368 144 R180
WINDOW 123 0 0 Left 2
WINDOW 39 0 0 Left 2
SYMATTR InstName V1
SYMATTR Value 5
SYMBOL voltage 32 320 R180
WINDOW 123 0 0 Left 2
WINDOW 39 0 0 Left 2
SYMATTR InstName V2
SYMATTR Value 5
SYMBOL Hef4000\\Hef4007p 144 128 R0
SYMATTR InstName U1
TEXT 0 328 Left 2 !.dc v1 0 15 100m v2 5 15 5
