Version 4
SHEET 1 988 680
WIRE 400 176 240 176
WIRE 192 256 32 256
FLAG 240 272 0
FLAG 32 336 0
FLAG 400 256 0
SYMBOL nmos 192 176 R0
SYMATTR InstName M1
SYMATTR Value HEFp
SYMBOL voltage 32 352 R180
WINDOW 123 0 0 Left 0
WINDOW 39 0 0 Left 0
SYMATTR InstName V1
SYMATTR Value 5
SYMBOL voltage 400 272 R180
WINDOW 123 0 0 Left 0
WINDOW 39 0 0 Left 0
SYMATTR InstName V2
SYMATTR Value 5
TEXT -8 88 Left 0 !.model Hefp vdmos pchan vto=-1.6  kp=0.9m lambda=45m  rs=80 mtriode=1
TEXT -8 368 Left 0 !.dc v2 0 15 100m v1 5 15 5
