Version 4
SHEET 1 880 680
WIRE 448 48 -32 48
WIRE -128 160 -224 160
WIRE 0 160 -128 160
WIRE 144 160 112 160
WIRE 304 160 256 160
WIRE 112 176 112 160
WIRE 256 176 256 160
WIRE 448 176 448 48
WIRE 448 176 416 176
WIRE -32 192 -32 48
WIRE 0 192 -32 192
WIRE 112 192 112 176
WIRE 144 192 112 192
WIRE 256 192 256 176
WIRE 304 192 256 192
WIRE -128 272 -128 240
WIRE 144 272 -128 272
WIRE 192 272 144 272
FLAG 192 352 0
FLAG 144 272 vdd
FLAG -224 224 0
SYMBOL Hef4000\\HEF4011B 48 112 R0
SYMATTR InstName U3
SYMATTR SpiceModel VDD 0
SYMBOL Hef4000\\HEF4011B 192 112 R0
SYMATTR InstName U1
SYMATTR SpiceModel VDD 0
SYMBOL Hef4000\\HEF4011B 352 112 R0
SYMATTR InstName U2
SYMATTR SpiceModel VDD 0
SYMBOL voltage 192 256 R0
WINDOW 123 0 0 Left 0
WINDOW 39 0 0 Left 0
SYMATTR InstName V1
SYMATTR Value 5
SYMBOL res -144 144 R0
SYMATTR InstName R1
SYMATTR Value 1k
SYMBOL cap -240 160 R0
SYMATTR InstName C1
SYMATTR Value 100p
TEXT -40 384 Left 0 !.tran 2u uic
