Version 4
SHEET 1 1124 680
WIRE 80 208 -96 208
WIRE 368 208 320 208
WIRE 96 224 96 192
WIRE 144 224 144 192
WIRE 192 224 192 192
WIRE -96 240 -96 208
WIRE 80 240 80 208
WIRE 224 240 224 208
WIRE 224 240 80 240
WIRE -96 336 -96 320
WIRE 368 384 368 208
WIRE 368 384 352 384
FLAG 80 144 0
FLAG 336 144 0
FLAG -96 208 ct
FLAG -96 336 0
FLAG 368 384 0
SYMBOL SBORKA\\TRANSFORM\\CoreChan 192 160 R90
WINDOW 123 -332 2 Left 2
WINDOW 39 -317 41 Left 2
SYMATTR Value2 Area=8.55e-3  Len=56e-2
SYMATTR SpiceLine Hc=2 Br=1.15 BS=1.56
SYMATTR InstName U1
SYMBOL SBORKA\\TRANSFORM\\Gap 112 160 R90
WINDOW 123 -327 23 Left 2
SYMATTR Value2 Area=8.55e-3 gap=10m
SYMATTR InstName U2
SYMBOL SBORKA\\TRANSFORM\\Winding 224 128 R270
WINDOW 123 -120 52 Left 2
WINDOW 39 -135 25 Left 2
SYMATTR Value2 N=22
SYMATTR SpiceLine Rs=0.2m
SYMATTR InstName U3
SYMBOL current -96 240 R0
SYMATTR InstName I1
SYMATTR Value PWL(0 0 1m 350 1 450)
TEXT 88 368 Left 2 !.tran 1 uic
TEXT 448 248 Left 2 !.options reltol=3m vntol=1m abstol=1n
TEXT 472 208 Left 3 ;For speedup of the count -->
