Version 4
SHEET 1 1560 680
WIRE 656 128 544 128
WIRE 704 128 656 128
WIRE 880 128 848 128
WIRE 1008 128 880 128
WIRE 672 192 656 192
WIRE 704 192 672 192
WIRE 864 192 848 192
WIRE 864 208 864 192
WIRE 896 208 864 208
WIRE 928 208 896 208
WIRE 1008 208 1008 128
WIRE 544 224 544 208
WIRE 544 224 512 224
WIRE 512 240 512 224
WIRE 544 240 544 224
WIRE 720 240 688 240
WIRE 848 240 832 240
WIRE 544 336 544 320
WIRE 656 336 656 192
WIRE 656 336 544 336
FLAG 656 128 x
FLAG 880 128 y
FLAG 672 192 xx
FLAG 896 208 yy
FLAG 688 240 0
FLAG 848 240 0
FLAG 512 240 0
SYMBOL voltage 544 112 R0
WINDOW 3 -130 -21 Left 2
WINDOW 123 0 0 Left 2
WINDOW 39 -63 14 VRight 2
SYMATTR Value PULSE(2. 0 5n 3n 3n 47n  100n)
SYMATTR SpiceLine Rser=50
SYMATTR InstName V4
SYMBOL res 912 224 R270
WINDOW 0 32 56 VTop 2
WINDOW 3 0 56 VBottom 2
SYMATTR InstName R5
SYMATTR Value 100
SYMBOL Twisted_pair64 800 208 R0
WINDOW 39 0 -150 Bottom 2
SYMATTR SpiceLine Len=1 R=53m C=70p Cws=118p L=629n Rs=R/10
SYMATTR InstName X1
SYMBOL voltage 544 224 R0
WINDOW 3 -129 143 Left 2
WINDOW 123 0 0 Left 2
WINDOW 39 -63 14 VRight 2
SYMATTR Value PULSE(2. 0 5n 3n 3n 47n  100n)
SYMATTR SpiceLine Rser=50
SYMATTR InstName V1
TEXT 904 304 Left 2 !.tran 300n
