Version 4
SHEET 1 880 852
WIRE 272 48 224 48
WIRE 144 128 144 48
WIRE 272 144 272 48
WIRE 144 160 144 128
WIRE 176 160 144 160
WIRE 272 176 272 144
WIRE 272 176 240 176
WIRE 176 192 80 192
WIRE 208 240 208 208
WIRE 272 384 224 384
WIRE 144 464 144 384
WIRE 272 480 272 384
WIRE 144 496 144 464
WIRE 176 496 144 496
WIRE 272 512 272 480
WIRE 272 512 240 512
WIRE 176 528 80 528
WIRE 208 576 208 544
WIRE 288 640 240 640
WIRE 160 720 160 640
WIRE 288 736 288 640
WIRE 160 752 160 720
WIRE 192 752 160 752
WIRE 288 768 288 736
WIRE 288 768 256 768
WIRE 192 784 96 784
WIRE 224 832 224 800
FLAG 208 240 0
FLAG 464 192 0
FLAG 464 112 VCC
FLAG 208 144 VCC
FLAG 336 144 0
FLAG 80 272 0
FLAG 272 48 OUT1
FLAG 80 192 in
FLAG 64 128 0
FLAG 64 48 VCC
FLAG 208 576 0
FLAG 208 480 VCC
FLAG 336 480 0
FLAG 272 384 OUT2
FLAG 80 528 in
FLAG 64 464 0
FLAG 64 384 VCC
FLAG 224 832 0
FLAG 224 736 VCC
FLAG 352 736 0
FLAG 288 640 OUT3
FLAG 96 784 in
FLAG 80 720 0
FLAG 80 640 VCC
SYMBOL SBORKA\\OPamp\\LM358_AB 208 112 R0
SYMATTR InstName U1
SYMBOL voltage 464 96 R0
WINDOW 123 0 0 Left 2
WINDOW 39 0 0 Left 2
SYMATTR InstName V1
SYMATTR Value 5
SYMBOL cap 336 128 R90
WINDOW 0 0 32 VBottom 2
WINDOW 3 32 32 VTop 2
SYMATTR InstName C1
SYMATTR Value {c}
SYMBOL voltage 80 176 R0
WINDOW 123 0 0 Left 2
WINDOW 39 0 0 Left 2
SYMATTR InstName V2
SYMATTR Value SINE(2.5 0.2 1k)
SYMBOL res 240 32 R90
WINDOW 0 0 56 VBottom 2
WINDOW 3 32 56 VTop 2
SYMATTR InstName R1
SYMATTR Value 100k
SYMBOL res 160 32 R90
WINDOW 0 0 56 VBottom 2
WINDOW 3 32 56 VTop 2
SYMATTR InstName R2
SYMATTR Value 100k
SYMBOL res 160 112 R90
WINDOW 0 0 56 VBottom 2
WINDOW 3 32 56 VTop 2
SYMATTR InstName R3
SYMATTR Value 100k
SYMBOL cap 336 464 R90
WINDOW 0 0 32 VBottom 2
WINDOW 3 32 32 VTop 2
SYMATTR InstName C3
SYMATTR Value {c}
SYMBOL res 240 368 R90
WINDOW 0 0 56 VBottom 2
WINDOW 3 32 56 VTop 2
SYMATTR InstName R7
SYMATTR Value 100k
SYMBOL res 160 368 R90
WINDOW 0 0 56 VBottom 2
WINDOW 3 32 56 VTop 2
SYMATTR InstName R8
SYMATTR Value 100k
SYMBOL res 160 448 R90
WINDOW 0 0 56 VBottom 2
WINDOW 3 32 56 VTop 2
SYMATTR InstName R9
SYMATTR Value 100k
SYMBOL cap 352 720 R90
WINDOW 0 0 32 VBottom 2
WINDOW 3 32 32 VTop 2
SYMATTR InstName C2
SYMATTR Value {c}
SYMBOL res 256 624 R90
WINDOW 0 0 56 VBottom 2
WINDOW 3 32 56 VTop 2
SYMATTR InstName R4
SYMATTR Value 100k
SYMBOL res 176 624 R90
WINDOW 0 0 56 VBottom 2
WINDOW 3 32 56 VTop 2
SYMATTR InstName R5
SYMATTR Value 100k
SYMBOL res 176 704 R90
WINDOW 0 0 56 VBottom 2
WINDOW 3 32 56 VTop 2
SYMATTR InstName R6
SYMATTR Value 100k
SYMBOL Opamps\\opamp2 208 448 R0
SYMATTR InstName U2
SYMATTR Value LM358/NS
SYMBOL Opamps\\opamp2 224 704 R0
SYMATTR InstName U3
SYMATTR Value LM358/ST
TEXT -8 296 Left 2 !.tran 0 3m 1m 1u uic
TEXT 360 368 Left 2 !.step param c list 100p 15n 100n
TEXT 376 40 Left 4 ;Gain=3
TEXT 416 432 Left 2 !.lib LM358_ST.txt\n.lib LM358_NS.txt
