PCBNEW-LibModule-V1  gio 04 apr 2013 21:24:46 CEST
# encoding utf-8
Units mm
$INDEX
MBS
SDIP04A
do214aa
do214ab
do214ac
do219ab
melf
micromelf
sod123
sod323
sod523
sod80c
sod87
$EndINDEX
$MODULE MBS
Po 0 0 0 15 5133C773 00000000 ~~
Li MBS
Sc 0
AR MBS
Op 0 0 0
T0 0 -3.2004 0.8001 0.8001 0 0.14986 N V 21 N "DB***"
T1 0 3.40106 0.8001 0.8001 0 0.14986 N V 21 N "MBS"
DS 2.10058 -1.30048 2.99974 -1.30048 0.381 21
DS 2.10058 1.30048 2.99974 1.30048 0.381 21
DS -2.10058 1.30048 -2.99974 1.30048 0.381 21
DS -2.10058 -1.30048 -2.99974 -1.30048 0.381 21
DS 1.6002 -1.30048 0.8001 -1.30048 0.127 21
DS 1.6002 1.29794 0.8001 1.29794 0.127 21
DS 1.19888 0.89916 1.19888 1.69926 0.127 21
DA -1.39954 1.30048 -1.00076 1.30048 900 0.127 21
DA -1.39954 1.30048 -1.39954 1.69926 900 0.127 21
DA -0.59944 1.30048 -1.00076 1.30048 900 0.127 21
DA -0.59944 1.30048 -0.59944 0.89916 900 0.127 21
DA -0.59944 -1.30048 -0.59944 -1.7018 900 0.127 21
DA -0.59944 -1.30048 -1.00076 -1.30048 900 0.127 21
DA -1.39954 -1.30048 -1.39954 -0.9017 900 0.127 21
DA -1.39954 -1.30048 -1.00076 -1.30048 900 0.127 21
DS -2.10058 -2.4511 -2.10058 2.4511 0.381 21
DS -2.10058 2.4511 2.10058 2.4511 0.381 21
DS 2.10058 2.4511 2.10058 -2.4511 0.381 21
DS 2.10058 -2.4511 -2.10058 -2.4511 0.381 21
$PAD
Sh "2" R 1.19888 0.8001 0 0 0
Dr 0 0 0
At SMD N 00888000
Ne 0 ""
Po -2.94894 -1.27
$EndPAD
$PAD
Sh "3" R 1.19888 0.8001 0 0 0
Dr 0 0 0
At SMD N 00888000
Ne 0 ""
Po -2.9464 1.27
$EndPAD
$PAD
Sh "1" R 1.19888 0.8001 0 0 0
Dr 0 0 0
At SMD N 00888000
Ne 0 ""
Po 2.94894 1.27
$EndPAD
$PAD
Sh "4" R 1.19888 0.8001 0 0 0
Dr 0 0 0
At SMD N 00888000
Ne 0 ""
Po 2.9464 -1.27
$EndPAD
$SHAPE3D
Na "walter/smd_diode/mbs.wrl"
Sc 1 1 1
Of 0 0 0
Ro 0 0 0
$EndSHAPE3D
$EndMODULE MBS
$MODULE SDIP04A
Po 0 0 0 15 5133C761 00000000 ~~
Li SDIP04A
Sc 0
AR SDIP04A
Op 0 0 0
T0 0 -5.00126 0.8001 0.8001 0 0.14986 N V 21 N "DB***"
T1 0 5.10032 0.8001 0.8001 0 0.14986 N V 21 N "SDIP04A"
DS 4.50088 2.49936 3.2512 2.49936 0.381 21
DS 4.50088 -2.49936 3.2512 -2.49936 0.381 21
DS -4.50088 -2.49936 -3.2512 -2.49936 0.381 21
DS -4.50088 2.49936 -3.2512 2.49936 0.381 21
DS -3.2512 4.24942 3.2512 4.24942 0.381 21
DS 3.2512 4.24942 3.2512 -4.24942 0.381 21
DS 3.2512 -4.24942 -3.2512 -4.24942 0.381 21
DS -3.2512 -4.24942 -3.2512 4.24942 0.381 21
DS 2.49936 -2.49936 1.69926 -2.49936 0.254 21
DS 2.49936 2.49682 1.69926 2.49682 0.254 21
DS 2.10058 2.09804 2.10058 2.89814 0.254 21
DA -2.10058 2.60096 -1.7018 2.60096 900 0.254 21
DA -2.09804 2.60096 -2.09804 2.99974 900 0.254 21
DA -1.30048 2.60096 -1.7018 2.60096 900 0.254 21
DA -1.30048 2.60096 -1.30048 2.19964 900 0.254 21
DA -1.30048 -2.4003 -1.30048 -2.80162 900 0.254 21
DA -1.30048 -2.4003 -1.7018 -2.4003 900 0.254 21
DA -2.10058 -2.4003 -2.10058 -2.00152 900 0.254 21
DA -2.10058 -2.4003 -1.7018 -2.4003 900 0.254 21
$PAD
Sh "2" R 1.50114 1.30048 0 0 0
Dr 0 0 0
At SMD N 00888000
Ne 0 ""
Po -4.45008 -2.55016
$EndPAD
$PAD
Sh "3" R 1.4986 1.30048 0 0 0
Dr 0 0 0
At SMD N 00888000
Ne 0 ""
Po -4.45008 2.55016
$EndPAD
$PAD
Sh "1" R 1.50114 1.30048 0 0 0
Dr 0 0 0
At SMD N 00888000
Ne 0 ""
Po 4.45008 2.55016
$EndPAD
$PAD
Sh "4" R 1.4986 1.30048 0 0 0
Dr 0 0 0
At SMD N 00888000
Ne 0 ""
Po 4.45008 -2.55016
$EndPAD
$SHAPE3D
Na "walter/smd_diode/sdip04a.wrl"
Sc 1 1 1
Of 0 0 0
Ro 0 0 0
$EndSHAPE3D
$EndMODULE SDIP04A
$MODULE do214aa
Po 0 0 0 15 51101957 00000000 ~~
Li do214aa
Cd DO214AA
Sc 0
AR do214ac
Op 0 0 0
T0 0 -2.49936 0.50038 0.50038 0 0.11938 N V 21 N "DO214AA"
T1 0 2.49936 0.50038 0.50038 0 0.11938 N I 21 N "D***"
DS 2.30124 -1.99898 2.30124 1.99898 0.127 21
DS 2.19964 1.99898 2.19964 -1.99898 0.127 21
DS 2.10058 -1.99898 2.10058 1.99898 0.127 21
DS 1.99898 1.99898 1.99898 -1.99898 0.127 21
DS 1.89992 -1.99898 1.89992 1.99898 0.127 21
DS 1.80086 -1.99898 1.80086 1.99898 0.127 21
DS 2.4003 -1.99898 2.4003 1.99898 0.127 21
DS 2.4003 1.99898 -2.4003 1.99898 0.127 21
DS -2.4003 1.99898 -2.4003 -1.99898 0.127 21
DS -2.4003 -1.99898 2.4003 -1.99898 0.127 21
$PAD
Sh "2" R 1.99898 2.30124 0 0 0
Dr 0 0 0
At SMD N 00888000
Ne 0 ""
Po 2.00914 0
$EndPAD
$PAD
Sh "1" R 1.99898 2.30124 0 0 0
Dr 0 0 0
At SMD N 00888000
Ne 0 ""
Po -2.00914 0
$EndPAD
$SHAPE3D
Na "walter/smd_diode/do214aa.wrl"
Sc 1 1 1
Of 0 0 0
Ro 0 0 0
$EndSHAPE3D
$EndMODULE do214aa
$MODULE do214ab
Po 0 0 0 15 51101914 00000000 ~~
Li do214ab
Cd DO214AB
Sc 0
AR do214ac
Op 0 0 0
T0 0 -2.49936 0.50038 0.50038 0 0.11938 N V 21 N "DO214AB"
T1 0 2.49936 0.50038 0.50038 0 0.11938 N I 21 N "D***"
DS 3.40106 -3.0988 3.40106 3.0988 0.1778 21
DS 3.29946 3.0988 3.29946 -3.0988 0.1778 21
DS 3.2004 -3.0988 3.2004 3.0988 0.1778 21
DS 3.0988 3.0988 3.0988 -3.0988 0.1778 21
DS 2.99974 -3.0988 2.99974 3.0988 0.1778 21
DS 2.90068 3.0988 2.90068 -3.0988 0.1778 21
DS 2.79908 -3.0988 2.79908 3.0988 0.1778 21
DS -3.49758 -3.0988 3.49758 -3.0988 0.1778 21
DS 3.50012 -3.0988 3.50012 3.0988 0.1778 21
DS 3.50012 3.0988 -3.50012 3.0988 0.1778 21
DS -3.50012 3.0988 -3.50012 -3.0988 0.1778 21
$PAD
Sh "2" R 1.99898 3.19786 0 0 0
Dr 0 0 0
At SMD N 00888000
Ne 0 ""
Po 3.39852 0
$EndPAD
$PAD
Sh "1" R 1.99898 3.19786 0 0 0
Dr 0 0 0
At SMD N 00888000
Ne 0 ""
Po -3.39852 0
$EndPAD
$SHAPE3D
Na "walter/smd_diode/do214ab.wrl"
Sc 1 1 1
Of 0 0 0
Ro 0 0 0
$EndSHAPE3D
$EndMODULE do214ab
$MODULE do214ac
Po 0 0 0 15 51101973 00000000 ~~
Li do214ac
Cd DO214AC
Sc 0
AR do214ac
Op 0 0 0
T0 0 -1.9685 0.50038 0.50038 0 0.11938 N V 21 N "DO214AC"
T1 0 1.9685 0.50038 0.50038 0 0.11938 N I 21 N "D***"
DS 2.10058 1.39954 2.10058 -1.39954 0.127 21
DS 1.99898 -1.39954 1.99898 1.39954 0.127 21
DS 1.89992 1.39954 1.89992 -1.39954 0.127 21
DS 1.80086 -1.39954 1.80086 1.39954 0.127 21
DS 1.69926 -1.39954 1.69926 1.39954 0.127 21
DS 2.19964 -1.39954 -2.19964 -1.39954 0.127 21
DS -2.19964 -1.39954 -2.19964 1.39954 0.127 21
DS -2.19964 1.39954 2.19964 1.39954 0.127 21
DS 2.19964 1.39954 2.19964 -1.39954 0.127 21
$PAD
Sh "2" R 2.10058 1.69926 0 0 0
Dr 0 0 0
At SMD N 00888000
Ne 0 ""
Po 1.72974 0
$EndPAD
$PAD
Sh "1" R 2.10058 1.69926 0 0 0
Dr 0 0 0
At SMD N 00888000
Ne 0 ""
Po -1.72974 0
$EndPAD
$SHAPE3D
Na "walter/smd_diode/do214ac.wrl"
Sc 1 1 1
Of 0 0 0
Ro 0 0 0
$EndSHAPE3D
$EndMODULE do214ac
$MODULE do219ab
Po 0 0 0 15 51101990 00000000 ~~
Li do219ab
Cd DO219AB
Sc 0
AR do219ab
Op 0 0 0
T0 0 -1.39954 0.39878 0.39878 0 0.09906 N V 21 N "DO219AB"
T1 0 1.50114 0.39878 0.39878 0 0.09906 N I 21 N "D***"
DS 1.39954 1.00076 1.39954 -1.00076 0.127 21
DS 1.30048 -1.00076 1.30048 1.00076 0.127 21
DS 1.19888 1.00076 1.19888 -1.00076 0.127 21
DS 1.09982 -1.00076 1.09982 1.00076 0.127 21
DS 1.00076 -1.00076 1.00076 1.00076 0.127 21
DS 1.50114 -1.00076 -1.50114 -1.00076 0.127 21
DS -1.50114 -1.00076 -1.50114 1.00076 0.127 21
DS -1.50114 1.00076 1.50114 1.00076 0.127 21
DS 1.50114 1.00076 1.50114 -1.00076 0.127 21
$PAD
Sh "2" R 1.30048 1.39954 0 0 0
Dr 0 0 0
At SMD N 00888000
Ne 0 ""
Po 1.45034 0
$EndPAD
$PAD
Sh "1" R 1.30048 1.39954 0 0 0
Dr 0 0 0
At SMD N 00888000
Ne 0 ""
Po -1.45034 0
$EndPAD
$SHAPE3D
Na "walter/smd_diode/do219ab.wrl"
Sc 1 1 1
Of 0 0 0
Ro 0 0 0
$EndSHAPE3D
$EndMODULE do219ab
$MODULE melf
Po 0 0 0 15 488CBC8E 00000000 ~~
Li melf
Cd Melf
Sc 0
AR 
Op 0 0 0
T0 0 -2.54 1.524 1.524 0 0.3048 N V 21 N "Melf"
T1 0 2.54 1.524 1.524 0 0.3048 N I 21 N "D***"
DS 1.3716 -1.2954 1.3716 1.2954 0.127 21
DS 1.1303 1.2954 1.1303 -1.2954 0.127 21
DS 1.2573 -1.2954 1.2573 1.2954 0.127 21
DS 1.0033 -1.2954 1.0033 1.2954 0.127 21
DS -2.6035 -1.2954 -2.6035 1.2954 0.127 21
DS -2.6035 1.2954 2.6035 1.2954 0.127 21
DS 2.6035 1.2954 2.6035 -1.2954 0.127 21
DS 2.6035 -1.2954 -2.6035 -1.2954 0.127 21
$PAD
Sh "1" R 1.24968 2.99974 0 0 0
Dr 0 0 0
At SMD N 00888000
Ne 0 ""
Po -2.62382 0
$EndPAD
$PAD
Sh "2" R 1.24968 2.99974 0 0 0
Dr 0 0 0
At SMD N 00888000
Ne 0 ""
Po 2.62382 0
$EndPAD
$SHAPE3D
Na "walter/smd_diode/melf.wrl"
Sc 1 1 1
Of 0 0 0
Ro 0 0 0
$EndSHAPE3D
$EndMODULE melf
$MODULE micromelf
Po 0 0 0 15 49047482 00000000 ~~
Li micromelf
Cd Micromelf
Sc 0
AR 
Op 0 0 0
T0 0 -1.0668 0.50038 0.50038 0 0.11938 N V 21 N "Micromelf"
T1 0 1.0668 0.50038 0.50038 0 0.11938 N I 21 N "D***"
DS 0.5207 -0.5969 0.5207 0.5969 0.127 21
DS 0.3937 0.5969 0.3937 -0.5969 0.127 21
DS 0.2667 -0.5969 0.2667 0.5969 0.127 21
DS -1.0033 -0.5969 -1.0033 0.5969 0.127 21
DS -1.0033 0.5969 1.0033 0.5969 0.127 21
DS 1.0033 0.5969 1.0033 -0.5969 0.127 21
DS 1.0033 -0.5969 -1.0033 -0.5969 0.127 21
$PAD
Sh "1" R 0.8001 1.30048 0 0 0
Dr 0 0 0
At SMD N 00888000
Ne 0 ""
Po -1.00076 0
$EndPAD
$PAD
Sh "2" R 0.8001 1.30048 0 0 0
Dr 0 0 0
At SMD N 00888000
Ne 0 ""
Po 1.00076 0
$EndPAD
$SHAPE3D
Na "walter/smd_diode/micromelf.wrl"
Sc 1 1 1
Of 0 0 0
Ro 0 0 0
$EndSHAPE3D
$EndMODULE micromelf
$MODULE sod123
Po 0 0 0 15 515DD379 00000000 ~~
Li sod123
Cd SOD123
Sc 0
AR 
Op 0 0 0
T0 0 -1.30048 0.4 0.4 0 0.1 N V 21 N "SOD123"
T1 0 1.19888 0.4 0.4 0 0.1 N I 21 N "D***"
DS 0.89916 0.8001 0.89916 -0.8001 0.127 21
DS 1.00076 -0.8001 1.00076 0.8001 0.127 21
DS -1.39954 -0.8001 1.39954 -0.8001 0.127 21
DS 1.39954 -0.8001 1.39954 0.8001 0.127 21
DS 1.39954 0.8001 -1.39954 0.8001 0.127 21
DS -1.39954 0.8001 -1.39954 -0.8001 0.127 21
$PAD
Sh "2" R 0.8509 0.8509 0 0 0
Dr 0 0 0
At SMD N 00888000
Ne 0 ""
Po 1.67386 0
$EndPAD
$PAD
Sh "1" R 0.8509 0.8509 0 0 0
Dr 0 0 0
At SMD N 00888000
Ne 0 ""
Po -1.67386 0
$EndPAD
$SHAPE3D
Na "walter/smd_diode/sod123.wrl"
Sc 1 1 1
Of 0 0 0
Ro 0 0 0
$EndSHAPE3D
$EndMODULE sod123
$MODULE sod323
Po 0 0 0 15 511019A4 00000000 ~~
Li sod323
Cd SOD323
Sc 0
AR sod323
Op 0 0 0
T0 0 -1.09982 0.39878 0.39878 0 0.09906 N V 21 N "SOD323"
T1 0 1.19888 0.39878 0.39878 0 0.09906 N I 21 N "D***"
DS 0.8001 -0.70104 0.8001 0.70104 0.127 21
DS 0.70104 0.70104 0.70104 -0.70104 0.127 21
DS 0.59944 -0.70104 0.59944 0.70104 0.127 21
DS 0.50038 -0.70104 0.50038 0.70104 0.127 21
DS 0.89916 -0.70104 -0.89916 -0.70104 0.127 21
DS -0.89916 -0.70104 -0.89916 0.70104 0.127 21
DS -0.89916 0.70104 0.89916 0.70104 0.127 21
DS 0.89916 0.70104 0.89916 -0.70104 0.127 21
$PAD
Sh "2" R 1.00076 0.59944 0 0 0
Dr 0 0 0
At SMD N 00888000
Ne 0 ""
Po 1.09982 0
$EndPAD
$PAD
Sh "1" R 1.00076 0.59944 0 0 0
Dr 0 0 0
At SMD N 00888000
Ne 0 ""
Po -1.09982 0
$EndPAD
$SHAPE3D
Na "walter/smd_diode/sod323.wrl"
Sc 1 1 1
Of 0 0 0
Ro 0 0 0
$EndSHAPE3D
$EndMODULE sod323
$MODULE sod523
Po 0 0 0 15 511019B4 00000000 ~~
Li sod523
Cd SOD523
Sc 0
AR sod523
Op 0 0 0
T0 0 -0.70104 0.29972 0.29972 0 0.07112 N V 21 N "SOD523"
T1 0 0.70104 0.29972 0.29972 0 0.07112 N I 21 N "D***"
DS 0.50038 0.39878 0.50038 -0.39878 0.127 21
DS 0.39878 -0.39878 0.39878 0.39878 0.127 21
DS 0.29972 -0.39878 0.29972 0.39878 0.127 21
DS 0.59944 -0.39878 -0.59944 -0.39878 0.127 21
DS -0.59944 -0.39878 -0.59944 0.39878 0.127 21
DS -0.59944 0.39878 0.59944 0.39878 0.127 21
DS 0.59944 0.39878 0.59944 -0.39878 0.127 21
$PAD
Sh "2" R 0.59944 0.8001 0 0 0
Dr 0 0 0
At SMD N 00888000
Ne 0 ""
Po 0.8509 0
$EndPAD
$PAD
Sh "1" R 0.59944 0.8001 0 0 0
Dr 0 0 0
At SMD N 00888000
Ne 0 ""
Po -0.8509 0
$EndPAD
$SHAPE3D
Na "walter/smd_diode/sod523.wrl"
Sc 1 1 1
Of 0 0 0
Ro 0 0 0
$EndSHAPE3D
$EndMODULE sod523
$MODULE sod80c
Po 0 0 0 15 4904752C 00000000 ~~
Li sod80c
Cd SOD80C
Sc 0
AR 
Op 0 0 0
T0 0 -1.4224 0.70104 0.70104 0 0.14986 N V 21 N "SOD80C"
T1 0.0254 1.397 0.70104 0.70104 0 0.14986 N I 21 N "D***"
DS 1.0541 -0.8001 1.0541 0.8001 0.127 21
DS 0.9271 0.8001 0.9271 -0.8001 0.127 21
DS 0.8001 -0.8001 0.8001 0.8001 0.127 21
DS 1.8542 -0.8001 -1.8542 -0.8001 0.127 21
DS -1.8542 -0.8001 -1.8542 0.8001 0.127 21
DS -1.8542 0.8001 1.8542 0.8001 0.127 21
DS 1.8542 0.8001 1.8542 -0.8001 0.127 21
$PAD
Sh "1" R 1.00076 1.99898 0 0 0
Dr 0 0 0
At SMD N 00888000
Ne 0 ""
Po -1.84912 0
$EndPAD
$PAD
Sh "2" R 1.00076 1.99898 0 0 0
Dr 0 0 0
At SMD N 00888000
Ne 0 ""
Po 1.84912 0
$EndPAD
$SHAPE3D
Na "walter/smd_diode/sod80c.wrl"
Sc 1 1 1
Of 0 0 0
Ro 0 0 0
$EndSHAPE3D
$EndMODULE sod80c
$MODULE sod87
Po 0 0 0 15 4904754D 00000000 ~~
Li sod87
Cd SOD87
Sc 0
AR 
Op 0 0 0
T0 0.0254 -1.8542 1.00076 1.00076 0 0.20066 N V 21 N "SOD87"
T1 0 1.8034 1.00076 1.00076 0 0.20066 N I 21 N "D***"
DS 1.0541 1.0033 1.0541 -1.0033 0.127 21
DS 0.9271 -1.0033 0.9271 1.0033 0.127 21
DS 0.8001 -1.0033 0.8001 1.0033 0.127 21
DS -1.8542 1.0033 -1.8542 -1.0033 0.127 21
DS -1.8542 -1.0033 1.8542 -1.0033 0.127 21
DS 1.8542 -1.0033 1.8542 1.0033 0.127 21
DS 1.8542 1.0033 -1.8542 1.0033 0.127 21
$PAD
Sh "1" R 1.00076 2.30124 0 0 0
Dr 0 0 0
At SMD N 00888000
Ne 0 ""
Po -1.84912 0
$EndPAD
$PAD
Sh "2" R 1.00076 2.30124 0 0 0
Dr 0 0 0
At SMD N 00888000
Ne 0 ""
Po 1.84912 0
$EndPAD
$SHAPE3D
Na "walter/smd_diode/sod87.wrl"
Sc 1 1 1
Of 0 0 0
Ro 0 0 0
$EndSHAPE3D
$EndMODULE sod87
$EndLIBRARY
