PCBNEW-LibModule-V1  sab 12 apr 2014 10:27:41 CEST
# encoding utf-8
Units mm
$INDEX
c_0402
c_0603
c_0805
c_1206
c_1210
c_1808
c_1812
c_1825
c_2220
c_2225
c_elec_10x10
c_elec_10x10.5
c_elec_10x7.7
c_elec_3x5.3
c_elec_4x4.5
c_elec_4x5.3
c_elec_4x5.7
c_elec_4x5.8
c_elec_5x4.5
c_elec_5x5.3
c_elec_5x5.7
c_elec_5x5.8
c_elec_6.3x4.5
c_elec_6.3x5.3
c_elec_6.3x5.7
c_elec_6.3x5.8
c_elec_6.3x7.7
c_elec_8x10
c_elec_8x10.5
c_elec_8x6.5
c_elec_8x6.7
c_tant_A
c_tant_B
c_tant_C
c_tant_D
c_tant_E
c_tant_R
c_tant_S
c_tant_T
c_tant_U
c_tant_V
c_tant_X
cfeed_0805
$EndINDEX
$MODULE c_0402
Po 0 0 0 15 49047259 00000000 ~~
Li c_0402
Cd SMT capacitor, 0402
Sc 0
AR 
Op 0 0 0
T0 0 -0.4826 0.1524 0.1524 0 0.03048 N V 21 N "c_0402"
T1 0 0.4826 0.1524 0.1524 0 0.03048 N I 21 N "C***"
DS 0.3302 -0.2794 0.3302 0.2794 0.127 21
DS -0.3302 -0.2794 -0.3302 0.2794 0.127 21
DS -0.5334 -0.2794 -0.5334 0.2794 0.127 21
DS -0.5334 0.2794 0.5334 0.2794 0.127 21
DS 0.5334 0.2794 0.5334 -0.2794 0.127 21
DS 0.5334 -0.2794 -0.5334 -0.2794 0.127 21
$PAD
Sh "1" R 0.8001 0.6985 0 0 0
Dr 0 0 0
At SMD N 00888000
Ne 0 ""
Po 0.54864 0
$EndPAD
$PAD
Sh "2" R 0.8001 0.6985 0 0 0
Dr 0 0 0
At SMD N 00888000
Ne 0 ""
Po -0.54864 0
$EndPAD
$SHAPE3D
Na "walter/smd_cap/c_0402.wrl"
Sc 1 1 1
Of 0 0 0
Ro 0 0 0
$EndSHAPE3D
$EndMODULE c_0402
$MODULE c_0603
Po 0 0 0 15 490472AA 00000000 ~~
Li c_0603
Cd SMT capacitor, 0603
Sc 0
AR 
Op 0 0 0
T0 0 -0.635 0.20066 0.20066 0 0.04064 N V 21 N "c_0603"
T1 0 0.635 0.20066 0.20066 0 0.04064 N I 21 N "C***"
DS 0.5588 0.4064 0.5588 -0.4064 0.127 21
DS -0.5588 -0.381 -0.5588 0.4064 0.127 21
DS -0.8128 -0.4064 0.8128 -0.4064 0.127 21
DS 0.8128 -0.4064 0.8128 0.4064 0.127 21
DS 0.8128 0.4064 -0.8128 0.4064 0.127 21
DS -0.8128 0.4064 -0.8128 -0.4064 0.127 21
$PAD
Sh "1" R 0.89916 1.00076 0 0 0
Dr 0 0 0
At SMD N 00888000
Ne 0 ""
Po 0.75184 0
$EndPAD
$PAD
Sh "2" R 0.89916 1.00076 0 0 0
Dr 0 0 0
At SMD N 00888000
Ne 0 ""
Po -0.75184 0
$EndPAD
$SHAPE3D
Na "walter/smd_cap/c_0603.wrl"
Sc 1 1 1
Of 0 0 0
Ro 0 0 0
$EndSHAPE3D
$EndMODULE c_0603
$MODULE c_0805
Po 0 0 0 15 49047394 00000000 ~~
Li c_0805
Cd SMT capacitor, 0805
Sc 0
AR 
Op 0 0 0
T0 0 -0.9906 0.29972 0.29972 0 0.06096 N V 21 N "c_0805"
T1 0 0.9906 0.29972 0.29972 0 0.06096 N I 21 N "C***"
DS 0.635 -0.635 0.635 0.635 0.127 21
DS -0.635 -0.635 -0.635 0.6096 0.127 21
DS -1.016 -0.635 1.016 -0.635 0.127 21
DS 1.016 -0.635 1.016 0.635 0.127 21
DS 1.016 0.635 -1.016 0.635 0.127 21
DS -1.016 0.635 -1.016 -0.635 0.127 21
$PAD
Sh "1" R 1.30048 1.4986 0 0 0
Dr 0 0 0
At SMD N 00888000
Ne 0 ""
Po 0.9525 0
$EndPAD
$PAD
Sh "2" R 1.30048 1.4986 0 0 0
Dr 0 0 0
At SMD N 00888000
Ne 0 ""
Po -0.9525 0
$EndPAD
$SHAPE3D
Na "walter/smd_cap/c_0805.wrl"
Sc 1 1 1
Of 0 0 0
Ro 0 0 0
$EndSHAPE3D
$EndMODULE c_0805
$MODULE c_1206
Po 0 0 0 15 490473F0 00000000 ~~
Li c_1206
Cd SMT capacitor, 1206
Sc 0
AR 
Op 0 0 0
T0 0.0254 -1.2954 0.50038 0.50038 0 0.11938 N V 21 N "c_1206"
T1 0 1.27 0.50038 0.50038 0 0.11938 N I 21 N "C***"
DS 1.143 0.8128 1.143 -0.8128 0.127 21
DS -1.143 -0.8128 -1.143 0.8128 0.127 21
DS -1.6002 -0.8128 -1.6002 0.8128 0.127 21
DS -1.6002 0.8128 1.6002 0.8128 0.127 21
DS 1.6002 0.8128 1.6002 -0.8128 0.127 21
DS 1.6002 -0.8128 -1.6002 -0.8128 0.127 21
$PAD
Sh "1" R 1.6002 1.8034 0 0 0
Dr 0 0 0
At SMD N 00888000
Ne 0 ""
Po 1.397 0
$EndPAD
$PAD
Sh "2" R 1.6002 1.8034 0 0 0
Dr 0 0 0
At SMD N 00888000
Ne 0 ""
Po -1.397 0
$EndPAD
$SHAPE3D
Na "walter/smd_cap/c_1206.wrl"
Sc 1 1 1
Of 0 0 0
Ro 0 0 0
$EndSHAPE3D
$EndMODULE c_1206
$MODULE c_1210
Po 0 0 0 15 49047413 00000000 ~~
Li c_1210
Cd SMT capacitor, 1210
Sc 0
AR 
Op 0 0 0
T0 0.0254 -1.7526 0.50038 0.50038 0 0.11938 N V 21 N "c_1210"
T1 -0.0254 1.7272 0.50038 0.50038 0 0.11938 N I 21 N "C***"
DS -1.6002 -1.2446 -1.6002 1.2446 0.127 21
DS 1.6002 1.2446 1.6002 -1.2446 0.127 21
DS 1.143 -1.2446 1.143 1.2446 0.127 21
DS -1.143 1.2446 -1.143 -1.2446 0.127 21
DS -1.6002 1.2446 1.6002 1.2446 0.127 21
DS 1.6002 -1.2446 -1.6002 -1.2446 0.127 21
$PAD
Sh "1" R 1.6002 2.6924 0 0 0
Dr 0 0 0
At SMD N 00888000
Ne 0 ""
Po 1.397 0
$EndPAD
$PAD
Sh "2" R 1.6002 2.6924 0 0 0
Dr 0 0 0
At SMD N 00888000
Ne 0 ""
Po -1.397 0
$EndPAD
$SHAPE3D
Na "walter/smd_cap/c_1210.wrl"
Sc 1 1 1
Of 0 0 0
Ro 0 0 0
$EndSHAPE3D
$EndMODULE c_1210
$MODULE c_1808
Po 0 0 0 15 49F57A45 00000000 ~~
Li c_1808
Cd SMT capacitor, 1808
Sc 0
AR 
Op 0 0 0
T0 0.0254 -1.7526 0.50038 0.50038 0 0.11938 N V 21 N "c_1808"
T1 -0.0254 1.7272 0.50038 0.50038 0 0.11938 N I 21 N "C***"
DS -1.651 -1.016 -1.651 1.016 0.127 21
DS 1.651 -1.016 1.651 1.016 0.127 21
DS -2.286 -1.016 -2.286 1.016 0.127 21
DS -2.286 1.016 2.286 1.016 0.127 21
DS 2.286 1.016 2.286 -1.016 0.127 21
DS 2.286 -1.016 -2.286 -1.016 0.127 21
$PAD
Sh "1" R 1.80086 2.4003 0 0 0
Dr 0 0 0
At SMD N 00888000
Ne 0 ""
Po 2.04978 0
$EndPAD
$PAD
Sh "2" R 1.80086 2.4003 0 0 0
Dr 0 0 0
At SMD N 00888000
Ne 0 ""
Po -2.04978 0
$EndPAD
$SHAPE3D
Na "walter/smd_cap/c_1808.wrl"
Sc 1 1 1
Of 0 0 0
Ro 0 0 0
$EndSHAPE3D
$EndMODULE c_1808
$MODULE c_1812
Po 0 0 0 15 49F57A12 00000000 ~~
Li c_1812
Cd SMT capacitor, 1812
Sc 0
AR 
Op 0 0 0
T0 0 -2.286 0.50038 0.50038 0 0.11938 N V 21 N "c_1812"
T1 0 2.286 0.50038 0.50038 0 0.11938 N I 21 N "C***"
DS 1.651 -1.651 1.651 1.651 0.127 21
DS -1.651 -1.651 -1.651 1.651 0.127 21
DS -2.286 -1.651 -2.286 1.651 0.127 21
DS -2.286 1.651 2.286 1.651 0.127 21
DS 2.286 1.651 2.286 -1.651 0.127 21
DS 2.286 -1.651 -2.286 -1.651 0.127 21
$PAD
Sh "1" R 1.80086 3.70078 0 0 0
Dr 0 0 0
At SMD N 00888000
Ne 0 ""
Po 2.04978 0
$EndPAD
$PAD
Sh "2" R 1.80086 3.70078 0 0 0
Dr 0 0 0
At SMD N 00888000
Ne 0 ""
Po -2.04978 0
$EndPAD
$SHAPE3D
Na "walter/smd_cap/c_1812.wrl"
Sc 1 1 1
Of 0 0 0
Ro 0 0 0
$EndSHAPE3D
$EndMODULE c_1812
$MODULE c_1825
Po 0 0 0 15 49F579BF 00000000 ~~
Li c_1825
Cd SMT capacitor, 1825
Sc 0
AR 
Op 0 0 0
T0 0 -3.937 0.50038 0.50038 0 0.11938 N V 21 N "c_1825"
T1 0 3.937 0.50038 0.50038 0 0.11938 N I 21 N "C***"
DS 1.651 -3.175 1.651 3.175 0.127 21
DS -1.651 -3.175 -1.651 3.175 0.127 21
DS -2.286 -3.175 -2.286 3.175 0.127 21
DS -2.286 3.175 2.286 3.175 0.127 21
DS 2.286 3.175 2.286 -3.175 0.127 21
DS 2.286 -3.175 -2.286 -3.175 0.127 21
$PAD
Sh "1" R 1.80086 6.90118 0 0 0
Dr 0 0 0
At SMD N 00888000
Ne 0 ""
Po 2.04978 0
$EndPAD
$PAD
Sh "2" R 1.80086 6.90118 0 0 0
Dr 0 0 0
At SMD N 00888000
Ne 0 ""
Po -2.04978 0
$EndPAD
$SHAPE3D
Na "walter/smd_cap/c_1825.wrl"
Sc 1 1 1
Of 0 0 0
Ro 0 0 0
$EndSHAPE3D
$EndMODULE c_1825
$MODULE c_2220
Po 0 0 0 15 49F5796D 00000000 ~~
Li c_2220
Cd SMT capacitor, 2220
Sc 0
AR 
Op 0 0 0
T0 0 -3.302 0.50038 0.50038 0 0.11938 N V 21 N "c_2220"
T1 0 3.302 0.50038 0.50038 0 0.11938 N I 21 N "C***"
DS 2.159 -2.54 2.159 2.54 0.127 21
DS -2.159 -2.54 -2.159 2.54 0.127 21
DS -2.794 -2.54 2.794 -2.54 0.127 21
DS 2.794 -2.54 2.794 2.54 0.127 21
DS 2.794 2.54 -2.794 2.54 0.127 21
DS -2.794 2.54 -2.794 -2.54 0.127 21
$PAD
Sh "1" R 1.84912 5.4991 0 0 0
Dr 0 0 0
At SMD N 00888000
Ne 0 ""
Po 2.57556 0
$EndPAD
$PAD
Sh "2" R 1.84912 5.4991 0 0 0
Dr 0 0 0
At SMD N 00888000
Ne 0 ""
Po -2.57556 0
$EndPAD
$SHAPE3D
Na "walter/smd_cap/c_2220.wrl"
Sc 1 1 1
Of 0 0 0
Ro 0 0 0
$EndSHAPE3D
$EndMODULE c_2220
$MODULE c_2225
Po 0 0 0 15 49F57929 00000000 ~~
Li c_2225
Cd SMT capacitor, 2225
Sc 0
AR 
Op 0 0 0
T0 0 -3.81 0.50038 0.50038 0 0.11938 N V 21 N "c_2225"
T1 0 3.81 0.50038 0.50038 0 0.11938 N I 21 N "C***"
DS 2.159 -3.175 2.159 3.175 0.127 21
DS -2.159 -3.175 -2.159 3.175 0.127 21
DS -2.794 -3.175 2.794 -3.175 0.127 21
DS 2.794 -3.175 2.794 3.175 0.127 21
DS 2.794 3.175 -2.794 3.175 0.127 21
DS -2.794 3.175 -2.794 -3.175 0.127 21
$PAD
Sh "1" R 1.84912 6.79958 0 0 0
Dr 0 0 0
At SMD N 00888000
Ne 0 ""
Po 2.57556 0
$EndPAD
$PAD
Sh "2" R 1.84912 6.79958 0 0 0
Dr 0 0 0
At SMD N 00888000
Ne 0 ""
Po -2.57556 0
$EndPAD
$SHAPE3D
Na "walter/smd_cap/c_2225.wrl"
Sc 1 1 1
Of 0 0 0
Ro 0 0 0
$EndSHAPE3D
$EndMODULE c_2225
$MODULE c_elec_10x10
Po 0 0 0 15 49F5D23B 00000000 ~~
Li c_elec_10x10
Cd SMT capacitor, aluminium electrolytic, 10x10
Sc 0
AR 
Op 0 0 0
T0 0 -5.842 0.50038 0.50038 0 0.11938 N V 21 N "c_elec_10x10"
T1 0 5.842 0.50038 0.50038 0 0.11938 N I 21 N "C***"
DS -4.826 1.016 -4.826 -1.016 0.127 21
DS -4.699 -1.397 -4.699 1.524 0.127 21
DS -4.572 1.778 -4.572 -1.778 0.127 21
DS -4.445 -2.159 -4.445 2.159 0.127 21
DS -4.318 2.413 -4.318 -2.413 0.127 21
DS -4.191 -2.54 -4.191 2.54 0.127 21
DC 0 0 4.953 0 0.127 21
DS -5.207 -5.207 -5.207 5.207 0.127 21
DS -5.207 5.207 4.445 5.207 0.127 21
DS 4.445 5.207 5.207 4.445 0.127 21
DS 5.207 4.445 5.207 -4.445 0.127 21
DS 5.207 -4.445 4.445 -5.207 0.127 21
DS 4.445 -5.207 -5.207 -5.207 0.127 21
DS 4.572 0 3.81 0 0.127 21
DS 4.191 -0.381 4.191 0.381 0.127 21
$PAD
Sh "1" R 4.0005 2.4003 0 0 0
Dr 0 0 0
At SMD N 00888000
Ne 0 ""
Po 4.0005 0
$EndPAD
$PAD
Sh "2" R 4.0005 2.4003 0 0 0
Dr 0 0 0
At SMD N 00888000
Ne 0 ""
Po -4.0005 0
$EndPAD
$SHAPE3D
Na "walter/smd_cap/c_elec_10x10.wrl"
Sc 1 1 1
Of 0 0 0
Ro 0 0 0
$EndSHAPE3D
$EndMODULE c_elec_10x10
$MODULE c_elec_10x10.5
Po 0 0 0 15 49F5D1F6 00000000 ~~
Li c_elec_10x10.5
Cd SMT capacitor, aluminium electrolytic, 10x10.5
Sc 0
AR 
Op 0 0 0
T0 0 -5.842 0.50038 0.50038 0 0.11938 N V 21 N "c_elec_10x10.5"
T1 0 5.842 0.50038 0.50038 0 0.11938 N I 21 N "C***"
DS -4.826 1.016 -4.826 -1.016 0.127 21
DS -4.699 -1.397 -4.699 1.524 0.127 21
DS -4.572 1.778 -4.572 -1.778 0.127 21
DS -4.445 -2.159 -4.445 2.159 0.127 21
DS -4.318 2.413 -4.318 -2.413 0.127 21
DS -4.191 -2.54 -4.191 2.54 0.127 21
DC 0 0 4.953 0 0.127 21
DS -5.207 -5.207 -5.207 5.207 0.127 21
DS -5.207 5.207 4.445 5.207 0.127 21
DS 4.445 5.207 5.207 4.445 0.127 21
DS 5.207 4.445 5.207 -4.445 0.127 21
DS 5.207 -4.445 4.445 -5.207 0.127 21
DS 4.445 -5.207 -5.207 -5.207 0.127 21
DS 4.572 0 3.81 0 0.127 21
DS 4.191 -0.381 4.191 0.381 0.127 21
$PAD
Sh "1" R 4.0005 2.4003 0 0 0
Dr 0 0 0
At SMD N 00888000
Ne 0 ""
Po 4.0005 0
$EndPAD
$PAD
Sh "2" R 4.0005 2.4003 0 0 0
Dr 0 0 0
At SMD N 00888000
Ne 0 ""
Po -4.0005 0
$EndPAD
$SHAPE3D
Na "walter/smd_cap/c_elec_10x10_5.wrl"
Sc 1 1 1
Of 0 0 0
Ro 0 0 0
$EndSHAPE3D
$EndMODULE c_elec_10x10.5
$MODULE c_elec_10x7.7
Po 0 0 0 15 49F5D21A 00000000 ~~
Li c_elec_10x7.7
Cd SMT capacitor, aluminium electrolytic, 10x7.7
Sc 0
AR 
Op 0 0 0
T0 0 -5.842 0.50038 0.50038 0 0.11938 N V 21 N "c_elec_10x7.7"
T1 0 5.842 0.50038 0.50038 0 0.11938 N I 21 N "C***"
DS -4.826 1.016 -4.826 -1.016 0.127 21
DS -4.699 -1.397 -4.699 1.524 0.127 21
DS -4.572 1.778 -4.572 -1.778 0.127 21
DS -4.445 -2.159 -4.445 2.159 0.127 21
DS -4.318 2.413 -4.318 -2.413 0.127 21
DS -4.191 -2.54 -4.191 2.54 0.127 21
DC 0 0 4.953 0 0.127 21
DS -5.207 -5.207 -5.207 5.207 0.127 21
DS -5.207 5.207 4.445 5.207 0.127 21
DS 4.445 5.207 5.207 4.445 0.127 21
DS 5.207 4.445 5.207 -4.445 0.127 21
DS 5.207 -4.445 4.445 -5.207 0.127 21
DS 4.445 -5.207 -5.207 -5.207 0.127 21
DS 4.572 0 3.81 0 0.127 21
DS 4.191 -0.381 4.191 0.381 0.127 21
$PAD
Sh "1" R 4.0005 2.4003 0 0 0
Dr 0 0 0
At SMD N 00888000
Ne 0 ""
Po 4.0005 0
$EndPAD
$PAD
Sh "2" R 4.0005 2.4003 0 0 0
Dr 0 0 0
At SMD N 00888000
Ne 0 ""
Po -4.0005 0
$EndPAD
$SHAPE3D
Na "walter/smd_cap/c_elec_10x7_7.wrl"
Sc 1 1 1
Of 0 0 0
Ro 0 0 0
$EndSHAPE3D
$EndMODULE c_elec_10x7.7
$MODULE c_elec_3x5.3
Po 0 0 0 15 49F5AB9E 00000000 ~~
Li c_elec_3x5.3
Cd SMT capacitor, aluminium electrolytic, 3x5.3
Sc 0
AR 
Op 0 0 0
T0 0 -2.159 0.50038 0.50038 0 0.11938 N V 21 N "c_elec_3x5.3"
T1 0 2.159 0.50038 0.50038 0 0.11938 N I 21 N "C***"
DS -1.651 -1.651 -1.651 1.651 0.127 21
DS -1.651 1.651 0.889 1.651 0.127 21
DS 0.889 1.651 1.651 0.889 0.127 21
DS 1.651 0.889 1.651 -0.889 0.127 21
DS 1.651 -0.889 0.889 -1.651 0.127 21
DS 0.889 -1.651 -1.651 -1.651 0.127 21
DS -1.397 -0.508 -1.397 0.508 0.127 21
DS -1.27 -0.762 -1.27 0.762 0.127 21
DS -1.143 -1.016 -1.143 1.016 0.127 21
DS -1.016 -1.143 -1.016 1.143 0.127 21
DC 0 0 1.524 0 0.127 21
DS 1.143 0 0.381 0 0.127 21
DS 0.762 -0.381 0.762 0.381 0.127 21
$PAD
Sh "1" R 2.19964 1.6002 0 0 0
Dr 0 0 0
At SMD N 00888000
Ne 0 ""
Po 1.50114 0
$EndPAD
$PAD
Sh "2" R 2.19964 1.6002 0 0 0
Dr 0 0 0
At SMD N 00888000
Ne 0 ""
Po -1.50114 0
$EndPAD
$SHAPE3D
Na "walter/smd_cap/c_elec_3x5_3.wrl"
Sc 1 1 1
Of 0 0 0
Ro 0 0 0
$EndSHAPE3D
$EndMODULE c_elec_3x5.3
$MODULE c_elec_4x4.5
Po 0 0 0 15 49F5A3C5 00000000 ~~
Li c_elec_4x4.5
Cd SMT capacitor, aluminium electrolytic, 4x4.5
Sc 0
AR 
Op 0 0 0
T0 0 -2.794 0.50038 0.50038 0 0.11938 N V 21 N "c_elec_4x4.5"
T1 0 2.794 0.50038 0.50038 0 0.11938 N I 21 N "C***"
DS 1.651 0 0.889 0 0.127 21
DS 1.27 -0.381 1.27 0.381 0.127 21
DS 1.524 2.286 -2.286 2.286 0.127 21
DS 2.286 -1.524 2.286 1.524 0.127 21
DS 1.524 2.286 2.286 1.524 0.127 21
DS 1.524 -2.286 -2.286 -2.286 0.127 21
DS 1.524 -2.286 2.286 -1.524 0.127 21
DS -2.032 0.127 -2.032 -0.127 0.127 21
DS -1.905 -0.635 -1.905 0.635 0.127 21
DS -1.778 0.889 -1.778 -0.889 0.127 21
DS -1.651 1.143 -1.651 -1.143 0.127 21
DS -1.524 -1.27 -1.524 1.27 0.127 21
DS -1.397 1.397 -1.397 -1.397 0.127 21
DS -1.27 -1.524 -1.27 1.524 0.127 21
DS -1.143 -1.651 -1.143 1.651 0.127 21
DC 0 0 -2.032 0 0.127 21
DS -2.286 -2.286 -2.286 2.286 0.127 21
$PAD
Sh "1" R 2.60096 1.6002 0 0 0
Dr 0 0 0
At SMD N 00888000
Ne 0 ""
Po 1.80086 0
$EndPAD
$PAD
Sh "2" R 2.60096 1.6002 0 0 0
Dr 0 0 0
At SMD N 00888000
Ne 0 ""
Po -1.80086 0
$EndPAD
$SHAPE3D
Na "walter/smd_cap/c_elec_4x4_5.wrl"
Sc 1 1 1
Of 0 0 0
Ro 0 0 0
$EndSHAPE3D
$EndMODULE c_elec_4x4.5
$MODULE c_elec_4x5.3
Po 0 0 0 15 49F5A3DC 00000000 ~~
Li c_elec_4x5.3
Cd SMT capacitor, aluminium electrolytic, 4x5.3
Sc 0
AR 
Op 0 0 0
T0 0 -2.794 0.50038 0.50038 0 0.11938 N V 21 N "c_elec_4x5.3"
T1 0 2.794 0.50038 0.50038 0 0.11938 N I 21 N "C***"
DS 1.651 0 0.889 0 0.127 21
DS 1.27 -0.381 1.27 0.381 0.127 21
DS 1.524 2.286 -2.286 2.286 0.127 21
DS 2.286 -1.524 2.286 1.524 0.127 21
DS 1.524 2.286 2.286 1.524 0.127 21
DS 1.524 -2.286 -2.286 -2.286 0.127 21
DS 1.524 -2.286 2.286 -1.524 0.127 21
DS -2.032 0.127 -2.032 -0.127 0.127 21
DS -1.905 -0.635 -1.905 0.635 0.127 21
DS -1.778 0.889 -1.778 -0.889 0.127 21
DS -1.651 1.143 -1.651 -1.143 0.127 21
DS -1.524 -1.27 -1.524 1.27 0.127 21
DS -1.397 1.397 -1.397 -1.397 0.127 21
DS -1.27 -1.524 -1.27 1.524 0.127 21
DS -1.143 -1.651 -1.143 1.651 0.127 21
DC 0 0 -2.032 0 0.127 21
DS -2.286 -2.286 -2.286 2.286 0.127 21
$PAD
Sh "1" R 2.60096 1.6002 0 0 0
Dr 0 0 0
At SMD N 00888000
Ne 0 ""
Po 1.80086 0
$EndPAD
$PAD
Sh "2" R 2.60096 1.6002 0 0 0
Dr 0 0 0
At SMD N 00888000
Ne 0 ""
Po -1.80086 0
$EndPAD
$SHAPE3D
Na "walter/smd_cap/c_elec_4x5_3.wrl"
Sc 1 1 1
Of 0 0 0
Ro 0 0 0
$EndSHAPE3D
$EndMODULE c_elec_4x5.3
$MODULE c_elec_4x5.7
Po 0 0 0 15 49F5A3B0 00000000 ~~
Li c_elec_4x5.7
Cd SMT capacitor, aluminium electrolytic, 4x5.7
Sc 0
AR 
Op 0 0 0
T0 0 -2.794 0.50038 0.50038 0 0.11938 N V 21 N "c_elec_4x5.7"
T1 0 2.794 0.50038 0.50038 0 0.11938 N I 21 N "C***"
DS 1.651 0 0.889 0 0.127 21
DS 1.27 -0.381 1.27 0.381 0.127 21
DS 1.524 2.286 -2.286 2.286 0.127 21
DS 2.286 -1.524 2.286 1.524 0.127 21
DS 1.524 2.286 2.286 1.524 0.127 21
DS 1.524 -2.286 -2.286 -2.286 0.127 21
DS 1.524 -2.286 2.286 -1.524 0.127 21
DS -2.032 0.127 -2.032 -0.127 0.127 21
DS -1.905 -0.635 -1.905 0.635 0.127 21
DS -1.778 0.889 -1.778 -0.889 0.127 21
DS -1.651 1.143 -1.651 -1.143 0.127 21
DS -1.524 -1.27 -1.524 1.27 0.127 21
DS -1.397 1.397 -1.397 -1.397 0.127 21
DS -1.27 -1.524 -1.27 1.524 0.127 21
DS -1.143 -1.651 -1.143 1.651 0.127 21
DC 0 0 -2.032 0 0.127 21
DS -2.286 -2.286 -2.286 2.286 0.127 21
$PAD
Sh "1" R 2.60096 1.6002 0 0 0
Dr 0 0 0
At SMD N 00888000
Ne 0 ""
Po 1.80086 0
$EndPAD
$PAD
Sh "2" R 2.60096 1.6002 0 0 0
Dr 0 0 0
At SMD N 00888000
Ne 0 ""
Po -1.80086 0
$EndPAD
$SHAPE3D
Na "walter/smd_cap/c_elec_4x5_7.wrl"
Sc 1 1 1
Of 0 0 0
Ro 0 0 0
$EndSHAPE3D
$EndMODULE c_elec_4x5.7
$MODULE c_elec_4x5.8
Po 0 0 0 15 49F5A3F0 00000000 ~~
Li c_elec_4x5.8
Cd SMT capacitor, aluminium electrolytic, 4x5.8
Sc 0
AR 
Op 0 0 0
T0 0 -2.794 0.50038 0.50038 0 0.11938 N V 21 N "c_elec_4x5.8"
T1 0 2.794 0.50038 0.50038 0 0.11938 N I 21 N "C***"
DS 1.651 0 0.889 0 0.127 21
DS 1.27 -0.381 1.27 0.381 0.127 21
DS 1.524 2.286 -2.286 2.286 0.127 21
DS 2.286 -1.524 2.286 1.524 0.127 21
DS 1.524 2.286 2.286 1.524 0.127 21
DS 1.524 -2.286 -2.286 -2.286 0.127 21
DS 1.524 -2.286 2.286 -1.524 0.127 21
DS -2.032 0.127 -2.032 -0.127 0.127 21
DS -1.905 -0.635 -1.905 0.635 0.127 21
DS -1.778 0.889 -1.778 -0.889 0.127 21
DS -1.651 1.143 -1.651 -1.143 0.127 21
DS -1.524 -1.27 -1.524 1.27 0.127 21
DS -1.397 1.397 -1.397 -1.397 0.127 21
DS -1.27 -1.524 -1.27 1.524 0.127 21
DS -1.143 -1.651 -1.143 1.651 0.127 21
DC 0 0 -2.032 0 0.127 21
DS -2.286 -2.286 -2.286 2.286 0.127 21
$PAD
Sh "1" R 2.60096 1.6002 0 0 0
Dr 0 0 0
At SMD N 00888000
Ne 0 ""
Po 1.80086 0
$EndPAD
$PAD
Sh "2" R 2.60096 1.6002 0 0 0
Dr 0 0 0
At SMD N 00888000
Ne 0 ""
Po -1.80086 0
$EndPAD
$SHAPE3D
Na "walter/smd_cap/c_elec_4x5_8.wrl"
Sc 1 1 1
Of 0 0 0
Ro 0 0 0
$EndSHAPE3D
$EndMODULE c_elec_4x5.8
$MODULE c_elec_5x4.5
Po 0 0 0 15 49F5AF52 00000000 ~~
Li c_elec_5x4.5
Cd SMT capacitor, aluminium electrolytic, 5x4.5
Sc 0
AR 
Op 0 0 0
T0 0 -3.175 0.50038 0.50038 0 0.11938 N V 21 N "c_elec_5x4.5"
T1 0 3.175 0.50038 0.50038 0 0.11938 N I 21 N "C***"
DS -2.286 -0.635 -2.286 0.762 0.127 21
DS -2.159 -0.889 -2.159 0.889 0.127 21
DS -2.032 -1.27 -2.032 1.27 0.127 21
DS -1.905 1.397 -1.905 -1.397 0.127 21
DS -1.778 -1.524 -1.778 1.524 0.127 21
DS -1.651 1.651 -1.651 -1.651 0.127 21
DS -1.524 -1.778 -1.524 1.778 0.127 21
DC 0 0 -2.413 0 0.127 21
DS -2.667 -2.667 1.905 -2.667 0.127 21
DS 1.905 -2.667 2.667 -1.905 0.127 21
DS 2.667 -1.905 2.667 1.905 0.127 21
DS 2.667 1.905 1.905 2.667 0.127 21
DS 1.905 2.667 -2.667 2.667 0.127 21
DS -2.667 2.667 -2.667 -2.667 0.127 21
DS 2.159 0 1.397 0 0.127 21
DS 1.778 -0.381 1.778 0.381 0.127 21
$PAD
Sh "1" R 2.99974 1.6002 0 0 0
Dr 0 0 0
At SMD N 00888000
Ne 0 ""
Po 2.19964 0
$EndPAD
$PAD
Sh "2" R 2.99974 1.6002 0 0 0
Dr 0 0 0
At SMD N 00888000
Ne 0 ""
Po -2.19964 0
$EndPAD
$SHAPE3D
Na "walter/smd_cap/c_elec_5x4_5.wrl"
Sc 1 1 1
Of 0 0 0
Ro 0 0 0
$EndSHAPE3D
$EndMODULE c_elec_5x4.5
$MODULE c_elec_5x5.3
Po 0 0 0 15 49F5AF5C 00000000 ~~
Li c_elec_5x5.3
Cd SMT capacitor, aluminium electrolytic, 5x5.3
Sc 0
AR 
Op 0 0 0
T0 0 -3.175 0.50038 0.50038 0 0.11938 N V 21 N "c_elec_5x5.3"
T1 0 3.175 0.50038 0.50038 0 0.11938 N I 21 N "C***"
DS -2.286 -0.635 -2.286 0.762 0.127 21
DS -2.159 -0.889 -2.159 0.889 0.127 21
DS -2.032 -1.27 -2.032 1.27 0.127 21
DS -1.905 1.397 -1.905 -1.397 0.127 21
DS -1.778 -1.524 -1.778 1.524 0.127 21
DS -1.651 1.651 -1.651 -1.651 0.127 21
DS -1.524 -1.778 -1.524 1.778 0.127 21
DC 0 0 -2.413 0 0.127 21
DS -2.667 -2.667 1.905 -2.667 0.127 21
DS 1.905 -2.667 2.667 -1.905 0.127 21
DS 2.667 -1.905 2.667 1.905 0.127 21
DS 2.667 1.905 1.905 2.667 0.127 21
DS 1.905 2.667 -2.667 2.667 0.127 21
DS -2.667 2.667 -2.667 -2.667 0.127 21
DS 2.159 0 1.397 0 0.127 21
DS 1.778 -0.381 1.778 0.381 0.127 21
$PAD
Sh "1" R 2.99974 1.6002 0 0 0
Dr 0 0 0
At SMD N 00888000
Ne 0 ""
Po 2.19964 0
$EndPAD
$PAD
Sh "2" R 2.99974 1.6002 0 0 0
Dr 0 0 0
At SMD N 00888000
Ne 0 ""
Po -2.19964 0
$EndPAD
$SHAPE3D
Na "walter/smd_cap/c_elec_5x5_3.wrl"
Sc 1 1 1
Of 0 0 0
Ro 0 0 0
$EndSHAPE3D
$EndMODULE c_elec_5x5.3
$MODULE c_elec_5x5.7
Po 0 0 0 15 49F5AF70 00000000 ~~
Li c_elec_5x5.7
Cd SMT capacitor, aluminium electrolytic, 5x5.7
Sc 0
AR 
Op 0 0 0
T0 0 -3.175 0.50038 0.50038 0 0.11938 N V 21 N "c_elec_5x5.7"
T1 0 3.175 0.50038 0.50038 0 0.11938 N I 21 N "C***"
DS -2.286 -0.635 -2.286 0.762 0.127 21
DS -2.159 -0.889 -2.159 0.889 0.127 21
DS -2.032 -1.27 -2.032 1.27 0.127 21
DS -1.905 1.397 -1.905 -1.397 0.127 21
DS -1.778 -1.524 -1.778 1.524 0.127 21
DS -1.651 1.651 -1.651 -1.651 0.127 21
DS -1.524 -1.778 -1.524 1.778 0.127 21
DC 0 0 -2.413 0 0.127 21
DS -2.667 -2.667 1.905 -2.667 0.127 21
DS 1.905 -2.667 2.667 -1.905 0.127 21
DS 2.667 -1.905 2.667 1.905 0.127 21
DS 2.667 1.905 1.905 2.667 0.127 21
DS 1.905 2.667 -2.667 2.667 0.127 21
DS -2.667 2.667 -2.667 -2.667 0.127 21
DS 2.159 0 1.397 0 0.127 21
DS 1.778 -0.381 1.778 0.381 0.127 21
$PAD
Sh "1" R 2.99974 1.6002 0 0 0
Dr 0 0 0
At SMD N 00888000
Ne 0 ""
Po 2.19964 0
$EndPAD
$PAD
Sh "2" R 2.99974 1.6002 0 0 0
Dr 0 0 0
At SMD N 00888000
Ne 0 ""
Po -2.19964 0
$EndPAD
$SHAPE3D
Na "walter/smd_cap/c_elec_5x5_7.wrl"
Sc 1 1 1
Of 0 0 0
Ro 0 0 0
$EndSHAPE3D
$EndMODULE c_elec_5x5.7
$MODULE c_elec_5x5.8
Po 0 0 0 15 49F5AF88 00000000 ~~
Li c_elec_5x5.8
Cd SMT capacitor, aluminium electrolytic, 5x5.8
Sc 0
AR 
Op 0 0 0
T0 0 -3.175 0.50038 0.50038 0 0.11938 N V 21 N "c_elec_5x5.8"
T1 0 3.175 0.50038 0.50038 0 0.11938 N I 21 N "C***"
DS -2.286 -0.635 -2.286 0.762 0.127 21
DS -2.159 -0.889 -2.159 0.889 0.127 21
DS -2.032 -1.27 -2.032 1.27 0.127 21
DS -1.905 1.397 -1.905 -1.397 0.127 21
DS -1.778 -1.524 -1.778 1.524 0.127 21
DS -1.651 1.651 -1.651 -1.651 0.127 21
DS -1.524 -1.778 -1.524 1.778 0.127 21
DC 0 0 -2.413 0 0.127 21
DS -2.667 -2.667 1.905 -2.667 0.127 21
DS 1.905 -2.667 2.667 -1.905 0.127 21
DS 2.667 -1.905 2.667 1.905 0.127 21
DS 2.667 1.905 1.905 2.667 0.127 21
DS 1.905 2.667 -2.667 2.667 0.127 21
DS -2.667 2.667 -2.667 -2.667 0.127 21
DS 2.159 0 1.397 0 0.127 21
DS 1.778 -0.381 1.778 0.381 0.127 21
$PAD
Sh "1" R 2.99974 1.6002 0 0 0
Dr 0 0 0
At SMD N 00888000
Ne 0 ""
Po 2.19964 0
$EndPAD
$PAD
Sh "2" R 2.99974 1.6002 0 0 0
Dr 0 0 0
At SMD N 00888000
Ne 0 ""
Po -2.19964 0
$EndPAD
$SHAPE3D
Na "walter/smd_cap/c_elec_5x5_8.wrl"
Sc 1 1 1
Of 0 0 0
Ro 0 0 0
$EndSHAPE3D
$EndMODULE c_elec_5x5.8
$MODULE c_elec_6.3x4.5
Po 0 0 0 15 49F5C062 00000000 ~~
Li c_elec_6.3x4.5
Cd SMT capacitor, aluminium electrolytic, 6.3x4.5
Sc 0
AR 
Op 0 0 0
T0 0 -3.937 0.50038 0.50038 0 0.11938 N V 21 N "c_elec_6.3x4.5"
T1 0 3.81 0.50038 0.50038 0 0.11938 N I 21 N "C***"
DS -2.921 -0.762 -2.921 0.762 0.127 21
DS -2.794 1.143 -2.794 -1.143 0.127 21
DS -2.667 -1.397 -2.667 1.397 0.127 21
DS -2.54 1.651 -2.54 -1.651 0.127 21
DS -2.413 -1.778 -2.413 1.778 0.127 21
DC 0 0 -3.048 0 0.127 21
DS -3.302 -3.302 -3.302 3.302 0.127 21
DS -3.302 3.302 2.54 3.302 0.127 21
DS 2.54 3.302 3.302 2.54 0.127 21
DS 3.302 2.54 3.302 -2.54 0.127 21
DS 3.302 -2.54 2.54 -3.302 0.127 21
DS 2.54 -3.302 -3.302 -3.302 0.127 21
DS 2.159 0 1.397 0 0.127 21
DS 1.778 -0.381 1.778 0.381 0.127 21
$PAD
Sh "1" R 3.59918 1.6002 0 0 0
Dr 0 0 0
At SMD N 00888000
Ne 0 ""
Po 2.75082 0
$EndPAD
$PAD
Sh "2" R 3.59918 1.6002 0 0 0
Dr 0 0 0
At SMD N 00888000
Ne 0 ""
Po -2.75082 0
$EndPAD
$SHAPE3D
Na "walter/smd_cap/c_elec_6_3x4_5.wrl"
Sc 1 1 1
Of 0 0 0
Ro 0 0 0
$EndSHAPE3D
$EndMODULE c_elec_6.3x4.5
$MODULE c_elec_6.3x5.3
Po 0 0 0 15 49F5C06F 00000000 ~~
Li c_elec_6.3x5.3
Cd SMT capacitor, aluminium electrolytic, 6.3x5.3
Sc 0
AR 
Op 0 0 0
T0 0 -3.937 0.50038 0.50038 0 0.11938 N V 21 N "c_elec_6.3x5.3"
T1 0 3.81 0.50038 0.50038 0 0.11938 N I 21 N "C***"
DS -2.921 -0.762 -2.921 0.762 0.127 21
DS -2.794 1.143 -2.794 -1.143 0.127 21
DS -2.667 -1.397 -2.667 1.397 0.127 21
DS -2.54 1.651 -2.54 -1.651 0.127 21
DS -2.413 -1.778 -2.413 1.778 0.127 21
DC 0 0 -3.048 0 0.127 21
DS -3.302 -3.302 -3.302 3.302 0.127 21
DS -3.302 3.302 2.54 3.302 0.127 21
DS 2.54 3.302 3.302 2.54 0.127 21
DS 3.302 2.54 3.302 -2.54 0.127 21
DS 3.302 -2.54 2.54 -3.302 0.127 21
DS 2.54 -3.302 -3.302 -3.302 0.127 21
DS 2.159 0 1.397 0 0.127 21
DS 1.778 -0.381 1.778 0.381 0.127 21
$PAD
Sh "1" R 3.59918 1.6002 0 0 0
Dr 0 0 0
At SMD N 00888000
Ne 0 ""
Po 2.75082 0
$EndPAD
$PAD
Sh "2" R 3.59918 1.6002 0 0 0
Dr 0 0 0
At SMD N 00888000
Ne 0 ""
Po -2.75082 0
$EndPAD
$SHAPE3D
Na "walter/smd_cap/c_elec_6_3x5_3.wrl"
Sc 1 1 1
Of 0 0 0
Ro 0 0 0
$EndSHAPE3D
$EndMODULE c_elec_6.3x5.3
$MODULE c_elec_6.3x5.7
Po 0 0 0 15 49F5C08A 00000000 ~~
Li c_elec_6.3x5.7
Cd SMT capacitor, aluminium electrolytic, 6.3x5.7
Sc 0
AR 
Op 0 0 0
T0 0 -3.937 0.50038 0.50038 0 0.11938 N V 21 N "c_elec_6.3x5.7"
T1 0 3.81 0.50038 0.50038 0 0.11938 N I 21 N "C***"
DS -2.921 -0.762 -2.921 0.762 0.127 21
DS -2.794 1.143 -2.794 -1.143 0.127 21
DS -2.667 -1.397 -2.667 1.397 0.127 21
DS -2.54 1.651 -2.54 -1.651 0.127 21
DS -2.413 -1.778 -2.413 1.778 0.127 21
DC 0 0 -3.048 0 0.127 21
DS -3.302 -3.302 -3.302 3.302 0.127 21
DS -3.302 3.302 2.54 3.302 0.127 21
DS 2.54 3.302 3.302 2.54 0.127 21
DS 3.302 2.54 3.302 -2.54 0.127 21
DS 3.302 -2.54 2.54 -3.302 0.127 21
DS 2.54 -3.302 -3.302 -3.302 0.127 21
DS 2.159 0 1.397 0 0.127 21
DS 1.778 -0.381 1.778 0.381 0.127 21
$PAD
Sh "1" R 3.59918 1.6002 0 0 0
Dr 0 0 0
At SMD N 00888000
Ne 0 ""
Po 2.75082 0
$EndPAD
$PAD
Sh "2" R 3.59918 1.6002 0 0 0
Dr 0 0 0
At SMD N 00888000
Ne 0 ""
Po -2.75082 0
$EndPAD
$SHAPE3D
Na "walter/smd_cap/c_elec_6_3x5_7.wrl"
Sc 1 1 1
Of 0 0 0
Ro 0 0 0
$EndSHAPE3D
$EndMODULE c_elec_6.3x5.7
$MODULE c_elec_6.3x5.8
Po 0 0 0 15 49F5C09D 00000000 ~~
Li c_elec_6.3x5.8
Cd SMT capacitor, aluminium electrolytic, 6.3x5.8
Sc 0
AR 
Op 0 0 0
T0 0 -3.937 0.50038 0.50038 0 0.11938 N V 21 N "c_elec_6.3x5.8"
T1 0 3.81 0.50038 0.50038 0 0.11938 N I 21 N "C***"
DS -2.921 -0.762 -2.921 0.762 0.127 21
DS -2.794 1.143 -2.794 -1.143 0.127 21
DS -2.667 -1.397 -2.667 1.397 0.127 21
DS -2.54 1.651 -2.54 -1.651 0.127 21
DS -2.413 -1.778 -2.413 1.778 0.127 21
DC 0 0 -3.048 0 0.127 21
DS -3.302 -3.302 -3.302 3.302 0.127 21
DS -3.302 3.302 2.54 3.302 0.127 21
DS 2.54 3.302 3.302 2.54 0.127 21
DS 3.302 2.54 3.302 -2.54 0.127 21
DS 3.302 -2.54 2.54 -3.302 0.127 21
DS 2.54 -3.302 -3.302 -3.302 0.127 21
DS 2.159 0 1.397 0 0.127 21
DS 1.778 -0.381 1.778 0.381 0.127 21
$PAD
Sh "1" R 3.59918 1.6002 0 0 0
Dr 0 0 0
At SMD N 00888000
Ne 0 ""
Po 2.75082 0
$EndPAD
$PAD
Sh "2" R 3.59918 1.6002 0 0 0
Dr 0 0 0
At SMD N 00888000
Ne 0 ""
Po -2.75082 0
$EndPAD
$SHAPE3D
Na "walter/smd_cap/c_elec_6_3x5_8.wrl"
Sc 1 1 1
Of 0 0 0
Ro 0 0 0
$EndSHAPE3D
$EndMODULE c_elec_6.3x5.8
$MODULE c_elec_6.3x7.7
Po 0 0 0 15 49F5C0C2 00000000 ~~
Li c_elec_6.3x7.7
Cd SMT capacitor, aluminium electrolytic, 6.3x7.7
Sc 0
AR 
Op 0 0 0
T0 0 -3.937 0.50038 0.50038 0 0.11938 N V 21 N "c_elec_6.3x7.7"
T1 0 3.81 0.50038 0.50038 0 0.11938 N I 21 N "C***"
DS -2.921 -0.762 -2.921 0.762 0.127 21
DS -2.794 1.143 -2.794 -1.143 0.127 21
DS -2.667 -1.397 -2.667 1.397 0.127 21
DS -2.54 1.651 -2.54 -1.651 0.127 21
DS -2.413 -1.778 -2.413 1.778 0.127 21
DC 0 0 -3.048 0 0.127 21
DS -3.302 -3.302 -3.302 3.302 0.127 21
DS -3.302 3.302 2.54 3.302 0.127 21
DS 2.54 3.302 3.302 2.54 0.127 21
DS 3.302 2.54 3.302 -2.54 0.127 21
DS 3.302 -2.54 2.54 -3.302 0.127 21
DS 2.54 -3.302 -3.302 -3.302 0.127 21
DS 2.159 0 1.397 0 0.127 21
DS 1.778 -0.381 1.778 0.381 0.127 21
$PAD
Sh "1" R 3.59918 1.6002 0 0 0
Dr 0 0 0
At SMD N 00888000
Ne 0 ""
Po 2.75082 0
$EndPAD
$PAD
Sh "2" R 3.59918 1.6002 0 0 0
Dr 0 0 0
At SMD N 00888000
Ne 0 ""
Po -2.75082 0
$EndPAD
$SHAPE3D
Na "walter/smd_cap/c_elec_6_3x7_7.wrl"
Sc 1 1 1
Of 0 0 0
Ro 0 0 0
$EndSHAPE3D
$EndMODULE c_elec_6.3x7.7
$MODULE c_elec_8x10
Po 0 0 0 15 49F5C68A 00000000 ~~
Li c_elec_8x10
Cd SMT capacitor, aluminium electrolytic, 8x10
Sc 0
AR 
Op 0 0 0
T0 0 -4.826 0.50038 0.50038 0 0.11938 N V 21 N "c_elec_8x10"
T1 0 4.826 0.50038 0.50038 0 0.11938 N I 21 N "C***"
DS -3.81 -1.016 -3.81 1.016 0.127 21
DS -3.683 1.397 -3.683 -1.397 0.127 21
DS -3.556 -1.651 -3.556 1.651 0.127 21
DS -3.429 1.905 -3.429 -1.905 0.127 21
DS -3.302 2.032 -3.302 -2.032 0.127 21
DS -3.175 -2.286 -3.175 2.286 0.127 21
DC 0 0 3.937 0 0.127 21
DS -4.191 -4.191 -4.191 4.191 0.127 21
DS -4.191 4.191 3.429 4.191 0.127 21
DS 3.429 4.191 4.191 3.429 0.127 21
DS 4.191 3.429 4.191 -3.429 0.127 21
DS 4.191 -3.429 3.429 -4.191 0.127 21
DS 3.429 -4.191 -4.191 -4.191 0.127 21
DS 3.683 0 2.921 0 0.127 21
DS 3.302 -0.381 3.302 0.381 0.127 21
$PAD
Sh "1" R 3.50012 2.4003 0 0 0
Dr 0 0 0
At SMD N 00888000
Ne 0 ""
Po 3.2512 0
$EndPAD
$PAD
Sh "2" R 3.50012 2.4003 0 0 0
Dr 0 0 0
At SMD N 00888000
Ne 0 ""
Po -3.2512 0
$EndPAD
$SHAPE3D
Na "walter/smd_cap/c_elec_8x10.wrl"
Sc 1 1 1
Of 0 0 0
Ro 0 0 0
$EndSHAPE3D
$EndMODULE c_elec_8x10
$MODULE c_elec_8x10.5
Po 0 0 0 15 49F5C6A3 00000000 ~~
Li c_elec_8x10.5
Cd SMT capacitor, aluminium electrolytic, 8x10.5
Sc 0
AR 
Op 0 0 0
T0 0 -4.826 0.50038 0.50038 0 0.11938 N V 21 N "c_elec_8x10.5"
T1 0 4.826 0.50038 0.50038 0 0.11938 N I 21 N "C***"
DS -3.81 -1.016 -3.81 1.016 0.127 21
DS -3.683 1.397 -3.683 -1.397 0.127 21
DS -3.556 -1.651 -3.556 1.651 0.127 21
DS -3.429 1.905 -3.429 -1.905 0.127 21
DS -3.302 2.032 -3.302 -2.032 0.127 21
DS -3.175 -2.286 -3.175 2.286 0.127 21
DC 0 0 3.937 0 0.127 21
DS -4.191 -4.191 -4.191 4.191 0.127 21
DS -4.191 4.191 3.429 4.191 0.127 21
DS 3.429 4.191 4.191 3.429 0.127 21
DS 4.191 3.429 4.191 -3.429 0.127 21
DS 4.191 -3.429 3.429 -4.191 0.127 21
DS 3.429 -4.191 -4.191 -4.191 0.127 21
DS 3.683 0 2.921 0 0.127 21
DS 3.302 -0.381 3.302 0.381 0.127 21
$PAD
Sh "1" R 3.50012 2.4003 0 0 0
Dr 0 0 0
At SMD N 00888000
Ne 0 ""
Po 3.2512 0
$EndPAD
$PAD
Sh "2" R 3.50012 2.4003 0 0 0
Dr 0 0 0
At SMD N 00888000
Ne 0 ""
Po -3.2512 0
$EndPAD
$SHAPE3D
Na "walter/smd_cap/c_elec_8x10_5.wrl"
Sc 1 1 1
Of 0 0 0
Ro 0 0 0
$EndSHAPE3D
$EndMODULE c_elec_8x10.5
$MODULE c_elec_8x6.5
Po 0 0 0 15 49F5C611 00000000 ~~
Li c_elec_8x6.5
Cd SMT capacitor, aluminium electrolytic, 8x6.5
Sc 0
AR 
Op 0 0 0
T0 0 -4.826 0.50038 0.50038 0 0.11938 N V 21 N "c_elec_8x6.5"
T1 0 4.826 0.50038 0.50038 0 0.11938 N I 21 N "C***"
DS -3.81 -1.016 -3.81 1.016 0.127 21
DS -3.683 1.397 -3.683 -1.397 0.127 21
DS -3.556 -1.651 -3.556 1.651 0.127 21
DS -3.429 1.905 -3.429 -1.905 0.127 21
DS -3.302 2.032 -3.302 -2.032 0.127 21
DS -3.175 -2.286 -3.175 2.286 0.127 21
DC 0 0 3.937 0 0.127 21
DS -4.191 -4.191 -4.191 4.191 0.127 21
DS -4.191 4.191 3.429 4.191 0.127 21
DS 3.429 4.191 4.191 3.429 0.127 21
DS 4.191 3.429 4.191 -3.429 0.127 21
DS 4.191 -3.429 3.429 -4.191 0.127 21
DS 3.429 -4.191 -4.191 -4.191 0.127 21
DS 3.683 0 2.921 0 0.127 21
DS 3.302 -0.381 3.302 0.381 0.127 21
$PAD
Sh "1" R 4.0005 1.6002 0 0 0
Dr 0 0 0
At SMD N 00888000
Ne 0 ""
Po 3.05054 0
$EndPAD
$PAD
Sh "2" R 4.0005 1.6002 0 0 0
Dr 0 0 0
At SMD N 00888000
Ne 0 ""
Po -3.05054 0
$EndPAD
$SHAPE3D
Na "walter/smd_cap/c_elec_8x6_5.wrl"
Sc 1 1 1
Of 0 0 0
Ro 0 0 0
$EndSHAPE3D
$EndMODULE c_elec_8x6.5
$MODULE c_elec_8x6.7
Po 0 0 0 15 49F5C643 00000000 ~~
Li c_elec_8x6.7
Cd SMT capacitor, aluminium electrolytic, 8x6.7
Sc 0
AR 
Op 0 0 0
T0 0 -4.826 0.50038 0.50038 0 0.11938 N V 21 N "c_elec_8x6.7"
T1 0 4.826 0.50038 0.50038 0 0.11938 N I 21 N "C***"
DS -3.81 -1.016 -3.81 1.016 0.127 21
DS -3.683 1.397 -3.683 -1.397 0.127 21
DS -3.556 -1.651 -3.556 1.651 0.127 21
DS -3.429 1.905 -3.429 -1.905 0.127 21
DS -3.302 2.032 -3.302 -2.032 0.127 21
DS -3.175 -2.286 -3.175 2.286 0.127 21
DC 0 0 3.937 0 0.127 21
DS -4.191 -4.191 -4.191 4.191 0.127 21
DS -4.191 4.191 3.429 4.191 0.127 21
DS 3.429 4.191 4.191 3.429 0.127 21
DS 4.191 3.429 4.191 -3.429 0.127 21
DS 4.191 -3.429 3.429 -4.191 0.127 21
DS 3.429 -4.191 -4.191 -4.191 0.127 21
DS 3.683 0 2.921 0 0.127 21
DS 3.302 -0.381 3.302 0.381 0.127 21
$PAD
Sh "1" R 4.0005 1.6002 0 0 0
Dr 0 0 0
At SMD N 00888000
Ne 0 ""
Po 3.05054 0
$EndPAD
$PAD
Sh "2" R 4.0005 1.6002 0 0 0
Dr 0 0 0
At SMD N 00888000
Ne 0 ""
Po -3.05054 0
$EndPAD
$SHAPE3D
Na "walter/smd_cap/c_elec_8x6_7.wrl"
Sc 1 1 1
Of 0 0 0
Ro 0 0 0
$EndSHAPE3D
$EndMODULE c_elec_8x6.7
$MODULE c_tant_A
Po 0 0 0 15 4D5D91D2 00000000 ~~
Li c_tant_A
Cd SMT capacitor, tantalum size A
Sc 0
AR 
Op 0 0 0
T0 0.0254 -1.2954 0.50038 0.50038 0 0.11938 N V 21 N "c_tant_A"
T1 0 1.27 0.50038 0.50038 0 0.11938 N I 21 N "C***"
DS 1.143 0.8128 1.143 -0.8128 0.127 21
DS -1.6002 -0.8128 -1.6002 0.8128 0.127 21
DS -1.6002 0.8128 1.6002 0.8128 0.127 21
DS 1.6002 0.8128 1.6002 -0.8128 0.127 21
DS 1.6002 -0.8128 -1.6002 -0.8128 0.127 21
$PAD
Sh "1" R 1.95072 1.50114 0 0 0
Dr 0 0 0
At SMD N 00888000
Ne 0 ""
Po 1.37414 0
$EndPAD
$PAD
Sh "2" R 1.95072 1.50114 0 0 0
Dr 0 0 0
At SMD N 00888000
Ne 0 ""
Po -1.37414 0
$EndPAD
$SHAPE3D
Na "walter/smd_cap/c_tant_A.wrl"
Sc 1 1 1
Of 0 0 0
Ro 0 0 0
$EndSHAPE3D
$EndMODULE c_tant_A
$MODULE c_tant_B
Po 0 0 0 15 4D5D91C5 00000000 ~~
Li c_tant_B
Cd SMT capacitor, tantalum size B
Sc 0
AR 
Op 0 0 0
T0 0 -1.9685 0.50038 0.50038 0 0.11938 N V 21 N "c_tant_B"
T1 0 1.9685 0.50038 0.50038 0 0.11938 N I 21 N "C***"
DS 1.2065 -1.397 1.2065 1.397 0.127 21
DS 1.778 -1.397 -1.778 -1.397 0.127 21
DS -1.778 -1.397 -1.778 1.397 0.127 21
DS -1.778 1.397 1.778 1.397 0.127 21
DS 1.778 1.397 1.778 -1.397 0.127 21
$PAD
Sh "1" R 1.95072 2.49936 0 0 0
Dr 0 0 0
At SMD N 00888000
Ne 0 ""
Po 1.524 0
$EndPAD
$PAD
Sh "2" R 1.95072 2.49936 0 0 0
Dr 0 0 0
At SMD N 00888000
Ne 0 ""
Po -1.524 0
$EndPAD
$SHAPE3D
Na "walter/smd_cap/c_tant_B.wrl"
Sc 1 1 1
Of 0 0 0
Ro 0 0 0
$EndSHAPE3D
$EndMODULE c_tant_B
$MODULE c_tant_C
Po 0 0 0 15 4D5D91B9 00000000 ~~
Li c_tant_C
Cd SMT capacitor, tantalum size C
Sc 0
AR 
Op 0 0 0
T0 0 -2.159 0.50038 0.50038 0 0.11938 N V 21 N "c_tant_C"
T1 0 2.0955 0.50038 0.50038 0 0.11938 N I 21 N "C***"
DS 2.0955 -1.5875 2.0955 1.5875 0.127 21
DS -3.048 -1.5875 -3.048 1.5875 0.127 21
DS -3.048 1.5875 3.048 1.5875 0.127 21
DS 3.048 1.5875 3.048 -1.5875 0.127 21
DS 3.048 -1.5875 -3.048 -1.5875 0.127 21
$PAD
Sh "1" R 2.55016 2.49936 0 0 0
Dr 0 0 0
At SMD N 00888000
Ne 0 ""
Po 2.52476 0
$EndPAD
$PAD
Sh "2" R 2.55016 2.49936 0 0 0
Dr 0 0 0
At SMD N 00888000
Ne 0 ""
Po -2.52476 0
$EndPAD
$SHAPE3D
Na "walter/smd_cap/c_tant_C.wrl"
Sc 1 1 1
Of 0 0 0
Ro 0 0 0
$EndSHAPE3D
$EndMODULE c_tant_C
$MODULE c_tant_D
Po 0 0 0 15 4D5D91AD 00000000 ~~
Li c_tant_D
Cd SMT capacitor, tantalum size D
Sc 0
AR 
Op 0 0 0
T0 0 -2.7305 0.50038 0.50038 0 0.11938 N V 21 N "c_tant_D"
T1 0 2.7305 0.50038 0.50038 0 0.11938 N I 21 N "C***"
DS 2.54 -2.159 2.54 2.159 0.127 21
DS -3.683 -2.159 -3.683 2.159 0.127 21
DS -3.683 2.159 3.683 2.159 0.127 21
DS 3.683 2.159 3.683 -2.159 0.127 21
DS 3.683 -2.159 -3.683 -2.159 0.127 21
$PAD
Sh "1" R 2.55016 2.70002 0 0 0
Dr 0 0 0
At SMD N 00888000
Ne 0 ""
Po 2.99974 0
$EndPAD
$PAD
Sh "2" R 2.55016 3.79984 0 0 0
Dr 0 0 0
At SMD N 00888000
Ne 0 ""
Po -2.99974 0
$EndPAD
$SHAPE3D
Na "walter/smd_cap/c_tant_D.wrl"
Sc 1 1 1
Of 0 0 0
Ro 0 0 0
$EndSHAPE3D
$EndMODULE c_tant_D
$MODULE c_tant_E
Po 0 0 0 15 4D5D91A1 00000000 ~~
Li c_tant_E
Cd SMT capacitor, tantalum size E
Sc 0
AR 
Op 0 0 0
T0 0 -3.556 0.50038 0.50038 0 0.11938 N V 21 N "c_tant_E"
T1 0 3.556 0.50038 0.50038 0 0.11938 N I 21 N "C***"
DS 3.683 -2.9845 3.683 2.9845 0.127 21
DS 2.54 2.9845 2.54 -2.9845 0.127 21
DS -3.683 -2.9845 -3.683 2.9845 0.127 21
DS -3.683 2.9845 3.683 2.9845 0.127 21
DS 3.683 -2.9845 -3.683 -2.9845 0.127 21
$PAD
Sh "1" R 2.55016 4.39928 0 0 0
Dr 0 0 0
At SMD N 00888000
Ne 0 ""
Po 2.99974 0
$EndPAD
$PAD
Sh "2" R 2.55016 4.39928 0 0 0
Dr 0 0 0
At SMD N 00888000
Ne 0 ""
Po -2.99974 0
$EndPAD
$SHAPE3D
Na "walter/smd_cap/c_tant_E.wrl"
Sc 1 1 1
Of 0 0 0
Ro 0 0 0
$EndSHAPE3D
$EndMODULE c_tant_E
$MODULE c_tant_R
Po 0 0 0 15 4D5D9192 00000000 ~~
Li c_tant_R
Cd SMT capacitor, tantalum size R
Sc 0
AR 
Op 0 0 0
T0 0.0254 -1.2954 0.50038 0.50038 0 0.11938 N V 21 N "c_tant_R"
T1 0 1.27 0.50038 0.50038 0 0.11938 N I 21 N "C***"
DS 0.635 -0.635 0.635 0.635 0.127 21
DS -1.016 -0.635 -1.016 0.635 0.127 21
DS -1.016 0.635 1.016 0.635 0.127 21
DS 1.016 0.635 1.016 -0.635 0.127 21
DS 1.016 -0.635 -1.016 -0.635 0.127 21
$PAD
Sh "1" R 1.5494 1.80086 0 0 0
Dr 0 0 0
At SMD N 00888000
Ne 0 ""
Po 1.17602 0
$EndPAD
$PAD
Sh "2" R 1.5494 1.80086 0 0 0
Dr 0 0 0
At SMD N 00888000
Ne 0 ""
Po -1.17602 0
$EndPAD
$SHAPE3D
Na "walter/smd_cap/c_tant_R.wrl"
Sc 1 1 1
Of 0 0 0
Ro 0 0 0
$EndSHAPE3D
$EndMODULE c_tant_R
$MODULE c_tant_S
Po 0 0 0 15 4D5D9184 00000000 ~~
Li c_tant_S
Cd SMT capacitor, tantalum size S
Sc 0
AR 
Op 0 0 0
T0 0.0254 -1.2954 0.50038 0.50038 0 0.11938 N V 21 N "c_tant_S"
T1 0 1.27 0.50038 0.50038 0 0.11938 N I 21 N "C***"
DS 1.143 0.8128 1.143 -0.8128 0.127 21
DS -1.6002 -0.8128 -1.6002 0.8128 0.127 21
DS -1.6002 0.8128 1.6002 0.8128 0.127 21
DS 1.6002 0.8128 1.6002 -0.8128 0.127 21
DS 1.6002 -0.8128 -1.6002 -0.8128 0.127 21
$PAD
Sh "1" R 1.95072 1.50114 0 0 0
Dr 0 0 0
At SMD N 00888000
Ne 0 ""
Po 1.37414 0
$EndPAD
$PAD
Sh "2" R 1.95072 1.50114 0 0 0
Dr 0 0 0
At SMD N 00888000
Ne 0 ""
Po -1.37414 0
$EndPAD
$SHAPE3D
Na "walter/smd_cap/c_tant_S.wrl"
Sc 1 1 1
Of 0 0 0
Ro 0 0 0
$EndSHAPE3D
$EndMODULE c_tant_S
$MODULE c_tant_T
Po 0 0 0 15 4D5D9177 00000000 ~~
Li c_tant_T
Cd SMT capacitor, tantalum size T
Sc 0
AR 
Op 0 0 0
T0 0 -1.9685 0.50038 0.50038 0 0.11938 N V 21 N "c_tant_T"
T1 0 1.9685 0.50038 0.50038 0 0.11938 N I 21 N "C***"
DS 1.2065 -1.397 1.2065 1.397 0.127 21
DS 1.778 -1.397 -1.778 -1.397 0.127 21
DS -1.778 -1.397 -1.778 1.397 0.127 21
DS -1.778 1.397 1.778 1.397 0.127 21
DS 1.778 1.397 1.778 -1.397 0.127 21
$PAD
Sh "1" R 1.95072 2.49936 0 0 0
Dr 0 0 0
At SMD N 00888000
Ne 0 ""
Po 1.524 0
$EndPAD
$PAD
Sh "2" R 1.95072 2.49936 0 0 0
Dr 0 0 0
At SMD N 00888000
Ne 0 ""
Po -1.524 0
$EndPAD
$SHAPE3D
Na "walter/smd_cap/c_tant_T.wrl"
Sc 1 1 1
Of 0 0 0
Ro 0 0 0
$EndSHAPE3D
$EndMODULE c_tant_T
$MODULE c_tant_U
Po 0 0 0 15 4D5D916B 00000000 ~~
Li c_tant_U
Cd SMT capacitor, tantalum size U
Sc 0
AR 
Op 0 0 0
T0 0 -2.159 0.50038 0.50038 0 0.11938 N V 21 N "c_tant_U"
T1 0 2.0955 0.50038 0.50038 0 0.11938 N I 21 N "C***"
DS 2.0955 -1.5875 2.0955 1.5875 0.127 21
DS -3.048 -1.5875 -3.048 1.5875 0.127 21
DS -3.048 1.5875 3.048 1.5875 0.127 21
DS 3.048 1.5875 3.048 -1.5875 0.127 21
DS 3.048 -1.5875 -3.048 -1.5875 0.127 21
$PAD
Sh "1" R 2.55016 2.49936 0 0 0
Dr 0 0 0
At SMD N 00888000
Ne 0 ""
Po 2.52476 0
$EndPAD
$PAD
Sh "2" R 2.55016 2.49936 0 0 0
Dr 0 0 0
At SMD N 00888000
Ne 0 ""
Po -2.52476 0
$EndPAD
$SHAPE3D
Na "walter/smd_cap/c_tant_U.wrl"
Sc 1 1 1
Of 0 0 0
Ro 0 0 0
$EndSHAPE3D
$EndMODULE c_tant_U
$MODULE c_tant_V
Po 0 0 0 15 4D5D915C 00000000 ~~
Li c_tant_V
Cd SMT capacitor, tantalum size V
Sc 0
AR 
Op 0 0 0
T0 0 -2.7305 0.50038 0.50038 0 0.11938 N V 21 N "c_tant_V"
T1 0 2.7305 0.50038 0.50038 0 0.11938 N I 21 N "C***"
DS 2.54 -2.159 2.54 2.159 0.127 21
DS -3.683 -2.159 -3.683 2.159 0.127 21
DS -3.683 2.159 3.683 2.159 0.127 21
DS 3.683 2.159 3.683 -2.159 0.127 21
DS 3.683 -2.159 -3.683 -2.159 0.127 21
$PAD
Sh "1" R 2.55016 2.70002 0 0 0
Dr 0 0 0
At SMD N 00888000
Ne 0 ""
Po 2.99974 0
$EndPAD
$PAD
Sh "2" R 2.55016 3.79984 0 0 0
Dr 0 0 0
At SMD N 00888000
Ne 0 ""
Po -2.99974 0
$EndPAD
$SHAPE3D
Na "walter/smd_cap/c_tant_V.wrl"
Sc 1 1 1
Of 0 0 0
Ro 0 0 0
$EndSHAPE3D
$EndMODULE c_tant_V
$MODULE c_tant_X
Po 0 0 0 15 4D5D9149 00000000 ~~
Li c_tant_X
Cd SMT capacitor, tantalum size X
Sc 0
AR 
Op 0 0 0
T0 0 -2.7305 0.50038 0.50038 0 0.11938 N V 21 N "c_tant_X"
T1 0 2.7305 0.50038 0.50038 0 0.11938 N I 21 N "C***"
DS 2.54 -2.159 2.54 2.159 0.127 21
DS -3.683 -2.159 -3.683 2.159 0.127 21
DS -3.683 2.159 3.683 2.159 0.127 21
DS 3.683 2.159 3.683 -2.159 0.127 21
DS 3.683 -2.159 -3.683 -2.159 0.127 21
$PAD
Sh "1" R 2.55016 2.70002 0 0 0
Dr 0 0 0
At SMD N 00888000
Ne 0 ""
Po 2.99974 0
$EndPAD
$PAD
Sh "2" R 2.55016 3.79984 0 0 0
Dr 0 0 0
At SMD N 00888000
Ne 0 ""
Po -2.99974 0
$EndPAD
$SHAPE3D
Na "walter/smd_cap/c_tant_X.wrl"
Sc 1 1 1
Of 0 0 0
Ro 0 0 0
$EndSHAPE3D
$EndMODULE c_tant_X
$MODULE cfeed_0805
Po 0 0 0 15 4F5B499E 00000000 ~~
Li cfeed_0805
Cd SMT FeedThrough capacitor, 0805
Sc 0
AR cfeed_0805
Op 0 0 0
T0 0 -0.9906 0.29972 0.29972 0 0.06096 N V 21 N "cfeed_0805"
T1 0 0.9906 0.29972 0.29972 0 0.06096 N I 21 N "C***"
DS 0.635 -0.635 0.635 0.635 0.127 21
DS -0.635 -0.635 -0.635 0.6096 0.127 21
DS -1.016 -0.635 1.016 -0.635 0.127 21
DS 1.016 -0.635 1.016 0.635 0.127 21
DS 1.016 0.635 -1.016 0.635 0.127 21
DS -1.016 0.635 -1.016 -0.635 0.127 21
$PAD
Sh "1" R 0.89916 1.24968 0 0 0
Dr 0 0 0
At SMD N 00888000
Ne 0 ""
Po 1.19888 0
$EndPAD
$PAD
Sh "2" R 0.89916 1.24968 0 0 0
Dr 0 0 0
At SMD N 00888000
Ne 0 ""
Po -1.19888 0
$EndPAD
$PAD
Sh "3" R 0.50038 1.99898 0 0 0
Dr 0 0 0
At SMD N 00888000
Ne 0 ""
Po 0 0
$EndPAD
$SHAPE3D
Na "walter\\smd_cap\\c_0805.wrl"
Sc 1 1 1
Of 0 0 0
Ro 0 0 0
$EndSHAPE3D
$EndMODULE cfeed_0805
$EndLIBRARY
