Version 4
SHEET 1 2460 680
WIRE 1008 -704 1008 -768
WIRE 1008 -672 1008 -704
WIRE 1088 -624 1008 -624
WIRE 1136 -624 1088 -624
WIRE 832 -592 784 -592
WIRE 960 -592 832 -592
WIRE 784 -512 784 -592
FLAG 1008 -576 0
FLAG 1008 -848 0
FLAG 1136 -544 0
FLAG 1008 -704 D
FLAG 784 -432 0
FLAG 832 -592 G
FLAG 1088 -624 B
SYMBOL nmos4 960 -672 R0
WINDOW 0 69 -7 VRight 2
WINDOW 3 -16 -12 VRight 2
WINDOW 123 -62 -154 VRight 2
SYMATTR InstName M6
SYMATTR Value CMOSN
SYMATTR Value2 l={Lmin} w={Wbs}
SYMBOL current 1008 -848 R0
WINDOW 123 0 0 Left 2
WINDOW 39 0 0 Left 2
SYMATTR InstName I1
SYMATTR Value 100nA
SYMBOL voltage 1136 -640 R0
WINDOW 123 0 0 Left 2
WINDOW 39 0 0 Left 2
SYMATTR InstName Vb
SYMATTR Value {Vb}
SYMBOL bv 784 -528 R0
SYMATTR InstName B1
SYMATTR Value V=1000000*(V(D)-50mV)
TEXT 1120 -832 Left 2 !.param Lmin=180n\n.param Wbs=500um\n.param Wbsp=1000nm
TEXT 1120 -736 Left 2 !.include tsmc018.txt
TEXT 952 -504 Left 2 !.step param Vb list 0 -3 -10m
TEXT 824 -848 Left 2 !.op
TEXT 1264 -648 Left 2 ;Vt=164mV-V(b)*0.2
TEXT 848 -464 Left 2 ;Gain=1000000
