Version 4
SHEET 1 1732 1540
WIRE 608 752 496 752
WIRE 1024 752 896 752
WIRE 1024 768 1024 752
WIRE 496 784 496 752
WIRE 496 784 432 784
WIRE 896 816 896 752
WIRE 368 832 320 832
WIRE 832 864 784 864
WIRE 1024 864 1024 848
WIRE 432 896 432 880
WIRE 432 912 432 896
WIRE 896 928 896 912
WIRE 896 944 896 928
WIRE 432 1008 432 992
FLAG 432 1008 0
FLAG 896 1024 0
FLAG 1024 864 0
FLAG 320 832 0
FLAG 784 864 0
FLAG 432 896 e1
FLAG 896 928 e2
FLAG 608 832 0
SYMBOL npn 368 784 R0
SYMATTR InstName Q1
SYMATTR Value BC517
SYMATTR Prefix xQN
SYMBOL current 432 912 R0
WINDOW 0 24 80 Left 2
WINDOW 3 24 0 Left 2
WINDOW 123 46 35 Left 2
WINDOW 39 0 0 Left 2
SYMATTR InstName I1
SYMATTR Value 30mA
SYMATTR Value2 AC 1
SYMBOL npn 832 816 R0
SYMATTR InstName Q3
SYMATTR Value NPNDarl
SYMBOL bv 608 736 R0
SYMATTR InstName B3
SYMATTR Value V=v(e1)+5
SYMBOL bv 1024 752 R0
SYMATTR InstName B2
SYMATTR Value V=v(e2)+5
SYMBOL current 896 944 R0
WINDOW 0 24 80 Left 2
WINDOW 3 24 0 Left 2
WINDOW 123 46 35 Left 2
WINDOW 39 0 0 Left 2
SYMATTR InstName I2
SYMATTR Value 30mA
SYMATTR Value2 AC 1
TEXT 280 264 Left 2 !*BC517 MCE 6/19/97\n*Ref: Motorola Small-Signal Device Databook, Q4/94\n*Si 625mW 30V 1000mA pkg:TO-92B 1,2,3\n.SUBCKT BC517 1 2 3\n* TERMINALS: C B E\nQ1 1 2 4 QPWR .1\nQ2 1 4 3 QPWR\n.MODEL QPWR NPN (IS=1.2P NF=1 BF=245 VAF=98.6 IKF=0.36 ISE=26.8P NE=2\n+ BR=4 NR=1 VAR=40 IKR=0.54 RE=1.5 RB=6 RC=0.6 CJE=147P XTB=1.5\n+ VJE=0.74 MJE=0.45 CJC=9.48P VJC=1.1 MJC=0.24 TF=60.3N TR=2.61U\n* VJE=0.74 MJE=0.45 CJC=9.48P VJC=1.1 MJC=0.24 TF=470p TR=2.61U) ;my\n.ENDS
TEXT 512 984 Left 2 !.ac dec 10 1Meg 250Meg
TEXT 336 1072 Left 2 !.meas beta100Meg1 find  abs(Ix(Q1:C)/Ix(Q1:B))  at 100Meg\n.meas beta100Meg3 find  abs(ic(q3)/ib(q3))  at 100Meg
TEXT 1048 704 Left 2 !.opt meascplxfmt=polar
TEXT 280 600 Left 2 !.MODEL NPNDarl NPN (Ibe={1.2P*5} ibc=0.12p NF=2 BF=61000 VAF=98.6 IKF=0.3 ISE=1.3p NE=4\n+ BR=4 NR=1 VAR=40 IKR=0.54 RE=1.8 RB=12 RC=0 CJE={147P/2}   XTB=3 \n+ VJE={0.74*2} MJE=0.45 CJC={9.48P*0.1} VJC=1.1 MJC=0.24 TF=395p TR=2.61U)
