Version 4
SHEET 1 1732 1540
WIRE 448 784 432 784
WIRE 496 784 448 784
WIRE 896 800 896 784
WIRE 1120 800 1120 784
WIRE 896 816 896 800
WIRE 368 832 352 832
WIRE 832 864 816 864
WIRE 1120 896 1120 880
WIRE 432 928 432 880
WIRE 896 944 896 912
FLAG 432 928 0
FLAG 896 944 0
FLAG 1120 896 0
FLAG 1120 784 VCC
FLAG 976 784 VCC
FLAG 576 784 VCC
FLAG 304 1056 0
FLAG 304 976 in
FLAG 272 832 in
FLAG 736 864 in
FLAG 448 784 OUT1
FLAG 896 800 OUT2
SYMBOL npn 368 784 R0
SYMATTR InstName Q1
SYMATTR Value BC517
SYMATTR Prefix xQN
SYMBOL npn 832 816 R0
SYMATTR InstName Q3
SYMATTR Value NPNDarl
SYMBOL res 832 848 R90
WINDOW 0 0 56 VBottom 2
WINDOW 3 32 56 VTop 2
SYMATTR InstName R1
SYMATTR Value 1k
SYMBOL res 368 816 R90
WINDOW 0 0 56 VBottom 2
WINDOW 3 32 56 VTop 2
SYMATTR InstName R2
SYMATTR Value 1k
SYMBOL res 592 768 R90
WINDOW 0 0 56 VBottom 2
WINDOW 3 32 56 VTop 2
SYMATTR InstName R3
SYMATTR Value 100
SYMBOL res 992 768 R90
WINDOW 0 0 56 VBottom 2
WINDOW 3 32 56 VTop 2
SYMATTR InstName R4
SYMATTR Value 100
SYMBOL voltage 1120 784 R0
WINDOW 123 0 0 Left 2
WINDOW 39 0 0 Left 2
SYMATTR InstName V1
SYMATTR Value 24V
SYMBOL voltage 304 960 R0
WINDOW 123 0 0 Left 2
WINDOW 39 0 0 Left 2
SYMATTR InstName V2
SYMATTR Value PULSE(0 5 10u 10n 10n 20u 40u)
TEXT 280 264 Left 2 !*BC517 MCE 6/19/97\n*Ref: Motorola Small-Signal Device Databook, Q4/94\n*Si 625mW 30V 1000mA pkg:TO-92B 1,2,3\n.SUBCKT BC517 1 2 3\n* TERMINALS: C B E\nQ1 1 2 4 QPWR .1\nQ2 1 4 3 QPWR\n.MODEL QPWR NPN (IS=1.2P NF=1 BF=245 VAF=98.6 IKF=0.36 ISE=26.8P NE=2\n+ BR=4 NR=1 VAR=40 IKR=0.54 RE=1.5 RB=6 RC=0.6 CJE=147P XTB=1.5\n* VJE=0.74 MJE=0.45 CJC=9.48P VJC=1.1 MJC=0.24 TF=60.3N TR=2.61U\n+ VJE=0.74 MJE=0.45 CJC=9.48P VJC=1.1 MJC=0.24 TF=470p TR=2.61U) ;my\n.ENDS
TEXT 512 984 Left 2 !.tran 100u uic
TEXT 280 600 Left 2 !.MODEL NPNDarl NPN (Ibe={1.2P*5} ibc=0.12p NF=2 BF=61000 VAF=98.6 IKF=0.3 ISE=1.3p NE=4\n+ BR=4 NR=1 VAR=40 IKR=0.54 RE=1.8 RB=12 RC=0 CJE={147P/2}   XTB=3 \n+ VJE={0.74*2} MJE=0.45 CJC={9.48P*0.1} VJC=1.1 MJC=0.24 TF=395p TR=2.61U)
TEXT 1192 544 Left 4 ;<== !!! TF=470p
