Version 4
SHEET 1 880 680
WIRE 224 144 176 144
WIRE 272 144 224 144
WIRE 416 144 368 144
WIRE 432 144 416 144
FLAG 224 144 in
FLAG 416 144 out
SYMBOL TAU.cmp\\dif2 320 144 R0
SYMATTR InstName U1
SYMBOL TAU.cmp\\genTrap 144 128 R0
SYMATTR Value Tr=4m Ton=3m Tf=2m
SYMATTR Value2 dT=1m Period=100m
SYMATTR InstName U2
TEXT 304 224 Left 0 !.tran 12m
TEXT 48 248 Left 0 !;ac dec 10 1 1Meg
