Version 4
SHEET 1 880 680
WIRE 224 144 176 144
WIRE 272 144 224 144
WIRE 416 144 368 144
WIRE 432 144 416 144
FLAG 224 144 in
FLAG 416 144 out
SYMBOL TAU.cmp\\genPulse 144 128 R0
WINDOW 3 -55 -51 Center 0
WINDOW 123 -56 82 Center 0
SYMATTR InstName U1
SYMBOL TAU.cmp\\intdelay 320 144 R0
SYMATTR InstName U2
TEXT 302 226 Left 0 !;tran 5m
TEXT 48 248 Left 0 !.ac dec 10 1 1Meg
