Version 4
SHEET 1 880 680
WIRE 224 144 176 144
WIRE 256 144 224 144
WIRE 416 144 384 144
WIRE 432 144 416 144
FLAG 224 144 in
FLAG 416 144 out
SYMBOL TAU.cmp\\osc 304 144 R0
WINDOW 3 12 -68 Center 0
SYMATTR Value Q=5 T=1e-3
SYMATTR InstName U1
SYMBOL TAU.cmp\\genPulse 144 128 R0
WINDOW 3 -55 -51 Center 0
WINDOW 123 -58 86 Center 0
SYMATTR Value dT=5m Ton=30m
SYMATTR InstName U2
TEXT 264 256 Left 0 !;tran 80m
TEXT 0 256 Left 0 !.ac dec 100 50 500
