Version 4
SHEET 1 1300 680
WIRE 144 128 144 96
WIRE 144 144 144 128
FLAG 144 208 0
FLAG 144 128 x
FLAG 144 16 0
SYMBOL diode 128 144 R0
WINDOW 3 59 26 Left 2
SYMATTR InstName D1
SYMATTR Value FL1016TEMP
SYMBOL current 144 16 R0
WINDOW 123 0 0 Left 2
WINDOW 39 0 0 Left 2
SYMATTR InstName I1
SYMATTR Value 10mA
TEXT 256 112 Left 2 !.step Temp list 25 26
TEXT -74 104 Left 2 !.op
TEXT -176 264 Left 2 !.model FL1016 D(Is=2.5553n Rs=1.5 N=6.75 Cjo=42p Iave=20mA mfg=FL type=LED)
TEXT -184 312 Left 2 !.model FL1016Temp ako:  FL1016  Xti=3 EG=3.47
