Version 4
SHEET 1 1092 680
WIRE 112 -80 64 -80
WIRE 176 -80 112 -80
WIRE 240 -80 176 -80
WIRE 112 -48 112 -80
WIRE 240 -48 240 -80
WIRE 112 32 112 16
WIRE 176 32 176 0
WIRE 176 32 112 32
WIRE 224 32 176 32
WIRE 240 32 224 32
WIRE 240 48 240 32
WIRE 64 96 64 -80
WIRE 240 144 240 128
WIRE -48 192 -144 192
WIRE 64 192 64 176
WIRE 64 192 16 192
WIRE 176 192 64 192
WIRE -144 224 -144 192
WIRE 64 240 64 192
WIRE 288 240 240 240
WIRE 368 240 352 240
WIRE 544 240 496 240
WIRE 432 320 432 240
WIRE 432 320 416 320
WIRE 368 400 368 336
WIRE 432 400 368 400
WIRE 368 416 368 400
FLAG 64 320 0
FLAG -144 304 0
FLAG 240 320 0
FLAG 544 320 0
FLAG 512 64 0
FLAG 512 -16 VCC
FLAG 240 -80 VCC
FLAG 368 416 0
FLAG 224 32 C
SYMBOL res 48 80 R0
SYMATTR InstName R1
SYMATTR Value 1K
SYMBOL res 48 224 R0
SYMATTR InstName R2
SYMATTR Value 1K
SYMBOL cap 16 176 R90
WINDOW 0 0 32 VBottom 2
WINDOW 3 32 32 VTop 2
SYMATTR InstName C1
SYMATTR Value 1n
SYMBOL voltage -144 208 R0
WINDOW 123 24 124 Left 2
WINDOW 39 24 44 Left 2
WINDOW 3 -22 156 Left 2
SYMATTR SpiceLine Rser=50
SYMATTR Value SINE(0 200mV 100Meghz)
SYMATTR InstName RF
SYMBOL res 224 224 R0
SYMATTR InstName R3
SYMATTR Value 1k
SYMBOL voltage 544 224 R0
WINDOW 123 24 124 Left 2
WINDOW 39 -22 131 Left 2
WINDOW 3 -260 231 Left 2
SYMATTR SpiceLine Rser=50
SYMATTR Value SINE(0 2V {100MegHz-10.7Meg})
SYMATTR InstName LO
SYMBOL cap 352 224 R90
WINDOW 0 -1 6 VBottom 2
WINDOW 3 32 32 VTop 2
SYMATTR InstName C2
SYMATTR Value 1n
SYMBOL voltage 512 -32 R0
WINDOW 123 0 0 Left 0
WINDOW 39 0 0 Left 0
SYMATTR InstName V3
SYMATTR Value 12v
SYMBOL cap 496 224 R90
WINDOW 0 0 32 VBottom 2
WINDOW 3 32 32 VTop 2
SYMATTR InstName C3
SYMATTR Value 1n
SYMBOL res 416 304 R0
SYMATTR InstName R6
SYMATTR Value 1Meg
SYMBOL ZZZ\\BJT\\bfr92 176 144 R0
WINDOW 38 0 0 Left 2
SYMATTR InstName U1
SYMBOL ind 224 -64 R0
SYMATTR InstName L1
SYMATTR Value 1000n
SYMATTR SpiceLine Ipk=0.35 Rser=0.15 Rpar=0 Cpar=0 mfg="Murata" pn="LQM21PN1R0MCHD"
SYMBOL cap 96 -48 R0
WINDOW 3 -231 59 Left 2
SYMATTR Value {1/(1u*(2*pi*10.7Meg)**2)}
SYMATTR InstName C4
SYMBOL ATF-34143 416 240 M0
WINDOW 38 -27 -58 Left 2
SYMATTR InstName U2
SYMBOL res 224 32 R0
SYMATTR InstName R4
SYMATTR Value 20
SYMBOL res 160 -96 R0
SYMATTR InstName R5
SYMATTR Value 4.7k
TEXT -160 424 Left 2 !.tran 0 {300/100Meg} {210/100Meg} {0.01/100Meg}
TEXT -56 56 Left 2 ;220pF
TEXT 144 -128 Left 2 ;mfg="murata" pn="lqm21pn1r0mchd"
