(module b13b-ph-kl (layer F.Cu)
  (descr "JST PH series connector, B13B-PH-KL")
  (fp_text reference JP*** (at 0 -2.99974) (layer F.SilkS)
    (effects (font (thickness 0.3048)))
  )
  (fp_text value b13b-ph-kl (at 0 4.20116) (layer F.SilkS)
    (effects (font (thickness 0.3048)))
  )
  (fp_line (start 14.00048 2.79908) (end -14.00048 2.79908) (layer F.SilkS) (width 0.381))
  (fp_line (start -13.5001 2.30124) (end 13.5001 2.30124) (layer F.SilkS) (width 0.381))
  (fp_line (start 14.00048 -1.69926) (end -14.00048 -1.69926) (layer F.SilkS) (width 0.381))
  (fp_line (start -1.09728 2.30124) (end -1.09728 1.80086) (layer F.SilkS) (width 0.381))
  (fp_line (start -1.09728 1.80086) (end -0.89916 1.80086) (layer F.SilkS) (width 0.381))
  (fp_line (start -0.89916 1.80086) (end -0.89916 2.30124) (layer F.SilkS) (width 0.381))
  (fp_line (start 1.09982 1.80086) (end 1.09982 2.30124) (layer F.SilkS) (width 0.381))
  (fp_line (start 0.9017 1.80086) (end 1.09982 1.80086) (layer F.SilkS) (width 0.381))
  (fp_line (start 0.9017 2.30124) (end 0.9017 1.80086) (layer F.SilkS) (width 0.381))
  (fp_line (start 2.90068 2.30124) (end 2.90068 1.80086) (layer F.SilkS) (width 0.381))
  (fp_line (start 2.90068 1.80086) (end 3.0988 1.80086) (layer F.SilkS) (width 0.381))
  (fp_line (start 3.0988 1.80086) (end 3.0988 2.30124) (layer F.SilkS) (width 0.381))
  (fp_line (start -3.09626 2.30124) (end -3.09626 1.80086) (layer F.SilkS) (width 0.381))
  (fp_line (start -3.09626 1.80086) (end -2.89814 1.80086) (layer F.SilkS) (width 0.381))
  (fp_line (start -2.89814 1.80086) (end -2.89814 2.30124) (layer F.SilkS) (width 0.381))
  (fp_line (start 5.10032 1.80086) (end 5.10032 2.30124) (layer F.SilkS) (width 0.381))
  (fp_line (start 4.9022 1.80086) (end 5.10032 1.80086) (layer F.SilkS) (width 0.381))
  (fp_line (start 4.9022 2.30124) (end 4.9022 1.80086) (layer F.SilkS) (width 0.381))
  (fp_line (start 6.90118 2.30124) (end 6.90118 1.80086) (layer F.SilkS) (width 0.381))
  (fp_line (start 6.90118 1.80086) (end 7.0993 1.80086) (layer F.SilkS) (width 0.381))
  (fp_line (start 7.0993 1.80086) (end 7.0993 2.30124) (layer F.SilkS) (width 0.381))
  (fp_line (start 10.89914 2.30124) (end 10.89914 1.80086) (layer F.SilkS) (width 0.381))
  (fp_line (start 10.89914 1.80086) (end 11.09726 1.80086) (layer F.SilkS) (width 0.381))
  (fp_line (start 11.09726 1.80086) (end 11.09726 2.30124) (layer F.SilkS) (width 0.381))
  (fp_line (start -5.1054 2.30124) (end -5.1054 1.80086) (layer F.SilkS) (width 0.381))
  (fp_line (start -5.1054 1.80086) (end -4.90728 1.80086) (layer F.SilkS) (width 0.381))
  (fp_line (start -4.90728 1.80086) (end -4.90728 2.30124) (layer F.SilkS) (width 0.381))
  (fp_line (start 9.09828 1.80086) (end 9.09828 2.30124) (layer F.SilkS) (width 0.381))
  (fp_line (start 8.90016 1.80086) (end 9.09828 1.80086) (layer F.SilkS) (width 0.381))
  (fp_line (start 8.90016 2.30124) (end 8.90016 1.80086) (layer F.SilkS) (width 0.381))
  (fp_line (start -8.90524 1.80086) (end -8.90524 2.30124) (layer F.SilkS) (width 0.381))
  (fp_line (start -9.10336 1.80086) (end -8.90524 1.80086) (layer F.SilkS) (width 0.381))
  (fp_line (start -9.10336 2.30124) (end -9.10336 1.80086) (layer F.SilkS) (width 0.381))
  (fp_line (start -10.90676 1.80086) (end -10.90676 2.30124) (layer F.SilkS) (width 0.381))
  (fp_line (start -11.10488 1.80086) (end -10.90676 1.80086) (layer F.SilkS) (width 0.381))
  (fp_line (start -11.10488 2.30124) (end -11.10488 1.80086) (layer F.SilkS) (width 0.381))
  (fp_line (start -7.10438 2.30124) (end -7.10438 1.80086) (layer F.SilkS) (width 0.381))
  (fp_line (start -7.10438 1.80086) (end -6.90626 1.80086) (layer F.SilkS) (width 0.381))
  (fp_line (start -6.90626 1.80086) (end -6.90626 2.30124) (layer F.SilkS) (width 0.381))
  (fp_line (start 14.00048 -0.50038) (end 13.5001 -0.50038) (layer F.SilkS) (width 0.381))
  (fp_line (start 13.5001 0.8001) (end 14.00048 0.8001) (layer F.SilkS) (width 0.381))
  (fp_line (start -13.50518 0.8001) (end -14.00556 0.8001) (layer F.SilkS) (width 0.381))
  (fp_line (start -13.50518 -0.50038) (end -14.00556 -0.50038) (layer F.SilkS) (width 0.381))
  (fp_line (start -11.5062 -1.69926) (end -11.5062 -1.19888) (layer F.SilkS) (width 0.381))
  (fp_line (start -11.5062 -1.19888) (end -13.50518 -1.19888) (layer F.SilkS) (width 0.381))
  (fp_line (start -13.50518 -1.19888) (end -13.50518 2.30124) (layer F.SilkS) (width 0.381))
  (fp_line (start 13.5001 2.30124) (end 13.5001 -1.19888) (layer F.SilkS) (width 0.381))
  (fp_line (start 13.5001 -1.19888) (end 11.50112 -1.19888) (layer F.SilkS) (width 0.381))
  (fp_line (start 11.50112 -1.19888) (end 11.50112 -1.69926) (layer F.SilkS) (width 0.381))
  (fp_line (start -14.00556 -1.69926) (end -14.00556 2.79908) (layer F.SilkS) (width 0.381))
  (fp_line (start 14.00048 -1.69926) (end 14.00048 2.79908) (layer F.SilkS) (width 0.381))
  (fp_line (start -12.3063 -1.69926) (end -12.3063 -1.89992) (layer F.SilkS) (width 0.381))
  (fp_line (start -12.3063 -1.89992) (end -12.60602 -1.89992) (layer F.SilkS) (width 0.381))
  (fp_line (start -12.60602 -1.89992) (end -12.60602 -1.69926) (layer F.SilkS) (width 0.381))
  (pad 7 thru_hole oval (at -0.00254 0) (size 1.19888 1.69926) (drill 0.70104) (layers *.Cu *.Mask F.SilkS))
  (pad 6 thru_hole oval (at -1.99898 0) (size 1.19888 1.69926) (drill 0.70104) (layers *.Cu *.Mask F.SilkS))
  (pad 5 thru_hole oval (at -4.0005 0) (size 1.19888 1.69926) (drill 0.70104) (layers *.Cu *.Mask F.SilkS))
  (pad 1 thru_hole rect (at -12.00658 0) (size 1.19888 1.69926) (drill 0.70104) (layers *.Cu *.Mask F.SilkS))
  (pad 3 thru_hole oval (at -8.00354 0) (size 1.19888 1.69926) (drill 0.70104) (layers *.Cu *.Mask F.SilkS))
  (pad 2 thru_hole oval (at -10.00506 0) (size 1.19888 1.69926) (drill 0.70104) (layers *.Cu *.Mask F.SilkS))
  (pad 4 thru_hole oval (at -6.00456 0) (size 1.19888 1.69926) (drill 0.70104) (layers *.Cu *.Mask F.SilkS))
  (pad 8 thru_hole oval (at 1.99644 0) (size 1.19888 1.69926) (drill 0.70104) (layers *.Cu *.Mask F.SilkS))
  (pad 9 thru_hole oval (at 3.99796 0) (size 1.19888 1.69926) (drill 0.70104) (layers *.Cu *.Mask F.SilkS))
  (pad 10 thru_hole oval (at 5.99694 0) (size 1.19888 1.69926) (drill 0.70104) (layers *.Cu *.Mask F.SilkS))
  (pad 11 thru_hole oval (at 7.99846 0) (size 1.19888 1.69926) (drill 0.70104) (layers *.Cu *.Mask F.SilkS))
  (pad 12 thru_hole oval (at 9.99998 0) (size 1.19888 1.69926) (drill 0.70104) (layers *.Cu *.Mask F.SilkS))
  (pad 13 thru_hole oval (at 11.99896 0) (size 1.19888 1.69926) (drill 0.70104) (layers *.Cu *.Mask F.SilkS))
  (model walter/conn_jst-ph/b13b-ph-kl.wrl
    (at (xyz 0 0 0))
    (scale (xyz 1 1 1))
    (rotate (xyz 0 0 0))
  )
)
