(module b5b-ph-kl (layer F.Cu)
  (descr "JST PH series connector, B5B-PH-KL")
  (fp_text reference JP*** (at 0 -2.99974) (layer F.SilkS)
    (effects (font (thickness 0.3048)))
  )
  (fp_text value b5b-ph-kl (at 0 4.20116) (layer F.SilkS)
    (effects (font (thickness 0.3048)))
  )
  (fp_line (start 5.99948 -1.69926) (end -5.99948 -1.69926) (layer F.SilkS) (width 0.381))
  (fp_line (start -5.4991 2.30124) (end 5.4991 2.30124) (layer F.SilkS) (width 0.381))
  (fp_line (start 5.99948 2.79908) (end -5.99948 2.79908) (layer F.SilkS) (width 0.381))
  (fp_line (start 3.09626 1.80086) (end 3.09626 2.30124) (layer F.SilkS) (width 0.381))
  (fp_line (start 2.89814 1.80086) (end 3.09626 1.80086) (layer F.SilkS) (width 0.381))
  (fp_line (start 2.89814 2.30124) (end 2.89814 1.80086) (layer F.SilkS) (width 0.381))
  (fp_line (start -0.9017 1.80086) (end -0.9017 2.30124) (layer F.SilkS) (width 0.381))
  (fp_line (start -1.09982 1.80086) (end -0.9017 1.80086) (layer F.SilkS) (width 0.381))
  (fp_line (start -1.09982 2.30124) (end -1.09982 1.80086) (layer F.SilkS) (width 0.381))
  (fp_line (start -2.90322 1.80086) (end -2.90322 2.30124) (layer F.SilkS) (width 0.381))
  (fp_line (start -3.10134 1.80086) (end -2.90322 1.80086) (layer F.SilkS) (width 0.381))
  (fp_line (start -3.10134 2.30124) (end -3.10134 1.80086) (layer F.SilkS) (width 0.381))
  (fp_line (start 0.89916 2.30124) (end 0.89916 1.80086) (layer F.SilkS) (width 0.381))
  (fp_line (start 0.89916 1.80086) (end 1.09728 1.80086) (layer F.SilkS) (width 0.381))
  (fp_line (start 1.09728 1.80086) (end 1.09728 2.30124) (layer F.SilkS) (width 0.381))
  (fp_line (start 5.99948 -0.50038) (end 5.4991 -0.50038) (layer F.SilkS) (width 0.381))
  (fp_line (start 5.4991 0.8001) (end 5.99948 0.8001) (layer F.SilkS) (width 0.381))
  (fp_line (start -5.50164 0.8001) (end -6.00202 0.8001) (layer F.SilkS) (width 0.381))
  (fp_line (start -5.50164 -0.50038) (end -6.00202 -0.50038) (layer F.SilkS) (width 0.381))
  (fp_line (start -3.50266 -1.69926) (end -3.50266 -1.19888) (layer F.SilkS) (width 0.381))
  (fp_line (start -3.50266 -1.19888) (end -5.50164 -1.19888) (layer F.SilkS) (width 0.381))
  (fp_line (start -5.50164 -1.19888) (end -5.50164 2.30124) (layer F.SilkS) (width 0.381))
  (fp_line (start 5.4991 2.30124) (end 5.4991 -1.19888) (layer F.SilkS) (width 0.381))
  (fp_line (start 5.4991 -1.19888) (end 3.50012 -1.19888) (layer F.SilkS) (width 0.381))
  (fp_line (start 3.50012 -1.19888) (end 3.50012 -1.69926) (layer F.SilkS) (width 0.381))
  (fp_line (start -6.00202 -1.69926) (end -6.00202 2.79908) (layer F.SilkS) (width 0.381))
  (fp_line (start 5.99948 -1.69926) (end 5.99948 2.79908) (layer F.SilkS) (width 0.381))
  (fp_line (start -4.30276 -1.69926) (end -4.30276 -1.89992) (layer F.SilkS) (width 0.381))
  (fp_line (start -4.30276 -1.89992) (end -4.60248 -1.89992) (layer F.SilkS) (width 0.381))
  (fp_line (start -4.60248 -1.89992) (end -4.60248 -1.69926) (layer F.SilkS) (width 0.381))
  (pad 1 thru_hole rect (at -4.00304 0) (size 1.19888 1.69926) (drill 0.70104) (layers *.Cu *.Mask F.SilkS))
  (pad 3 thru_hole oval (at 0 0) (size 1.19888 1.69926) (drill 0.70104) (layers *.Cu *.Mask F.SilkS))
  (pad 2 thru_hole oval (at -2.00152 0) (size 1.19888 1.69926) (drill 0.70104) (layers *.Cu *.Mask F.SilkS))
  (pad 4 thru_hole oval (at 1.99898 0) (size 1.19888 1.69926) (drill 0.70104) (layers *.Cu *.Mask F.SilkS))
  (pad 5 thru_hole oval (at 4.0005 0) (size 1.19888 1.69926) (drill 0.70104) (layers *.Cu *.Mask F.SilkS))
  (model walter/conn_jst-ph/b5b-ph-kl.wrl
    (at (xyz 0 0 0))
    (scale (xyz 1 1 1))
    (rotate (xyz 0 0 0))
  )
)
