(module s16b-ph-kl (layer F.Cu)
  (descr "JST PH series connector, S16B-PH-KL")
  (fp_text reference JP*** (at 0 -2.79908) (layer F.SilkS)
    (effects (font (thickness 0.3048)))
  )
  (fp_text value s16b-ph-kl (at 0 7.80034) (layer F.SilkS)
    (effects (font (thickness 0.3048)))
  )
  (fp_line (start 17.00022 6.2992) (end -17.00022 6.2992) (layer F.SilkS) (width 0.381))
  (fp_line (start -14.50086 1.99898) (end 14.50086 1.99898) (layer F.SilkS) (width 0.381))
  (fp_line (start 17.00022 0.39878) (end -17.00022 0.39878) (layer F.SilkS) (width 0.381))
  (fp_line (start -15.29842 4.09956) (end -15.29842 6.2992) (layer F.SilkS) (width 0.381))
  (fp_line (start -15.29842 6.2992) (end -15.59814 6.2992) (layer F.SilkS) (width 0.381))
  (fp_line (start -15.59814 6.2992) (end -15.59814 4.09956) (layer F.SilkS) (width 0.381))
  (fp_line (start 14.49832 1.99898) (end 14.49832 6.2992) (layer F.SilkS) (width 0.381))
  (fp_line (start -14.49832 1.99898) (end -14.49832 6.2992) (layer F.SilkS) (width 0.381))
  (fp_line (start 15.29588 4.09956) (end 15.29588 2.49936) (layer F.SilkS) (width 0.381))
  (fp_line (start 16.29664 4.09956) (end 15.29588 4.09956) (layer F.SilkS) (width 0.381))
  (fp_line (start 16.29664 2.49936) (end 16.29664 4.09956) (layer F.SilkS) (width 0.381))
  (fp_line (start 15.29588 2.49936) (end 16.29664 2.49936) (layer F.SilkS) (width 0.381))
  (fp_line (start -16.29918 2.49936) (end -15.29842 2.49936) (layer F.SilkS) (width 0.381))
  (fp_line (start -15.29842 2.49936) (end -15.29842 4.09956) (layer F.SilkS) (width 0.381))
  (fp_line (start -15.29842 4.09956) (end -16.29918 4.09956) (layer F.SilkS) (width 0.381))
  (fp_line (start -16.29918 4.09956) (end -16.29918 2.49936) (layer F.SilkS) (width 0.381))
  (fp_line (start 16.79702 -1.39954) (end 16.79702 0.39878) (layer F.SilkS) (width 0.381))
  (fp_line (start -16.79448 -1.39954) (end -16.79448 0.39878) (layer F.SilkS) (width 0.381))
  (fp_line (start 16.99768 6.2992) (end 16.99768 -1.39954) (layer F.SilkS) (width 0.381))
  (fp_line (start 16.99768 -1.39954) (end 16.5989 -1.39954) (layer F.SilkS) (width 0.381))
  (fp_line (start 16.5989 -1.39954) (end 16.5989 0.39878) (layer F.SilkS) (width 0.381))
  (fp_line (start -16.59636 0.39878) (end -16.59636 -1.39954) (layer F.SilkS) (width 0.381))
  (fp_line (start -16.59636 -1.39954) (end -16.99514 -1.39954) (layer F.SilkS) (width 0.381))
  (fp_line (start -16.99514 -1.39954) (end -16.99514 6.2992) (layer F.SilkS) (width 0.381))
  (pad 1 thru_hole rect (at -14.9987 0) (size 1.19888 1.69926) (drill 0.70104) (layers *.Cu *.Mask F.SilkS))
  (pad 2 thru_hole oval (at -12.99972 0) (size 1.19888 1.69926) (drill 0.70104) (layers *.Cu *.Mask F.SilkS))
  (pad 3 thru_hole oval (at -10.9982 0) (size 1.19888 1.69926) (drill 0.70104) (layers *.Cu *.Mask F.SilkS))
  (pad 4 thru_hole oval (at -8.99922 0) (size 1.19888 1.69926) (drill 0.70104) (layers *.Cu *.Mask F.SilkS))
  (pad 5 thru_hole oval (at -6.9977 0) (size 1.19888 1.69926) (drill 0.70104) (layers *.Cu *.Mask F.SilkS))
  (pad 6 thru_hole oval (at -4.99872 0) (size 1.19888 1.69926) (drill 0.70104) (layers *.Cu *.Mask F.SilkS))
  (pad 7 thru_hole oval (at -2.9972 0) (size 1.19888 1.69926) (drill 0.70104) (layers *.Cu *.Mask F.SilkS))
  (pad 8 thru_hole oval (at -0.99822 0) (size 1.19888 1.69926) (drill 0.70104) (layers *.Cu *.Mask F.SilkS))
  (pad 9 thru_hole oval (at 1.0033 0) (size 1.19888 1.69926) (drill 0.70104) (layers *.Cu *.Mask F.SilkS))
  (pad 10 thru_hole oval (at 3.00228 0) (size 1.19888 1.69926) (drill 0.70104) (layers *.Cu *.Mask F.SilkS))
  (pad 11 thru_hole oval (at 5.0038 0) (size 1.19888 1.69926) (drill 0.70104) (layers *.Cu *.Mask F.SilkS))
  (pad 12 thru_hole oval (at 7.00278 0) (size 1.19888 1.69926) (drill 0.70104) (layers *.Cu *.Mask F.SilkS))
  (pad 13 thru_hole oval (at 9.00176 0) (size 1.19888 1.69926) (drill 0.70104) (layers *.Cu *.Mask F.SilkS))
  (pad 14 thru_hole oval (at 11.00074 0) (size 1.19888 1.69926) (drill 0.70104) (layers *.Cu *.Mask F.SilkS))
  (pad 15 thru_hole oval (at 13.00226 0) (size 1.19888 1.69926) (drill 0.70104) (layers *.Cu *.Mask F.SilkS))
  (pad 16 thru_hole oval (at 15.00124 0) (size 1.19888 1.69926) (drill 0.70104) (layers *.Cu *.Mask F.SilkS))
  (model walter/conn_jst-ph/s16b-ph-kl.wrl
    (at (xyz 0 0 0))
    (scale (xyz 1 1 1))
    (rotate (xyz 0 0 0))
  )
)
