(module s2b-ph-sm4-tb (layer F.Cu)
  (descr "JST PH series connector, S2B-PH-SM4-TB")
  (fp_text reference JP*** (at 0 -2.79908) (layer F.SilkS)
    (effects (font (thickness 0.3048)))
  )
  (fp_text value s2b-ph-sm4-tb (at 0 8.8011) (layer F.SilkS)
    (effects (font (thickness 0.3048)))
  )
  (fp_line (start -4.0005 7.00024) (end -4.0005 -0.50038) (layer F.SilkS) (width 0.381))
  (fp_line (start 4.0005 -0.50038) (end 4.0005 7.00024) (layer F.SilkS) (width 0.381))
  (fp_line (start 4.0005 -0.50038) (end 3.59918 -0.50038) (layer F.SilkS) (width 0.381))
  (fp_line (start 3.79984 1.00076) (end 3.79984 -0.50038) (layer F.SilkS) (width 0.381))
  (fp_line (start 3.59918 -0.50038) (end 3.59918 1.00076) (layer F.SilkS) (width 0.381))
  (fp_line (start -3.79984 -0.50038) (end -3.79984 1.00076) (layer F.SilkS) (width 0.381))
  (fp_line (start -3.59918 1.00076) (end -3.59918 -0.50038) (layer F.SilkS) (width 0.381))
  (fp_line (start -3.59918 -0.50038) (end -4.0005 -0.50038) (layer F.SilkS) (width 0.381))
  (fp_line (start -0.50038 7.00024) (end -0.50038 5.99948) (layer F.SilkS) (width 0.381))
  (fp_line (start -0.50038 5.99948) (end 0.50038 5.99948) (layer F.SilkS) (width 0.381))
  (fp_line (start 0.50038 5.99948) (end 0.50038 7.00024) (layer F.SilkS) (width 0.381))
  (fp_line (start -1.99898 1.00076) (end -1.99898 5.4991) (layer F.SilkS) (width 0.381))
  (fp_line (start -1.99898 5.4991) (end -2.70002 5.4991) (layer F.SilkS) (width 0.381))
  (fp_line (start -2.70002 5.4991) (end -2.70002 1.00076) (layer F.SilkS) (width 0.381))
  (fp_line (start 1.99898 1.00076) (end 1.99898 5.4991) (layer F.SilkS) (width 0.381))
  (fp_line (start 1.99898 5.4991) (end 2.70002 5.4991) (layer F.SilkS) (width 0.381))
  (fp_line (start 2.70002 5.4991) (end 2.70002 1.00076) (layer F.SilkS) (width 0.381))
  (fp_line (start -4.0005 7.00024) (end 4.0005 7.00024) (layer F.SilkS) (width 0.381))
  (fp_line (start 4.0005 1.00076) (end -4.0005 1.00076) (layer F.SilkS) (width 0.381))
  (fp_line (start -1.30048 7.00024) (end -1.6002 7.00024) (layer F.SilkS) (width 0.381))
  (pad 1 smd rect (at -1.00076 0) (size 0.99568 3.49758) (layers F.Cu F.Paste F.Mask))
  (pad 2 smd rect (at 1.00076 0) (size 0.99822 3.49758) (layers F.Cu F.Paste F.Mask))
  (pad "" smd rect (at -3.34518 5.74802) (size 1.4986 3.39852) (layers F.Cu F.Paste F.Mask))
  (pad "" smd rect (at 3.34772 5.74802) (size 1.4986 3.39598) (layers F.Cu F.Paste F.Mask))
  (model walter/conn_jst-ph/s2b-ph-sm4-tb.wrl
    (at (xyz 0 0 0))
    (scale (xyz 1 1 1))
    (rotate (xyz 0 0 0))
  )
)
