Version 4
SHEET 1 884 680
WIRE -272 0 -272 -16
WIRE -544 32 -656 32
WIRE -320 32 -544 32
WIRE -656 64 -656 32
WIRE -272 80 -272 0
WIRE -320 128 -528 128
WIRE -528 160 -528 128
WIRE -432 192 -432 176
WIRE -528 256 -528 240
WIRE -688 272 -688 256
FLAG -528 256 0
FLAG -656 144 0
FLAG -432 272 0
FLAG -432 176 H
FLAG -544 32 in
FLAG -688 352 0
FLAG -688 256 B
FLAG -272 0 T
SYMBOL current -656 144 R180
WINDOW 0 24 88 Left 2
WINDOW 3 39 57 Left 2
WINDOW 123 0 0 Left 2
WINDOW 39 0 0 Left 2
SYMATTR InstName I1
SYMATTR Value SINE 0  5m 10k 0 -5000
SYMBOL voltage -528 144 R0
WINDOW 123 0 0 Left 2
WINDOW 39 0 0 Left 2
SYMATTR InstName V1
SYMATTR Value 0
SYMBOL bv -432 176 R0
SYMATTR InstName B1
SYMATTR Value V=i(v1)*{N1}/{Lm}
SYMBOL bv -688 256 R0
SYMATTR InstName B2
SYMATTR Value V=idt(V(T))/{A}
SYMBOL Winding_RC -272 48 R0
SYMATTR SpiceLine N=100
SYMATTR InstName U2
SYMATTR Value2 Rser=1m Cpar=0.001f
SYMBOL ZZZ\\TRANSFORMerAB\\CoreJA -272 -64 R0
WINDOW 3 -88 -50 Left 2
WINDOW 123 -32 -30 Left 2
SYMATTR Value A=2.307K C=1m K=1.096K MS=1.264MEG
SYMATTR Value2 area=0.245e-4   LeN=1.75e-2
SYMATTR InstName lU3
TEXT -720 -144 Left 2 !.params  N1=100
TEXT -944 224 Left 2 !.tran 0 1.5m 0
TEXT -520 -144 Left 2 !.param  A=0.245e-4  Lm=1.75e-2 Lg=0
TEXT -232 48 Left 2 ;MS=240k A=13   C=.18 K=22
TEXT -240 96 Left 2 ;MS=1.38Meg A=22.69   C=2.87m K=2.93m
TEXT -312 160 Left 2 ;*** Core Iron Powder Bs=1600mT Hc=900A/m\n.MODEL 2P90 CORE (A=2.307354237505K C=1.000000000032m K=1.095899215966K\n+ MS=1.264199818515MEG)
