Version 4
SHEET 1 1060 840
WIRE 16 -48 -528 -48
WIRE 32 -48 16 -48
WIRE 192 -48 128 -48
WIRE -528 -16 -528 -48
WIRE 32 0 32 -48
WIRE 80 0 80 -16
WIRE 128 0 128 -48
WIRE 80 48 80 0
WIRE -528 96 -528 64
WIRE -112 160 -176 160
WIRE 16 160 -32 160
WIRE 32 160 32 96
WIRE 32 160 16 160
WIRE 128 160 128 96
WIRE 192 160 128 160
WIRE 336 160 272 160
WIRE -144 256 -144 240
FLAG -528 96 0
FLAG 16 -48 1
FLAG 336 160 0
FLAG 128 -48 3
FLAG -176 160 0
FLAG 16 160 2
FLAG 128 160 4
FLAG -464 336 0
FLAG -464 256 H
FLAG -144 336 0
FLAG -144 240 B
SYMBOL current -528 64 R180
WINDOW 0 16 80 Left 2
WINDOW 3 24 -78 Right 2
WINDOW 123 0 0 Left 2
WINDOW 39 0 0 Left 2
SYMATTR InstName I1
SYMATTR Value SINE(0 {IM} 50k 0 0 90)
SYMBOL voltage -16 160 R90
WINDOW 0 -32 56 VBottom 2
WINDOW 3 32 56 VTop 2
SYMATTR InstName V1
SYMATTR Value 0
SYMBOL voltage 176 160 R270
WINDOW 0 32 56 VTop 2
WINDOW 3 -32 56 VBottom 2
SYMATTR InstName V2
SYMATTR Value 0
SYMBOL bv -464 240 R0
SYMATTR InstName B1
SYMATTR Value V=I(V1)*N/31m
SYMBOL Winding_LCR 80 16 R0
SYMATTR InstName U1
SYMATTR Value2 Lser=10n Rser=1u Cpar=0.1f
SYMBOL Winding_LCR 80 16 M0
WINDOW 123 -228 50 Top 2
SYMATTR Value2 Lser=10n Rser=1u Cpar=0.1f
SYMATTR InstName U2
SYMATTR SpiceLine N=150
SYMBOL bv -144 240 R0
SYMATTR InstName B2
SYMATTR Value V=idt(V(1))/{N}/{A}
SYMBOL Core 80 -48 R0
WINDOW 3 -17 -111 Left 2
WINDOW 123 -26 -61 Left 2
SYMATTR InstName U3
TEXT -464 -176 Left 2 !.tran 0 300u 100u  1u uic
TEXT -464 -144 Left 2 ;.options plotwinsize=0
TEXT -176 -168 Left 2 !.param IM=20
TEXT 16 -184 Left 2 !.step param IM 0.3 3.3 0.5
TEXT -456 -96 Left 2 !.meas Ipmax MAX I(v1)
TEXT -48 296 Left 2 !.param N=1 A=14u
