Version 4
SHEET 1 880 680
WIRE 480 -160 144 -160
WIRE 480 -144 480 -160
WIRE 144 -128 144 -160
WIRE 480 -48 480 -144
WIRE 144 48 144 -48
WIRE 176 48 144 48
WIRE 272 48 256 48
WIRE 480 48 480 32
WIRE 480 48 432 48
WIRE 480 64 480 48
WIRE 272 128 240 128
WIRE 144 176 144 48
WIRE 240 176 240 128
WIRE 240 176 144 176
WIRE 480 176 480 128
WIRE 480 176 240 176
WIRE 144 192 144 176
FLAG 144 192 0
FLAG 480 -144 a
FLAG 480 48 b
SYMBOL TRIACparams 448 64 R0
SYMATTR InstName U1
SYMBOL res 464 -64 R0
SYMATTR InstName R1
SYMATTR Value 20
SYMBOL voltage 144 -144 R0
WINDOW 3 -119 57 Left 2
WINDOW 123 0 0 Left 2
WINDOW 39 0 0 Left 2
SYMATTR Value SINE(0 {230*1.4142} 50)
SYMATTR InstName V1
SYMBOL current 176 48 R270
WINDOW 0 32 40 VTop 2
WINDOW 3 -161 31 VBottom 2
WINDOW 123 0 0 Left 2
WINDOW 39 0 0 Left 2
SYMATTR InstName I1
SYMATTR Value PULSE(0 20m 0.124 1u 1u 250m 500m)
SYMBOL MOC308x 320 64 R0
SYMATTR InstName U2
TEXT -24 248 Left 2 !.tran 0.5
