Version 4
SHEET 1 2140 960
WIRE 272 64 144 64
WIRE 272 96 272 64
WIRE 144 112 144 64
WIRE 176 112 144 112
WIRE 272 128 272 96
WIRE 272 128 240 128
WIRE 128 144 32 144
WIRE 176 144 128 144
WIRE 448 144 448 112
WIRE 448 144 432 144
WIRE 448 160 448 144
WIRE 272 240 144 240
WIRE 272 272 272 240
WIRE 144 288 144 240
WIRE 176 288 144 288
WIRE 272 304 272 272
WIRE 272 304 240 304
WIRE 128 320 32 320
WIRE 176 320 128 320
FLAG 432 144 0
FLAG 448 32 VCC
FLAG 208 96 VCC
FLAG 208 272 VCC
FLAG 448 240 VSS
FLAG 208 160 VSS
FLAG 208 336 VSS
FLAG 32 224 0
FLAG 32 400 0
FLAG 128 144 is
FLAG 128 320 ia
FLAG 272 64 AB
FLAG 272 240 As
FLAG 352 96 0
FLAG 352 272 0
SYMBOL voltage 448 16 R0
WINDOW 123 0 0 Left 2
WINDOW 39 0 0 Left 2
SYMATTR InstName V1
SYMATTR Value 15V
SYMBOL voltage 448 144 R0
WINDOW 123 0 0 Left 2
WINDOW 39 0 0 Left 2
SYMATTR InstName V2
SYMATTR Value 15V
SYMBOL voltage 32 128 R0
WINDOW 3 -49 -48 VRight 2
WINDOW 123 35 70 Left 2
WINDOW 39 0 0 Left 2
SYMATTR Value SINE(0 2 1k)
SYMATTR Value2 AC 1 0
SYMATTR InstName V3
SYMBOL voltage 32 304 R0
WINDOW 3 -48 -37 VRight 2
WINDOW 123 35 70 Left 2
WINDOW 39 0 0 Left 2
SYMATTR Value SINE(0 2 1k)
SYMATTR Value2 AC 1 0
SYMATTR InstName V4
SYMBOL res 368 80 R90
WINDOW 0 0 56 VBottom 2
WINDOW 3 32 56 VTop 2
SYMATTR InstName R1
SYMATTR Value 2k
SYMBOL res 368 256 R90
WINDOW 0 0 56 VBottom 2
WINDOW 3 32 56 VTop 2
SYMATTR InstName R2
SYMATTR Value 2k
SYMBOL LM358As 208 240 R0
SYMATTR InstName U2
SYMBOL SBORKA\\OPamp\\LM358_AB 208 64 R0
SYMATTR InstName U1
TEXT -64 16 Left 2 !.ac dec 99 1 10Meg
TEXT 576 0 Left 2 !.meas ac fas  when abs(V(As)/v(ia,As))=1\n.meas ac fab  when abs(V(Ab)/v(is,AB))=1
TEXT 616 136 Left 4 ;AC.log ==>
TEXT 440 328 Left 2 ;Open loop gain
TEXT 616 192 Left 2 ;fas: abs(v(as)/v(ia,as))=1 AT 476720\nfab: abs(v(ab)/v(is,ab))=1 AT 1.18723e+006
