Version 4
SHEET 1 1200 680
WIRE 400 16 288 16
WIRE 240 64 240 16
WIRE 240 64 144 64
WIRE 272 64 240 64
WIRE 144 112 144 64
WIRE 176 112 144 112
WIRE 272 128 272 64
WIRE 272 128 240 128
WIRE -64 144 -96 144
WIRE -16 144 -64 144
WIRE 64 144 32 144
WIRE 128 144 64 144
WIRE 176 144 128 144
WIRE 448 144 448 112
WIRE 448 144 432 144
WIRE 448 160 448 144
WIRE 64 192 64 144
WIRE -96 224 -96 144
WIRE -48 224 -96 224
WIRE 400 256 400 16
WIRE 400 256 288 256
WIRE -96 272 -96 224
WIRE 240 304 240 256
WIRE 240 304 144 304
WIRE 272 304 240 304
WIRE 144 352 144 304
WIRE 176 352 144 352
WIRE 272 368 272 304
WIRE 272 368 240 368
WIRE -48 384 -48 224
WIRE -16 384 -48 384
WIRE 96 384 32 384
WIRE 128 384 96 384
WIRE 176 384 128 384
WIRE 400 384 400 256
WIRE 96 400 96 384
WIRE 96 464 96 448
FLAG 432 144 0
FLAG 448 32 VCC
FLAG 208 96 VCC
FLAG 208 336 VCC
FLAG 448 240 VSS
FLAG 208 160 VSS
FLAG 208 400 VSS
FLAG 128 144 is
FLAG 128 384 ia
FLAG 272 64 Os
FLAG 272 304 Oa
FLAG 400 384 OUT
FLAG -96 352 0
FLAG -64 144 in
FLAG 96 464 0
FLAG 64 240 0
SYMBOL voltage 448 16 R0
WINDOW 123 0 0 Left 2
WINDOW 39 0 0 Left 2
SYMATTR InstName V1
SYMATTR Value 15V
SYMBOL voltage 448 144 R0
WINDOW 123 0 0 Left 2
WINDOW 39 0 0 Left 2
SYMATTR InstName V2
SYMATTR Value 15V
SYMBOL SWeq -16 144 R0
WINDOW 3 -19 -32 Left 2
WINDOW 123 59 -29 Left 2
SYMATTR Value x={p}
SYMATTR InstName U3
SYMBOL SWeq -16 384 R0
WINDOW 3 -19 -32 Left 2
WINDOW 123 53 -28 Left 2
SYMATTR Value x={p}
SYMATTR Value2 y=2
SYMATTR InstName U4
SYMBOL SWeq 240 16 R0
WINDOW 3 -19 -32 Left 2
WINDOW 123 61 -31 Left 2
SYMATTR Value x={p}
SYMATTR InstName U5
SYMBOL SWeq 240 256 R0
WINDOW 3 -19 -32 Left 2
WINDOW 123 64 -31 Left 2
SYMATTR Value x={p}
SYMATTR Value2 y=2
SYMATTR InstName U6
SYMBOL voltage -96 256 R0
WINDOW 123 0 0 Left 2
WINDOW 39 -33 149 Left 2
SYMATTR SpiceLine Rser=100
SYMATTR InstName V3
SYMATTR Value 0
SYMBOL LM358_AB 208 64 R0
SYMATTR InstName U1
SYMBOL LM358As 208 304 R0
SYMATTR InstName U2
SYMBOL SWeq 64 192 R90
SYMATTR Value x={p}
SYMATTR Value2 y=2
SYMATTR InstName U7
SYMBOL SWeq 96 400 R90
SYMATTR Value x={p}
SYMATTR InstName U8
TEXT -80 -56 Left 2 !.noise v(OUT) V3 oct 10 1 100k
TEXT -128 56 Left 2 !.step param p list 1 2
TEXT -112 8 Left 2 ;.nodeset v(os)=0  V(oa)=0
TEXT 288 104 Left 2 ;Green
TEXT 296 336 Left 2 ;Blue
