Version 4
SHEET 1 1640 928
WIRE 272 64 144 64
WIRE 352 64 336 64
WIRE 352 96 352 64
WIRE 144 112 144 64
WIRE 176 112 144 112
WIRE 272 128 272 64
WIRE 272 128 240 128
WIRE 96 144 32 144
WIRE 128 144 96 144
WIRE 176 144 128 144
WIRE 448 144 448 112
WIRE 448 144 432 144
WIRE 272 240 144 240
WIRE 288 240 272 240
WIRE 352 272 352 240
WIRE 144 288 144 240
WIRE 176 288 144 288
WIRE 272 304 272 240
WIRE 272 304 240 304
WIRE 96 320 96 144
WIRE 176 320 96 320
FLAG 432 144 0
FLAG 448 32 VCC
FLAG 208 96 VCC
FLAG 208 272 VCC
FLAG 32 224 0
FLAG 272 64 Os
FLAG 272 240 Oa
FLAG 352 96 0
FLAG 352 272 0
FLAG 208 160 0
FLAG 208 336 0
FLAG 128 144 in
SYMBOL voltage 448 16 R0
WINDOW 123 0 0 Left 2
WINDOW 39 0 0 Left 2
SYMATTR InstName V1
SYMATTR Value PWL(0 0 100n 12)
SYMBOL voltage 32 128 R0
WINDOW 3 9 54 Right 2
WINDOW 123 35 70 Left 2
WINDOW 39 0 0 Left 2
SYMATTR Value 5
SYMATTR InstName V3
SYMBOL cap 336 48 R90
WINDOW 0 0 32 VBottom 2
WINDOW 3 32 32 VTop 2
SYMATTR InstName C1
SYMATTR Value {CL}
SYMBOL cap 352 224 R90
WINDOW 0 0 32 VBottom 2
WINDOW 3 32 32 VTop 2
SYMATTR InstName C2
SYMATTR Value {CL}
SYMBOL LM358_AB 208 64 R0
SYMATTR InstName U1
SYMBOL LM358As 208 240 R0
SYMATTR InstName U2
TEXT -24 24 Left 2 !.tran 0 3m 20u .1u uic
TEXT 368 200 Left 2 !.opt plotwinsize=0
TEXT 368 240 Left 2 !.step param CL list  300p 1n 10n 100n
