Version 4
SHEET 1 1512 1940
WIRE -1456 896 -1568 896
WIRE -1168 896 -1296 896
WIRE -976 896 -1088 896
WIRE -752 896 -880 896
WIRE -336 896 -464 896
WIRE -1376 944 -1408 944
WIRE -1344 944 -1376 944
WIRE -544 944 -576 944
WIRE -512 944 -544 944
WIRE -1456 992 -1568 992
WIRE -1168 992 -1296 992
WIRE -976 992 -1088 992
WIRE -752 992 -880 992
WIRE -336 992 -464 992
WIRE -1456 1232 -1568 1232
WIRE -1168 1232 -1296 1232
WIRE -976 1232 -1088 1232
WIRE -688 1232 -816 1232
WIRE -1376 1280 -1408 1280
WIRE -1344 1280 -1376 1280
WIRE -896 1280 -928 1280
WIRE -864 1280 -896 1280
WIRE -1456 1328 -1568 1328
WIRE -1168 1328 -1296 1328
WIRE -976 1328 -1088 1328
WIRE -688 1328 -816 1328
WIRE -704 1568 -816 1568
WIRE -480 1568 -608 1568
WIRE -1280 1600 -1392 1600
WIRE -1056 1600 -1184 1600
WIRE -704 1664 -816 1664
WIRE -480 1664 -608 1664
WIRE -1280 1696 -1392 1696
WIRE -1056 1696 -1184 1696
FLAG -1168 832 0
SYMBOL ZZZ\\TRANSFORMerAB\\Winding_RC -1408 912 R0
SYMATTR InstName U1
SYMBOL ZZZ\\TRANSFORMerAB\\Winding_RC -1344 912 M0
SYMATTR SpiceLine N=33
SYMATTR InstName U2
SYMBOL ZZZ\\TRANSFORMerAB\\CoreLin_AL -1376 896 R0
WINDOW 38 -16 -58 Left 2
WINDOW 123 -15 -31 Left 2
SYMATTR Value2 Al=520n
SYMATTR InstName U3
SYMATTR SpiceLine2 Fe=100Meg
SYMBOL ZZZ\\TRANSFORMerAB\\Winding_RC -928 912 R0
WINDOW 38 -90 91 Top 2
SYMATTR InstName U4
SYMBOL ZZZ\\TRANSFORMerAB\\Winding_RC -928 912 M0
SYMATTR SpiceLine N=33
SYMATTR InstName U5
SYMBOL ZZZ\\TRANSFORMerAB\\CoreLin_AL -928 896 R0
WINDOW 38 -16 -58 Left 2
WINDOW 123 -15 -31 Left 2
SYMATTR Value2 Al=520n
SYMATTR InstName U6
SYMATTR SpiceLine2 Fe=100Meg
SYMBOL ZZZ\\TRANSFORMerAB\\Winding_RC -1408 1248 R0
SYMATTR InstName U7
SYMBOL ZZZ\\TRANSFORMerAB\\Winding_RC -1344 1248 M0
SYMATTR SpiceLine N=33
SYMATTR InstName U8
SYMBOL ZZZ\\TRANSFORMerAB\\Core -1376 1232 R0
WINDOW 38 -8 -91 Left 2
WINDOW 123 -66 -34 Left 2
WINDOW 3 -76 -61 Left 2
SYMATTR Value2 A=20u Lm=38m Lg=0
SYMATTR Value Hc=24 Bs=275m Br=120m
SYMATTR InstName U9
SYMBOL ZZZ\\TRANSFORMerAB\\Winding_RC -576 912 R0
SYMATTR InstName U10
SYMBOL ZZZ\\TRANSFORMerAB\\Winding_RC -512 912 M0
SYMATTR SpiceLine N=33
SYMATTR InstName U11
SYMBOL ZZZ\\TRANSFORMerAB\\coreLin_A_Lm -544 896 R0
WINDOW 38 -34 -100 Left 2
WINDOW 123 -65 -55 Left 2
SYMATTR Value2 A=20u Lm=38m Lg=0 mU=800
SYMATTR SpiceLine2 Fe=100Meg
SYMATTR InstName U12
SYMBOL ZZZ\\TRANSFORMerAB\\Winding_RC -928 1248 R0
SYMATTR InstName U13
SYMBOL ZZZ\\TRANSFORMerAB\\Winding_RC -864 1248 M0
SYMATTR SpiceLine N=33
SYMATTR InstName U14
SYMBOL ZZZ\\TRANSFORMerAB\\CoreJA -896 1232 R0
WINDOW 38 -1 -91 Left 2
WINDOW 3 -43 -64 Left 2
WINDOW 123 -24 -40 Left 2
SYMATTR Value MS=240k A=18   C=.18 K=27.5
SYMATTR Value2 area=20u  LeN=38m
SYMATTR InstName U15
SYMBOL ZZZ\\TRANSFORMerAB\\CoreLin_AL -1232 1600 R0
WINDOW 38 -16 -58 Left 2
WINDOW 123 -15 -31 Left 2
SYMATTR Value2 Al=520n
SYMATTR InstName U18
SYMATTR SpiceLine2 Fe=100Meg
SYMBOL ZZZ\\TRANSFORMerAB\\Winding_LCR -1232 1616 R0
WINDOW 123 -222 63 VBottom 2
WINDOW 38 -91 87 Top 2
SYMATTR Value2 Lser={520n*(1-0.98)} Rser=1m Cpar=.1p
SYMATTR InstName U16
SYMBOL ZZZ\\TRANSFORMerAB\\Winding_LCR -1232 1616 M0
WINDOW 123 -207 21 VBottom 2
WINDOW 38 -91 87 Top 2
SYMATTR Value2 Lser={520n*(1-0.98)*33**2} Rser=10m Cpar=1p
SYMATTR InstName U17
SYMBOL ZZZ\\TRANSFORMerAB\\Winding_LCR -656 1584 R0
WINDOW 123 -194 41 VBottom 2
WINDOW 38 -91 87 Top 2
SYMATTR Value2 Lser=10nH Rser=1m Cpar=.1p
SYMATTR InstName U20
SYMBOL ZZZ\\TRANSFORMerAB\\Winding_LCR -656 1584 M0
WINDOW 123 -220 48 VBottom 2
WINDOW 38 -91 87 Top 2
SYMATTR Value2 Lser=11u Rser=10m Cpar=1p
SYMATTR InstName U21
SYMBOL ZZZ\\TRANSFORMerAB\\Core -656 1568 R0
WINDOW 38 -8 -91 Left 2
WINDOW 123 -66 -34 Left 2
WINDOW 3 -76 -61 Left 2
SYMATTR Value2 A=20u Lm=38m Lg=0
SYMATTR Value Hc=24 Bs=275m Br=120m
SYMATTR InstName U19
TEXT -1416 752 Left 2 ;T2 core\n \n5943004901
TEXT -936 752 Left 2 ;T2 core\n \n5943004901
TEXT -1136 944 Left 5 ;~
TEXT -576 712 Left 2 ;T2 core 43 19x9.6x6.35\n \n5943004901
TEXT -1216 792 Left 2 !.opt gshunt=1n
TEXT -1584 760 Left 2 !.op
TEXT -1232 704 Left 4 ;linear transformer model
TEXT -1304 1112 Left 4 ;nonlinear transformer model
TEXT -1512 696 Left 5 ;K=1
TEXT -1240 1456 Left 2 ;T2 core\n \n5943004901
TEXT -1424 1424 Left 5 ;K=0.98
TEXT -648 1240 Left 2 ;.MODEL 3D3 CORE MS=326.91E3  A=89.259   C=.24007 K=114.55
TEXT -648 1272 Left 2 ;.MODEL 4A11 CORE MS=265.10E3 A=42.940   C=.12761 K=35.713
TEXT -1392 1752 Left 2 ;Ls1=10.4nH
TEXT -1208 1752 Left 2 ;Ls1=11325.6nH
TEXT -544 1168 Left 4 ;43
RECTANGLE Normal -272 656 -1600 1360 2
