Version 4
SHEET 1 1440 768
WIRE 240 -160 160 -160
WIRE 160 -144 160 -160
WIRE 240 -112 240 -160
WIRE 240 -16 240 -32
WIRE 336 -16 240 -16
WIRE 240 16 240 -16
WIRE -144 96 -208 96
WIRE -48 96 -144 96
WIRE 160 96 32 96
WIRE 192 96 160 96
WIRE -208 112 -208 96
WIRE 240 160 240 112
WIRE -208 208 -208 192
FLAG -208 208 0
FLAG 240 160 0
FLAG 160 -64 0
FLAG 160 96 G
FLAG 336 -16 OUT
FLAG -144 96 in
SYMBOL voltage -208 96 R0
WINDOW 3 14 111 Left 2
WINDOW 123 0 0 Left 2
WINDOW 39 34 50 Left 2
SYMATTR Value PULSE(15 0 2u 20n 20n 2u 4u)
SYMATTR InstName V1
SYMBOL Misc\\nigbt 192 16 R0
SYMATTR InstName q
SYMATTR Value IXGT40N60C2
SYMBOL voltage 160 -160 R0
WINDOW 123 0 0 Left 2
WINDOW 39 0 0 Left 2
SYMATTR InstName V2
SYMATTR Value 500
SYMBOL res 224 -128 R0
SYMATTR InstName R1
SYMATTR Value 20
SYMBOL res 48 80 R90
WINDOW 0 0 56 VBottom 2
WINDOW 3 32 56 VTop 2
SYMATTR InstName R2
SYMATTR Value 5
TEXT -208 -56 Left 2 !.tran 0 5u 0 100n uic
TEXT 184 200 Left 2 !.MODEL IXGT40N60C2 NIGBT\n+ TAU=50.100E-9\n+ KP=14.128\n+ AREA=37.500E-6\n+ AGD=15.000E-6\n+ VT=4.2961\n+ MUN=15.550E3\n+ MUP=100\n+ BVF=4.5000\n+ KF=.5005\n+ CGS=10.121E-9\n+ COXD=20.188E-9\n+ VTD=-5
TEXT -312 528 Left 2 !.opt vntol=1m abstol=10n method=gear
TEXT -328 456 Left 2 !.meas Von MIN V(OUT) FROM 1u TO 2u
TEXT -312 600 Left 3 ;Measurement: von\n  step          MIN(v(out))     FROM            TO\n     1          1.72071         1e-006          2e-006\n     2          1.96536         1e-006          2e-006\n     3          2.47921         1e-006          2e-006
TEXT -152 320 Left 2 ;.opt Gshunt=1n
TEXT -168 8 Left 2 !.temp -40 25 150
