22031.5
25185.0
25705.0
25423.5
27492.5
24450.0
24013.0
4823.0
9743.0
9642.0
7883.0
1654.0
1531.0
2893.5
21732.0
23940.5
21755.0
22227.0
20501.5
19694.0
19102.0
25329.5
20403.0
1670.0
1739.5
1367.5
1539.5
2512.5
1249.5
1410.0
3458.5
27795.0
23581.5
23162.0
12231.5
12231.5
23869.5
23869.5
29152.0
29152.0
29632.0
29632.0
29019.5
29019.5
27828.0
27828.0
26279.5
26279.5
27274.5
27274.5
32410.0
32410.0
31584.0
31584.0
28808.0
28808.0
28990.0
28990.0
24707.0
24707.0
24145.0
24145.0
25529.5
25529.5
24903.5
24903.5
24909.0
24909.0
24938.5
24938.5
25797.0
25797.0
25500.5
25500.5
25325.5
25325.5
25441.0
25261.5
25261.5
25234.0
25234.0
25182.0
25246.5
25246.5
25187.5
25187.5
25356.5
25356.5
25031.0
25031.0
25658.5
25658.5
27923.5
27923.5
30556.0
30556.0
29271.5
29271.5
27922.0
27922.0
26765.5
26765.5
24817.0
24817.0
24817.0
23474.5
21449.5
21449.5
25713.0
25713.0
22079.5
22079.5
21918.0
21918.0
17949.0
17949.0
17676.0
17676.0
17458.5
17458.5
17464.5
17464.5
16504.0
16504.0
16866.0
16866.0
17100.5
17100.5
17181.0
17181.0
17369.0
17369.0
20169.5
20169.5
20403.5
20403.5
28350.0
28350.0
17560.5
17560.5
17560.5
20095.5
20095.5
19136.5
19136.5
19402.5
19402.5
19848.0
19848.0
19927.0
19927.0
20169.0
20169.0
20081.5
20081.5
20117.0
20117.0
20001.0
20001.0
20092.0
20092.0
20092.0
20386.0
20386.0
20377.0
20377.0
20728.5
20728.5
20972.0
20972.0
21229.0
21229.0
21069.0
21069.0
19981.5
19981.5
19882.5
19882.5
20383.5
20383.5
19884.5
19884.5
20735.5
20735.5
17751.0
17751.0
18304.0
18304.0
16378.5
16378.5
18653.5
18653.5
22435.0
22435.0
21976.5
21976.5
21922.0
21922.0
21745.5
21745.5
22218.0
22218.0
22353.5
22353.5
21297.0
21297.0
25743.0
25743.0
37593.0
37593.0
30911.5
30911.5
31281.0
31281.0
30916.5
30916.5
30916.5
29144.5
29144.5
29144.5
27621.5
27621.5
28030.0
28030.0
28984.5
28984.5
35212.5
35212.5
36254.5
36254.5
38248.0
38248.0
39616.5
39616.5
39616.5
40464.5
40464.5
38689.0
38689.0
38837.0
38837.0
39276.5
39276.5
38743.0
38743.0
39088.0
39088.0
39391.0
39391.0
39391.0
35517.5
35517.5
35201.5
35201.5
30733.5
30733.5
42954.5
42954.5
47591.5
47591.5
61516.5
61516.5
59755.5
59123.0
59123.0
59357.5
59357.5
59763.0
59763.0
58417.5
58417.5
50588.0
50588.0
50835.5
50835.5
50835.5
52324.0
52324.0
50565.5
50565.5
50565.5
48461.5
48676.5
48676.5
49229.5
49229.5
49482.5
49482.5
49482.5
48658.0
48658.0
47276.0
47276.0
49089.5
49089.5
49245.0
49245.0
50784.0
50784.0
39855.0
39855.0
35699.0
36909.0
36909.0
36873.0
36873.0
36873.0
35840.5
35840.5
34571.0
34571.0
31666.5
31666.5
30475.0
30475.0
35073.5
35073.5
27820.0
27820.0
35296.5
35296.5
17867.5
17867.5
34022.0
34022.0
34804.0
34804.0
34804.0
34535.5
34066.5
34066.5
34066.5
7235.0
7235.0
23964.5
23964.5
24779.5
24779.5
25290.0
25290.0
25683.0
25683.0
5645.5
5645.5
7113.0
7113.0
26107.0
26107.0
25608.5
25329.0
25329.0
25205.5
25205.5
25205.5
25297.5
25297.5
25924.0
25924.0
10966.5
10966.5
10813.5
10813.5
26793.5
26793.5
25870.0
25870.0
25670.0
25670.0
25728.5
25728.5
25770.5
25770.5
25818.5
25818.5
26712.5
26712.5
28003.0
28003.0
30001.0
30001.0
31865.5
31865.5
39562.5
39562.5
48087.5
48087.5
45765.5
45765.5
44703.5
44703.5
32011.5
32011.5
30355.5
30355.5
30181.0
30181.0
32376.0
31444.5
31444.5
26117.0
26117.0
23136.5
23136.5
23136.5
22850.0
22850.0
24362.5
24362.5
25086.5
25086.5
23989.5
23989.5
23389.0
23389.0
23339.5
23339.5
24921.0
24921.0
25437.0
25437.0
24958.5
24958.5
24571.5
24571.5
25560.0
25560.0
26945.0
26945.0
25723.0
25723.0
24674.0
24674.0
23235.5
23235.5
23916.0
23916.0
23916.0
24715.5
24715.5
27093.0
27093.0
27093.0
23690.5
23690.5
24210.5
24210.5
25347.0
25347.0
27537.5
27537.5
27352.5
27352.5
23718.0
23718.0
23473.5
23473.5
23918.5
23918.5
24772.5
24772.5
24894.5
24894.5
25064.0
25064.0
25743.5
25743.5
27046.5
27046.5
28530.5
28530.5
49033.0
49033.0
51029.0
51029.0
54330.5
54330.5
48982.5
48982.5
45352.0
45352.0
44578.5
44578.5
44578.5
44604.0
45258.5
45258.5
45320.5
45320.5
36881.0
36881.0
36271.5
36271.5
35164.5
35164.5
33726.0
33726.0
33634.5
33634.5
35488.5
35488.5
35126.0
35126.0
36026.0
36026.0
30907.0
30907.0
26958.0
26958.0
24031.5
24031.5
23467.5
23467.5
24834.5
24834.5
26885.5
26885.5
26018.5
26018.5
25843.5
25843.5
24766.5
24766.5
22842.0
22842.0
26647.5
26647.5
31474.0
31474.0
31474.0
35719.0
39781.0
39781.0
40188.5
40188.5
41009.0
46264.0
46264.0
45944.0
45944.0
45944.0
45718.5
45718.5
45266.5
45266.5
43438.0
43438.0
37420.0
37420.0
34489.0
34489.0
34489.0
34489.0
40313.5
40313.5
40313.5
40313.5
40668.5
40668.5
40668.5
40668.5
41301.0
41301.0
41301.0
41301.0
40851.0
40851.0
40851.0
40851.0
41535.0
41535.0
41726.0
41726.0
41726.0
41726.0
40292.5
40292.5
40292.5
40292.5
28115.5
28115.5
28115.5
28115.5
35683.0
35683.0
42141.5
42141.5
42214.0
42214.0
39947.0
39947.0
39663.0
39663.0
39664.0
39664.0
39280.5
39280.5
37388.0
37388.0
37388.0
36834.0
36834.0
36457.5
36008.0
36008.0
31689.0
31689.0
26693.0
26693.0
25311.5
25311.5
23643.5
23643.5
22924.5
22924.5
23523.5
23523.5
23449.0
23449.0
22733.0
22733.0
23200.5
23200.5
26375.0
26375.0
26840.0
26840.0
39827.0
39827.0
41923.0
41923.0
43918.0
43918.0
43918.0
49949.5
49949.5
49477.5
49477.5
49477.5
49751.5
49751.5
33852.0
33852.0
25225.0
25225.0
31480.5
31480.5
31654.0
31654.0
33325.5
33325.5
33254.5
33254.5
32110.0
19747.5
19747.5
34416.5
34416.5
34451.0
34451.0
33778.5
33778.5
31341.5
31341.5
30122.5
30122.5
34159.0
34159.0
34159.0
29196.0
29196.0
32233.5
32233.5
33204.0
33204.0
35342.0
35342.0
28529.5
28529.5
27595.5
27595.5
45676.5
45676.5
42896.5
42896.5
42896.5
42427.5
42427.5
33495.0
33495.0
33231.0
33231.0
39544.0
39544.0
39544.0
37729.0
37729.0
31230.0
31230.0
24043.5
24043.5
37211.0
37211.0
38002.5
38002.5
35615.5
35615.5
29343.5
29343.5
25928.0
25928.0
33551.5
33551.5
30635.0
30635.0
30635.0
31438.5
31438.5
2470.0
2470.0
34557.0
34557.0
34752.5
34752.5
33850.5
33850.5
31818.0
31818.0
29120.5
29120.5
20451.5
20451.5
29348.0
29348.0
29972.5
29972.5
31119.5
31119.5
30785.5
30785.5
30548.5
30548.5
23686.5
23686.5
23686.5
12800.0
12800.0
17535.0
17535.0
15362.0
15362.0
15362.0
18377.5
18377.5
30363.0
30363.0
18395.5
18395.5
1278.5
1278.5
48720.0
46178.5
46178.5
30556.5
30556.5
29823.5
29823.5
27191.0
27191.0
25283.5
25283.5
23632.5
23632.5
22243.0
22243.0
20871.0
20871.0
20346.5
20346.5
19012.5
19012.5
18759.0
18759.0
18335.0
18335.0
18768.5
18768.5
18130.0
18130.0
18130.0
17789.0
19119.5
19119.5
19779.5
19779.5
21035.5
21035.5
21035.5
22035.5
22035.5
24692.0
24692.0
25536.0
25536.0
25610.0
25610.0
25778.5
25778.5
26036.0
26036.0
25843.0
25843.0
26309.0
26309.0
26473.5
26473.5
26473.5
27115.0
27115.0
27063.0
27063.0
26588.0
26588.0
26249.5
26249.5
27063.5
27063.5
26899.0
26899.0
26899.0
25738.0
25738.0
24822.0
24822.0
24138.5
24138.5
23932.0
23932.0
23845.0
23845.0
23035.5
23035.5
23372.0
23372.0
23018.0
23018.0
21725.5
21725.5
22755.5
22755.5
22755.5
23394.0
23394.0
22998.0
22998.0
21668.5
21668.5
22638.5
22638.5
21941.0
21941.0
21938.5
21938.5
21800.0
21800.0
21674.5
21674.5
21755.0
21755.0
22751.0
22751.0
22977.5
22977.5
22819.0
22819.0
22849.0
22849.0
22720.0
22720.0
22665.5
22665.5
22754.5
22754.5
22837.5
22837.5
22893.5
22893.5
22874.0
22874.0
22742.0
22742.0
22772.0
22772.0
22560.0
22560.0
22560.0
21671.5
21749.0
21749.0
22977.5
22977.5
40311.0
40311.0
33206.5
33206.5
33803.0
33803.0
32218.5
32218.5
31040.5
31040.5
31058.0
31058.0
31361.5
31361.5
35651.0
35651.0
1048.5
1048.5
1048.5
34180.0
34180.0
1006.0
1006.0
1006.0
38836.0
38836.0
1831.0
1831.0
39342.0
39342.0
40164.0
40164.0
48575.0
48575.0
35233.5
35233.5
47253.0
47253.0
47253.0
32482.0
32482.0
41988.0
41988.0
44344.5
44344.5
46473.5
46473.5
50201.0
50201.0
52364.0
52364.0
48817.0
48817.0
48817.0
48460.0
48460.0
48057.5
48123.0
48123.0
48527.5
48527.5
48940.5
48940.5
48917.5
48917.5
48866.5
48866.5
48459.0
48459.0
48286.0
48286.0
47942.5
47942.5
47186.0
47186.0
47030.5
47030.5
46233.5
46233.5
45569.5
45569.5
47188.0
47188.0
47565.0
47565.0
47012.5
47012.5
46272.0
46272.0
45691.0
45691.0
45729.0
45729.0
46125.5
46125.5
46394.5
46394.5
46608.5
46608.5
46608.5
46700.5
45901.5
45901.5
45901.5
45791.0
45929.5
45929.5
46364.0
46364.0
46407.0
46407.0
45849.5
45849.5
45595.0
45595.0
45587.0
45587.0
45722.5
45722.5
46136.5
46136.5
45075.5
45075.5
45004.5
45004.5
45570.5
45570.5
46314.0
46314.0
46286.5
46286.5
46962.0
46962.0
46264.0
46264.0
45940.5
45940.5
45844.0
45844.0
45462.0
45462.0
45684.5
45684.5
46103.0
45888.0
45888.0
46318.5
46318.5
46704.5
46956.0
46956.0
48017.5
48017.5
46766.0
46766.0
46468.5
46468.5
46646.5
46646.5
46769.5
46769.5
46839.5
46839.5
46683.0
46683.0
46449.5
46449.5
46074.0
46074.0
45983.0
45983.0
46167.5
46167.5
46170.5
46170.5
46014.5
46014.5
45986.0
45986.0
45983.5
45983.5
45903.5
45903.5
45931.0
45764.5
45764.5
45868.0
45868.0
45644.0
45644.0
45644.0
45710.5
45710.5
45666.5
45666.5
45703.0
45703.0
45817.0
45717.5
45717.5
45717.5
45878.0
45878.0
45821.5
45821.5
45682.5
45682.5
44916.5
44916.5
44682.0
44682.0
44226.0
39350.5
39350.5
38289.5
38289.5
38239.5
38239.5
39052.0
39052.0
40475.5
40475.5
40006.5
40006.5
40992.0
40992.0
41674.0
41674.0
41638.5
41638.5
41061.0
41061.0
41750.5
41750.5
47256.0
47256.0
55980.5
55980.5
56729.5
56729.5
50156.0
50156.0
42668.0
42668.0
42201.5
42201.5
40729.5
40729.5
39720.5
39720.5
35009.5
35009.5
34223.5
34223.5
33231.5
33231.5
32336.0
32336.0
32336.0
33066.0
33066.0
34444.0
34444.0
34557.5
34557.5
34301.5
34301.5
34107.5
34107.5
31868.0
31868.0
32307.5
32307.5
34139.5
34139.5
29398.5
29398.5
27851.5
27851.5
36962.5
36962.5
37063.0
37063.0
37081.5
37081.5
41923.0
41923.0
40872.5
40872.5
40391.5
40391.5
40415.0
40415.0
40916.5
40916.5
42994.5
22009.0
22009.0
27336.5
27336.5
27092.0
27092.0
22945.5
22945.5
19196.5
19196.5
19196.5
19533.5
19533.5
18292.5
18292.5
19061.0
19061.0
23547.5
23547.5
20669.5
20669.5
25061.5
25061.5
40497.5
40497.5
36640.5
36640.5
36812.5
36812.5
36313.5
36313.5
36860.0
36860.0
37043.5
37043.5
37796.5
37796.5
40819.0
40819.0
27782.5
27782.5
26191.0
26191.0
22471.5
22471.5
28225.0
28225.0
26015.5
26015.5
25649.5
25778.5
25778.5
25731.0
25731.0
25614.0
25614.0
25738.0
25738.0
24697.0
24697.0
24983.0
24983.0
24766.5
24766.5
21166.5
21166.5
21741.5
21741.5
15249.5
15249.5
22110.0
22110.0
22110.0
19375.0
19375.0
19222.5
19222.5
19237.5
19237.5
19107.5
19107.5
19355.0
19355.0
19500.5
19500.5
15859.0
12356.5
12356.5
13351.0
13351.0
13351.0
13439.5
13439.5
17475.5
17475.5
13555.5
13555.5
13044.5
13044.5
13498.0
13498.0
14378.5
14378.5
13418.0
13418.0
14825.0
14825.0
15674.0
15674.0
16659.5
16659.5
14935.0
14935.0
13907.0
13907.0
14858.5
14858.5
13940.0
13940.0
13300.5
13300.5
13160.5
13160.5
13136.5
13136.5
13294.5
13294.5
13294.5
13259.0
13015.5
13015.5
13142.5
13142.5
13340.0
13340.0
13132.0
13132.0
13132.0
13078.0
13078.0
13726.0
13726.0
13354.0
13354.0
13354.0
15021.0
15021.0
15845.0
15845.0
20218.0
20218.0
29207.5
29207.5
32926.5
32926.5
34847.5
34847.5
34782.0
34782.0
34562.5
34562.5
34562.5
33986.5
33986.5
33400.0
33400.0
32688.0
32688.0
30587.0
30587.0
30587.0
29772.5
29772.5
29303.5
29303.5
29325.0
29325.0
29431.0
29431.0
29669.5
29669.5
29479.5
29479.5
29498.5
29498.5
29556.0
29556.0
29540.5
29540.5
29796.5
29796.5
29781.0
29781.0
29854.5
29854.5
29854.5
29854.0
29854.0
29720.5
29720.5
29619.5
29619.5
29619.5
29697.5
29697.5
29675.0
29675.0
29839.5
29839.5
29526.0
29526.0
29489.5
29489.5
29599.0
29599.0
29359.0
29359.0
29108.5
29108.5
28556.5
28556.5
28583.5
28574.5
28574.5
28823.0
28823.0
28823.0
28799.5
28799.5
28799.5
29025.5
29025.5
30560.5
30560.5
25586.5
25586.5
25642.5
25642.5
26416.0
26416.0
26677.0
26677.0
24933.5
24933.5
25234.5
25234.5
25431.5
25431.5
23710.0
23710.0
22333.0
22333.0
27094.0
27094.0
27126.0
27126.0
27150.5
27150.5
27186.5
27186.5
27343.0
27343.0
27256.0
27256.0
27032.0
27032.0
27032.0
26787.0
26207.0
26207.0
24845.0
24845.0
24494.5
24494.5
24494.5
24734.5
24734.5
24734.5
24879.0
24879.0
24949.5
24949.5
24907.0
24907.0
25064.0
25064.0
25190.5
25190.5
25298.5
25298.5
25615.0
25615.0
26236.5
26236.5
26321.0
26321.0
26232.0
26232.0
26072.0
26072.0
26216.0
26216.0
26382.0
26382.0
26387.0
26387.0
26393.0
26393.0
26311.0
26642.0
26642.0
26522.0
26522.0
26559.0
26559.0
26559.0
26855.0
27111.0
27111.0
27005.0
27005.0
26932.5
26932.5
26858.0
26858.0
26941.5
26941.5
27005.0
27005.0
27051.0
27051.0
27368.5
27368.5
27368.5
27394.0
27394.0
27087.5
27087.5
27087.5
26861.0
26861.0
26466.5
26466.5
26226.0
26226.0
26232.0
26232.0
25447.0
25447.0
24715.5
24715.5
24715.5
23725.5
23725.5
23439.0
23439.0
23555.5
23555.5
23581.0
23581.0
23545.0
23545.0
23321.0
23321.0
23231.5
23231.5
23080.5
23080.5
23225.5
23225.5
23567.5
23567.5
23817.0
23817.0
24611.5
24611.5
24567.0
24567.0
24258.0
24258.0
24326.0
24326.0
22881.5
22881.5
21510.5
24869.0
24869.0
24492.0
24492.0
23985.0
23985.0
23920.0
23920.0
23866.0
23866.0
23915.5
23915.5
24096.5
24096.5
23931.5
23931.5
23924.0
23924.0
24000.5
24000.5
24188.0
24188.0
24017.0
24017.0
24056.0
24056.0
24077.5
24077.5
24077.5
24051.5
24051.5
23981.5
23981.5
23966.5
23966.5
23913.5
23913.5
24020.5
24020.5
24041.5
24041.5
23977.5
23977.5
24244.5
24244.5
24195.0
24195.0
23401.0
23401.0
24859.0
24859.0
24874.0
24806.0
24806.0
24977.0
24977.0
25157.5
25157.5
24999.5
24999.5
25210.0
25210.0
25261.5
25261.5
25235.5
25235.5
25285.5
25285.5
25285.5
25231.0
25231.0
25221.0
25221.0
25250.5
25250.5
25259.0
25259.0
25231.0
25231.0
25267.5
25267.5
25403.5
25403.5
25370.5
25370.5
25346.0
25346.0
25436.5
25436.5
25367.5
25367.5
25333.0
25333.0
25304.0
25304.0
25358.5
25358.5
25281.0
25281.0
25387.5
25387.5
25345.0
25345.0
25410.5
25410.5
24826.0
24826.0
24826.0
24792.5
24792.5
24714.0
24714.0
24493.0
24493.0
24493.0
24893.5
24893.5
25380.0
25380.0
24818.0
24818.0
25670.0
25670.0
25959.5
25673.0
25673.0
25673.0
25750.5
25750.5
25503.0
25503.0
25599.0
25599.0
25553.5
25553.5
25500.0
25500.0
25679.0
25679.0
25715.0
25715.0
25582.0
25582.0
25602.0
25602.0
25636.0
25636.0
25579.0
25579.0
25445.0
25445.0
25164.0
25164.0
25028.5
25028.5
24971.0
24971.0
24956.0
24956.0
24925.5
24925.5
25000.5
25000.5
24916.5
24916.5
25057.0
25057.0
25057.0
25183.0
25183.0
25319.5
25319.5
25458.5
25685.5
25685.5
25966.0
25966.0
25826.5
25826.5
25826.5
25729.0
25729.0
25738.5
25738.5
25657.0
25657.0
25492.5
25492.5
25698.0
25698.0
25574.5
25574.5
25586.0
25586.0
25562.5
25562.5
25767.5
25767.5
25809.5
25809.5
25920.5
25920.5
25549.0
25549.0
25109.5
25109.5
25068.5
25068.5
25155.0
25155.0
25168.0
25168.0
25092.0
25092.0
25162.0
25162.0
25188.0
25188.0
25393.0
25393.0
25355.5
25355.5
25657.5
25657.5
25741.5
25741.5
25790.0
25790.0
25565.5
25565.5
26040.0
26040.0
26040.0
25909.5
25909.5
25753.5
25237.5
25237.5
25237.5
25005.5
25005.5
24721.5
24721.5
24514.5
24514.5
24552.0
24552.0
24507.5
24507.5
24716.5
24716.5
24716.5
24695.5
24642.0
24642.0
24672.5
24672.5
24786.5
24786.5
24786.5
24796.5
24796.5
26452.5
26452.5
26668.0
26668.0
26436.0
26436.0
26436.0
25175.5
25175.5
24998.5
24998.5
24682.5
24682.5
25104.0
25104.0
25189.0
25189.0
25129.0
25129.0
25337.0
25337.0
25037.0
25037.0
27088.5
27088.5
27301.0
27301.0
27301.0
27282.0
27221.5
27221.5
27023.0
27023.0
26938.5
26938.5
26718.0
26465.0
26465.0
25903.5
25903.5
25982.0
25982.0
26209.5
26209.5
26343.5
26343.5
25938.0
25938.0
26028.0
26028.0
26213.0
26213.0
26319.5
26319.5
27302.0
27302.0
26757.0
27173.0
27173.0
27550.0
27550.0
27028.5
27028.5
25589.0
25589.0
28027.0
28027.0
29257.5
29257.5
29564.0
29564.0
29746.0
29746.0
29798.0
29798.0
29805.0
29805.0
29805.0
29744.5
29711.5
29711.5
29893.5
29893.5
29763.0
29763.0
29763.0
29948.5
29948.5
30052.5
30052.5
30052.5
29803.5
29803.5
29883.0
29883.0
29670.5
29670.5
29713.5
29713.5
29732.5
29732.5
29392.5
29392.5
30037.5
30037.5
30198.5
30198.5
29366.5
29366.5
30509.5
30509.5
30479.5
30479.5
30647.0
30647.0
30687.0
30687.0
30589.5
30589.5
30736.5
30736.5
30679.0
30679.0
30544.5
30544.5
30664.0
30664.0
30664.0
30632.5
30632.5
30669.5
30669.5
30694.0
30694.0
30789.0
30789.0
30308.5
30308.5
30204.0
30204.0
30481.0
30481.0
30293.5
30293.5
30605.0
30605.0
30449.0
30449.0
30508.5
30508.5
30468.5
30468.5
30632.5
30632.5
30445.0
30445.0
30445.0
30775.0
30839.5
30839.5
30720.5
30720.5
30771.5
30771.5
30771.5
30844.5
30844.5
30860.5
30860.5
30712.5
30988.5
30988.5
30762.0
30762.0
30762.0
30912.5
30912.5
30800.0
30800.0
30941.0
30941.0
30971.5
30971.5
31160.5
31160.5
31245.0
31245.0
31289.5
31289.5
31185.5
31185.5
31125.5
31125.5
30906.0
30906.0
30875.0
30875.0
30690.0
30690.0
30726.0
30726.0
30886.5
30886.5
30885.5
30885.5
30915.5
30915.5
30782.0
30782.0
30745.0
30745.0
30392.0
30392.0
30512.5
30390.5
30390.5
30509.5
30509.5
30301.5
30301.5
30301.5
30439.5
30439.5
30401.5
30327.0
30327.0
30327.0
30382.5
30382.5
30296.0
30296.0
30746.0
30746.0
30290.0
30290.0
30793.0
30793.0
26420.5
26420.5
16312.0
16312.0
20374.5
20374.5
20985.0
20985.0
20195.5
20195.5
20149.5
20149.5
25804.5
25804.5
30302.5
30302.5
30143.5
30143.5
30209.5
30209.5
30383.0
30383.0
30392.0
30392.0
30424.5
30424.5
29773.0
29773.0
29841.5
29841.5
29888.5
29888.5
29895.0
29895.0
29778.0
29778.0
29857.5
29857.5
29735.5
29735.5
29812.5
29812.5
29756.0
29756.0
19656.5
17278.0
18586.0
18586.0
29613.5
29613.5
29673.0
29673.0
29791.0
29791.0
27807.5
27807.5
29785.0
29294.0
29294.0
29323.0
29323.0
29323.0
29644.0
29644.0
30125.5
30125.5
30341.0
30341.0
30194.5
30194.5
30129.0
30129.0
30099.5
30099.5
30214.0
30214.0
30351.0
30351.0
30376.0
30376.0
30517.0
30517.0
30381.0
30381.0
30218.5
30218.5
30301.0
30301.0
30313.5
30313.5
29951.5
29823.5
29823.5
21894.0
21894.0
23339.0
23339.0
23339.0
21215.0
21215.0
23028.5
23028.5
23028.5
30057.0
30192.0
30192.0
29949.5
29665.0
29665.0
29794.0
29794.0
29235.0
29235.0
29943.5
29943.5
29950.0
29950.0
29915.0
29915.0
29824.5
29824.5
30135.0
30135.0
29636.0
29636.0
28007.5
29782.5
29782.5
29484.5
29484.5
29374.5
29374.5
29562.5
29562.5
29142.5
29142.5
29270.0
29270.0
29429.0
29429.0
29056.5
29056.5
29222.5
29222.5
28761.0
27017.0
27017.0
28814.5
28502.0
28502.0
28502.0
27895.5
27895.5
27917.5
27917.5
27873.5
27873.5
28589.5
28589.5
12985.0
12985.0
14463.0
14463.0
14471.0
14471.0
12687.5
12687.5
15375.0
16405.0
16405.0
14926.5
14926.5
14639.0
14639.0
15306.5
15306.5
14933.0
14933.0
29217.5
29217.5
28546.5
28546.5
27192.0
27192.0
27150.0
27150.0
22881.0
22881.0
21571.5
21571.5
15360.0
15360.0
20235.5
20235.5
19588.5
19588.5
23335.0
23715.5
23715.5
25809.0
25809.0
25809.0
25866.5
25866.5
27853.5
27853.5
27731.0
27731.0
27779.5
27779.5
27792.5
27792.5
27883.0
27883.0
28112.5
28112.5
28074.0
28074.0
27851.5
27851.5
27851.5
28163.5
28163.5
28145.0
28145.0
28145.0
28144.0
28144.0
28062.0
28062.0
28183.5
28120.5
28120.5
28100.0
28100.0
28191.5
28191.5
28255.0
28255.0
28081.0
28081.0
28261.0
28261.0
28246.5
28246.5
28085.0
28085.0
28281.0
28281.0
28381.0
28381.0
28288.0
28288.0
28282.5
28282.5
28303.0
28303.0
28476.5
28476.5
28423.0
28423.0
28222.0
28222.0
28261.5
28261.5
28297.5
28297.5
28262.5
28262.5
28314.5
28261.5
28171.5
28171.5
28289.5
28289.5
28289.5
28146.5
28146.5
28274.5
28274.5
28199.5
28199.5
28366.0
28366.0
28232.0
28232.0
28226.5
28226.5
28188.5
28188.5
28257.5
28257.5
28216.0
28216.0
28229.0
28229.0
28285.5
28285.5
28215.5
28215.5
28071.5
28071.5
28258.0
28258.0
28316.0
28316.0
28191.0
28191.0
28191.0
28291.5
28291.5
28335.5
28335.5
28342.5
28342.5
28342.5
28426.0
28426.0
28380.5
28416.5
28416.5
28416.5
28275.5
28275.5
28235.0
28235.0
28258.0
28258.0
28148.0
28148.0
27884.0
27884.0
28928.0
28928.0
28909.0
28909.0
29105.0
29105.0
28988.5
28988.5
28928.5
28928.5
28928.5
28586.5
28563.5
28563.5
28636.0
28636.0
28615.5
28615.5
28829.0
28829.0
28478.0
28478.0
28647.5
28647.5
28698.0
28698.0
28677.0
28677.0
28967.0
28967.0
29038.0
29038.0
28965.0
28965.0
28955.5
28955.5
28831.5
28831.5
28851.5
28851.5
28753.5
28753.5
28699.5
28699.5
28779.0
28779.0
28850.5
28850.5
28982.0
28982.0
28758.0
28758.0
29137.0
29137.0
28762.0
28762.0
28998.5
28998.5
28998.5
28908.5
28908.5
28876.5
28876.5
28497.0
28497.0
28808.0
28678.0
28678.0
28447.5
28447.5
28447.5
28199.0
28199.0
28325.0
28325.0
28757.0
28757.0
28757.0
29391.0
29391.0
28819.0
28819.0
23104.0
23104.0
2430.5
2430.5
1211.5
1211.5
1117.5
1117.5
