Version 4
SHEET 1 1240 680
WIRE -176 160 -192 160
WIRE 16 160 -176 160
WIRE 368 160 128 160
WIRE -192 176 -192 160
WIRE 112 208 112 192
WIRE 176 208 112 208
WIRE 208 208 176 208
WIRE 80 224 80 192
WIRE 80 240 80 224
WIRE 96 240 96 192
WIRE 176 240 96 240
WIRE 208 240 176 240
WIRE -192 336 -192 256
FLAG -192 336 0
FLAG 368 160 out
FLAG -176 160 in
FLAG 16 192 0
FLAG 176 240 w[n]
FLAG 176 208 h[n]
DATAFLAG 80 224 ""
SYMBOL Filter 80 160 R0
WINDOW 40 33 210 Center 2
WINDOW 39 26 178 Center 2
WINDOW 123 37 146 Center 2
WINDOW 3 30 113 Center 2
SYMATTR SpiceLine2 G=1 Asc=3 Ap=1 As=60 N=67
SYMATTR SpiceLine f0=2 fc=0 BWp=0.2 BWs=0.3
SYMATTR Value2 Win=1 Choice=1 sim=33 test=1 SH=0 Fact=1
SYMATTR InstName U1
SYMATTR SpiceModel FIR2
SYMBOL voltage -192 160 R0
WINDOW 0 37 30 Left 2
WINDOW 3 40 59 Left 2
SYMATTR InstName V1
SYMATTR Value pulse 0 1 0 1m ac 1
TEXT 480 344 Left 2 !.ac lin 4096 1m 999m
TEXT 480 376 Left 2 ;.tran 33
TEXT 480 288 Left 2 !.save v(*)
