Version 4
SHEET 1 1240 680
WIRE -368 96 -416 96
WIRE -320 96 -368 96
WIRE -288 96 -320 96
WIRE -288 160 -320 160
WIRE -96 160 -144 160
WIRE 64 160 -96 160
WIRE 112 160 64 160
WIRE 368 160 224 160
WIRE -416 192 -416 96
WIRE -368 320 -368 96
WIRE 144 320 144 192
WIRE 144 320 -368 320
FLAG -416 272 0
FLAG 368 160 out
FLAG 64 160 in
FLAG 112 192 0
FLAG -96 240 0
FLAG -320 240 0
FLAG -320 96 f
SYMBOL Filter 176 160 R0
WINDOW 40 -3 -63 Center 2
WINDOW 39 0 -103 Center 2
WINDOW 38 15 56 Center 2
SYMATTR SpiceLine f0=0 fc=250 BWp=100 BWs=200
SYMATTR SpiceModel MAFv
SYMATTR Value2 Win=1 Choice=1 sim=1 test=0 SH=0 Fact=1
SYMATTR InstName U1
SYMBOL voltage -416 176 R0
WINDOW 0 34 78 Left 2
WINDOW 3 23 108 Left 2
SYMATTR InstName V1
SYMATTR Value pwl 0 45 0.5 55 1 45
SYMBOL SpecialFunctions\\modulate2 -288 96 R0
SYMATTR InstName A1
SYMATTR SpiceLine mark=1 space=0
SYMBOL current -96 240 M180
WINDOW 0 36 59 Left 2
WINDOW 3 24 0 Left 2
SYMATTR InstName I1
SYMATTR Value 1 ac 1
SYMBOL voltage -320 144 R0
WINDOW 0 34 78 Left 2
WINDOW 3 23 108 Left 2
SYMATTR InstName V2
SYMATTR Value -1
TEXT 296 296 Left 2 !.tran 0 1 0
TEXT 296 328 Left 2 ;.ac lin 4096 1 499
TEXT 296 248 Left 2 !.save v(in) v(out) v(f)
