Version 4
SHEET 1 1024 680
WIRE 0 224 0 192
WIRE 0 240 0 224
WIRE -48 256 -144 256
FLAG -48 304 0
FLAG -144 336 0
FLAG 0 320 0
FLAG 0 224 X
FLAG 0 112 0
SYMBOL sw 0 336 M180
SYMATTR InstName S1
SYMATTR Value s1
SYMBOL voltage -144 240 R0
WINDOW 3 -11 126 Left 2
WINDOW 123 0 0 Left 2
WINDOW 39 0 0 Left 2
SYMATTR Value {v}
SYMATTR InstName V1
SYMBOL current 0 112 R0
WINDOW 123 24 108 Left 2
WINDOW 39 0 0 Left 0
SYMATTR Value2 AC 1
SYMATTR InstName I1
SYMATTR Value 0
TEXT 96 128 Left 2 !.MODEL s1 SW(Roff=100G Ron={Rt} Vt=1.3 Vh=-0.2  ilimit=200m level=2 )
TEXT 112 80 Left 2 !.param Rt=3.2
TEXT -176 384 Left 2 !.ac list 1k
TEXT 144 192 Left 2 !.step param v 1.3 5 10m
