Version 4
SHEET 1 1840 692
WIRE 1216 -208 1120 -208
WIRE 1120 -192 1120 -208
WIRE 1120 -80 1120 -112
WIRE 1216 -64 1216 -208
WIRE -400 -32 -544 -32
WIRE -336 -32 -400 -32
WIRE -592 64 -592 16
WIRE -336 128 -336 -32
WIRE 1216 128 1216 -64
WIRE -400 192 -480 192
WIRE -160 192 -272 192
WIRE 128 192 32 192
WIRE 224 192 128 192
WIRE 448 192 384 192
WIRE 656 192 608 192
WIRE 704 192 656 192
WIRE 912 192 864 192
WIRE 1152 192 1072 192
WIRE 1376 192 1280 192
WIRE 1616 192 1536 192
WIRE 1712 192 1616 192
WIRE 1792 192 1712 192
WIRE -336 288 -336 256
WIRE -64 288 -64 256
WIRE -64 288 -336 288
WIRE 304 288 304 256
WIRE 432 288 304 288
WIRE 528 288 528 256
WIRE 528 288 432 288
WIRE 784 288 784 256
WIRE 992 288 992 256
WIRE 992 288 784 288
WIRE 1216 288 1216 256
WIRE 1216 288 992 288
WIRE 1456 288 1456 256
WIRE 1456 288 1216 288
WIRE -64 320 -64 288
WIRE 432 320 432 288
WIRE 1216 320 1216 288
WIRE -480 528 -480 192
WIRE -400 528 -480 528
WIRE 928 528 -400 528
WIRE 1616 528 1616 192
WIRE 1616 528 1088 528
WIRE 1008 640 1008 592
FLAG 1216 320 0
FLAG -64 320 0
FLAG 1008 640 0
FLAG -592 64 0
FLAG 1120 -80 0
FLAG 432 320 0
FLAG 1712 192 temperature
FLAG 656 192 power
FLAG 128 192 regulator
FLAG -400 528 feedback
FLAG -400 -32 setpoint
FLAG 1216 -64 disturbance
SYMBOL control\\lag1 784 192 R0
WINDOW 3 17 -82 Center 0
SYMATTR Value K=1 Tc=4 limit=100
SYMATTR InstName U1
SYMBOL control\\transport 992 192 R0
SYMATTR Value delay=1.5
SYMATTR InstName U2
SYMBOL control\\pid -64 192 R0
SYMATTR Value Kp=1.5 Ti=6 Td=2.1
SYMATTR Value2 dampfactor=1m limit=10
SYMATTR InstName U3
SYMBOL control\\sub -336 192 R0
SYMATTR Value limit=10
SYMATTR InstName U4
SYMBOL control\\lag1 1008 528 M0
SYMATTR Value K=1 Tc=.5 limit=10
SYMATTR InstName Usensor
SYMBOL control\\const -592 -32 R0
SYMATTR InstName U5
SYMBOL control\\lim 304 192 R0
SYMATTR Value limit_low=0 limit_high=10
SYMATTR InstName U6
SYMBOL control\\lag1 1456 192 R0
WINDOW 3 17 -82 Center 0
SYMATTR Value K=1 Tc=4 limit=100
SYMATTR InstName U7
SYMBOL control\\sum 1216 192 R0
SYMATTR Value limit=100
SYMATTR InstName U8
SYMBOL voltage 1120 -208 R0
WINDOW 3 -77 -23 Left 0
WINDOW 123 0 0 Left 0
WINDOW 39 0 0 Left 0
SYMATTR Value PWL(25 0 30 -.2 35 -.2 40 0)
SYMATTR InstName V1
SYMBOL control\\sqr 528 192 R0
SYMATTR Value limit=100
SYMATTR InstName U9
TEXT -544 632 Left 0 !.tran 0 50 0 uic
TEXT 136 48 Left 0 ;Heater
TEXT -424 48 Left 0 ;Controller
TEXT 680 48 Left 0 ;Heated object
TEXT 824 384 Left 0 ;Sensor
TEXT 1000 -272 Left 0 ;Disturbance
TEXT -688 -128 Left 0 ;Setpoint
RECTANGLE Normal 96 368 -432 64 2
RECTANGLE Normal 640 368 128 64 2
RECTANGLE Normal 672 64 672 64 2
RECTANGLE Normal 1584 368 672 64 2
RECTANGLE Normal 1264 688 816 400 2
RECTANGLE Normal 1392 -16 992 -256 2
RECTANGLE Normal -480 112 -704 -112 2
