Version 4
SHEET 1 2460 680
WIRE 928 -1088 720 -1088
WIRE 1120 -1088 928 -1088
WIRE 928 -1040 928 -1088
WIRE 944 -1040 928 -1040
WIRE 1120 -1040 1120 -1088
WIRE 1136 -1040 1120 -1040
WIRE 1024 -1024 992 -1024
WIRE 1072 -1024 1024 -1024
WIRE 928 -992 928 -1040
WIRE 944 -992 928 -992
WIRE 1136 -992 1136 -1040
WIRE 1136 -992 1120 -992
WIRE 944 -912 944 -944
WIRE 1024 -912 1024 -1024
WIRE 1024 -912 944 -912
WIRE 944 -880 944 -912
WIRE 1120 -832 1120 -944
WIRE 944 -768 944 -800
WIRE 1120 -752 1120 -832
WIRE 1136 -704 1120 -704
WIRE 1072 -672 960 -672
WIRE 1136 -656 1136 -704
WIRE 1136 -656 1120 -656
WIRE 1120 -624 1120 -656
WIRE 704 -592 624 -592
WIRE 768 -592 704 -592
WIRE 960 -592 848 -592
FLAG 1120 -624 0
FLAG 1120 -832 OUT
FLAG 624 -512 0
FLAG 704 -592 Gset
FLAG 720 -1008 0
FLAG 944 -768 0
FLAG 960 -528 0
SYMBOL pmos4 992 -944 R180
WINDOW 3 83 110 Left 2
WINDOW 123 72 0 Left 2
SYMATTR InstName M4
SYMATTR Value CMOSP
SYMATTR Value2 l={Lmin} w={Wbsp}
SYMBOL nmos4 1072 -752 R0
WINDOW 0 69 -7 VRight 2
WINDOW 3 -16 -12 VRight 2
WINDOW 123 107 208 VLeft 2
SYMATTR InstName M6
SYMATTR Value CMOSN
SYMATTR Value2 l={Lmin} w={Wbs}
SYMBOL pmos4 1072 -944 M180
WINDOW 3 66 114 Left 2
WINDOW 123 106 84 VLeft 2
SYMATTR InstName M1
SYMATTR Value CMOSP
SYMATTR Value2 l={Lmin} w={Wbsp}
SYMBOL bv 624 -608 R0
WINDOW 0 -14 -5 Left 2
WINDOW 3 24 110 Left 2
SYMATTR InstName B1
SYMATTR Value V=100000*(v(OUT)-Vo)
SYMBOL voltage 720 -1104 R0
WINDOW 123 0 0 Left 2
WINDOW 39 0 0 Left 2
SYMATTR InstName V1
SYMATTR Value 5V
SYMBOL voltage 960 -688 R0
WINDOW 0 2 -9 Left 2
WINDOW 3 42 42 Left 2
WINDOW 123 36 70 Left 2
WINDOW 39 0 0 Left 2
SYMATTR InstName V2
SYMATTR Value 0
SYMATTR Value2 AC 1
SYMBOL current 944 -880 R0
WINDOW 123 0 0 Left 2
WINDOW 39 0 0 Left 2
SYMATTR InstName I1
SYMATTR Value {i}
SYMBOL cap 944 -592 R0
WINDOW 39 48 38 Left 2
SYMATTR InstName C1
SYMATTR Value 1
SYMATTR SpiceLine Rpar=1e38
SYMBOL res 864 -608 R90
WINDOW 0 0 56 VBottom 2
WINDOW 3 32 56 VTop 2
SYMATTR InstName R1
SYMATTR Value 10Meg
TEXT 616 -896 Left 2 !.param Lmin=1u\n.param Wbs=50um\n.param Wbsp=150um
TEXT 608 -800 Left 2 !.include tsmc018.txt
TEXT 752 -456 Left 2 !.step dec param i 10nA 5mA 5
TEXT 598 -436 Left 2 !.ac list   1Hz
TEXT 712 -704 Left 2 !.param Vo=2.5V
