Version 4
SHEET 1 2452 1140
WIRE 0 0 -32 0
WIRE 800 0 0 0
WIRE 896 0 800 0
WIRE 1040 0 896 0
WIRE 1328 0 1040 0
WIRE 1328 16 1328 0
WIRE 896 32 896 0
WIRE -32 96 -32 0
WIRE 1040 112 1040 0
WIRE 896 128 896 112
WIRE 1008 128 896 128
WIRE 1120 144 1072 144
WIRE 1328 144 1328 96
WIRE 1328 144 1120 144
WIRE 352 160 240 160
WIRE 1008 160 960 160
WIRE 240 176 240 160
WIRE 960 176 960 160
WIRE 896 208 896 128
WIRE -32 320 -32 176
WIRE 240 320 240 256
WIRE 240 320 -32 320
WIRE 896 320 896 288
WIRE 960 320 896 320
WIRE 1040 320 1040 176
WIRE 1040 320 960 320
WIRE 960 336 960 320
WIRE -32 368 -32 320
WIRE 800 384 800 0
WIRE 1328 384 1328 208
WIRE 1328 384 800 384
FLAG -32 368 0
FLAG 0 0 Vcc
FLAG 240 160 in
FLAG 1120 144 Vout
FLAG 960 336 0
FLAG 960 160 in
SYMBOL voltage -32 80 R0
WINDOW 123 0 0 Left 2
WINDOW 39 24 124 Left 2
SYMATTR InstName V1
SYMATTR Value {v}
SYMBOL voltage 240 160 R0
WINDOW 3 -131 -51 Left 2
WINDOW 123 0 0 Left 2
WINDOW 39 0 0 Left 2
SYMATTR Value PULSE({v/2+5m} {v/2-95m} 500n 10n 10n 100n 1u 10)
SYMATTR InstName V2
SYMBOL res 880 192 R0
SYMATTR InstName R10
SYMATTR Value 1k
SYMBOL res 880 16 R0
SYMATTR InstName R11
SYMATTR Value 1k
SYMBOL cap 1312 144 R0
SYMATTR InstName C4
SYMATTR Value 25p ic=0
SYMBOL res 1312 0 R0
SYMATTR InstName R12
SYMATTR Value 20k
SYMBOL opamp2 1040 80 R0
SYMATTR InstName U1
SYMATTR Value MCP6566_BAP
TEXT 40 480 Left 2 !.tran 0 600n 505n 10n
TEXT -24 -128 Left 3 ;The Comparison of the models MCP6566  from Jim Thompson and  models from Bordodynov.
TEXT 256 344 Left 2 !.step param v list 1.8 5.5
TEXT 208 -64 Left 2 !.inc MCP6566_sum.lib
TEXT 1064 288 Left 2 ;MCP6566_jt2
TEXT 1064 328 Left 2 ;MCP6566_BAP
TEXT 584 -56 Left 6 ;Time calculation
LINE Normal 1184 192 1184 272
LINE Normal 1184 208 1184 192 2
LINE Normal 1184 208 1184 208 2
LINE Normal 1184 192 1184 208 2
LINE Normal 1184 192 1184 192 2
LINE Normal 1200 208 1184 192
LINE Normal 1168 208 1200 208 2
LINE Normal 1184 192 1168 208
