Version 4
SHEET 1 2140 680
WIRE 128 80 112 80
WIRE 112 112 112 80
WIRE 240 304 208 304
WIRE 240 320 240 304
FLAG 112 192 0
FLAG 112 80 in
FLAG 240 416 0
FLAG 240 304 Y
FLAG 128 304 in
SYMBOL voltage 112 96 R0
WINDOW 3 -70 156 Left 2
WINDOW 123 0 0 Left 2
WINDOW 39 -114 53 Left 2
WINDOW 0 37 56 Left 2
SYMATTR Value PWL(0 0 1u {v} 10u {10*v} 100u {100*v})
SYMATTR InstName V1
SYMBOL res 224 288 R90
WINDOW 0 0 56 VBottom 2
WINDOW 3 32 56 VTop 2
SYMATTR InstName R2
SYMATTR Value 1
SYMBOL spark_gap_AB 240 368 R0
WINDOW 38 46 -21 Left 2
SYMATTR SpiceModel EM400XG
SYMATTR InstName U1
TEXT 440 72 Left 2 !.tran 10u
TEXT 456 192 Left 2 !.meas max max v(y)\n.meas i(R2) when v(y)=max-1
TEXT 424 120 Left 2 !.opt vntol=1m
TEXT 424 152 Left 2 !.step param v list 100 316 1000 2000 5000
