Version 4
SHEET 1 4492 4384
WIRE 2384 1632 2304 1632
WIRE 2384 1648 2384 1632
WIRE 2304 1664 2304 1632
WIRE 2304 1760 2304 1744
WIRE 2304 1776 2304 1760
WIRE 2384 1776 2384 1728
WIRE 2096 1856 2064 1856
WIRE 2240 1856 2096 1856
WIRE 2256 1856 2240 1856
WIRE 2064 1888 2064 1856
WIRE 2064 1984 2064 1968
FLAG 2384 1776 0
FLAG 2064 1984 0
FLAG 2096 1856 G
FLAG 2304 1872 0
FLAG 2304 1760 D
FLAG 2240 1856 G
SYMBOL VOLTAGE 2064 1872 R0
WINDOW 3 414 71 Right 2
WINDOW 123 0 0 Left 2
WINDOW 39 33 42 Left 2
SYMATTR Value PULSE(0 4.5 10n 5n 5n 20n 50n)
SYMATTR SpiceLine Rser=50
SYMATTR InstName V1
SYMBOL voltage 2384 1632 R0
WINDOW 123 24 138 Left 2
WINDOW 39 24 124 Left 2
SYMATTR InstName V2
SYMATTR Value 20
SYMBOL nmos 2256 1776 R0
WINDOW 3 72 111 Left 2
SYMATTR Value FDV301N_AB
SYMATTR InstName M1
SYMBOL res 2288 1648 R0
SYMATTR InstName R1
SYMATTR Value 100
TEXT 1512 1848 Left 2 !.opt vntol=1m abstol=1n
TEXT 1456 1672 Left 2 !.model FDV301N_AB VDMOS(Rg=100 vto={0.9-2.1m*(TEMP-25)} \n+ kp=0.29 theta=0.225 Rd=0.7 Rs=20m Rb=40m\n+ Ksubthres=.1 Mtriode=0.9 Lambda=1m Cgdmin=0.6p \n+ Cgdmax=20p  Cgs=9p   tt=100n ibv=250u  nbv=3 a=0.7\n+ is=1.4e-13 cjo=13p bv={26+25m*(TEMP-25)} m=0.36 vj=0.8
TEXT 1542 1936 Left 2 !.tran 50n
