Version 4
SHEET 1 916 708
WIRE 0 112 -112 112
WIRE -112 144 -112 112
WIRE 0 160 0 112
WIRE 0 256 0 224
FLAG 0 256 0
FLAG -112 224 0
SYMBOL current -112 224 R180
WINDOW 0 24 80 Left 2
WINDOW 3 24 0 Left 2
WINDOW 123 24 -28 Left 2
WINDOW 39 0 0 Left 2
SYMATTR InstName I1
SYMATTR Value ""
SYMATTR Value2 AC 1 0
SYMBOL CRYSTAL_9_OVERTONE -16 160 R0
SYMATTR InstName U1
TEXT -224 472 Left 2 !.ac lin 64000 9Meg 53meg
TEXT -168 424 Left 2 !.lib CRYSTAL_9_OVERTONE.sub
TEXT 8 152 Left 2 ;10Meg
