Version 4
SHEET 1 1696 996
WIRE 416 -32 304 -32
WIRE 112 144 32 144
WIRE 160 144 112 144
WIRE 272 144 224 144
WIRE 304 144 304 32
WIRE 304 144 272 144
WIRE 368 144 304 144
WIRE 32 160 32 144
WIRE 160 224 160 144
WIRE 176 224 160 224
FLAG 224 240 0
FLAG 32 240 0
FLAG 368 224 0
FLAG 272 144 x
FLAG 416 48 0
FLAG 112 144 G
SYMBOL Misc\\nigbt 176 144 R0
WINDOW 3 59 116 Left 2
SYMATTR Value SKM145GB066D
SYMATTR InstName Z1
SYMBOL voltage 32 144 R0
WINDOW 123 0 0 Left 2
WINDOW 39 0 0 Left 2
WINDOW 3 -24 -229 Left 2
SYMATTR InstName V2
SYMATTR Value PULSE(15 -8 100u 10n 10n 1m 2m)
SYMBOL current 368 224 R180
WINDOW 0 24 80 Left 2
WINDOW 3 -144 37 Left 2
WINDOW 123 0 0 Left 2
WINDOW 39 0 0 Left 2
SYMATTR InstName I1
SYMATTR Value 150A
SYMBOL diode 320 32 R180
WINDOW 0 24 64 Left 2
WINDOW 3 24 0 Left 2
SYMATTR InstName D1
SYMATTR Value Did
SYMBOL voltage 416 -48 R0
WINDOW 123 0 0 Left 2
WINDOW 39 0 0 Left 2
SYMATTR InstName V1
SYMATTR Value 650
TEXT -8 280 Left 2 !.op 0 1m 0.9m uic
TEXT -48 320 Left 2 !.TEMP  25  80
TEXT 432 104 Left 2 !.opt vntol=10m method=gear Gshunt=10n abstol=10n noopiter cshunt=10p
TEXT 640 152 Left 2 !* my\n.MODEL SKM145GB066D NIGBT\n+ TAU=50n\n+ KP=245\n+ AREA=170u\n+ AGD=15u\n+ VT=5.8\n+ MUN=15k\n+ MUP=450\n+ BVF=4\n+ KF=2\n+ CGS=10n\n+ COXD=5n\n+ VTD=-2\n+ ksubthres=150m\n + Jsne=8p\n + Theta=100m
TEXT -48 360 Left 2 ;.step param i list  60A 150A
TEXT 528 8 Left 2 !.model Did d Vfwd=0 Ron=10m Roff=1Meg
