Version 4
SHEET 1 3280 2120
WIRE 1568 1792 1216 1792
WIRE 1216 1824 1216 1792
WIRE 1088 1904 1040 1904
WIRE 1168 1904 1088 1904
WIRE 1568 1904 1568 1792
WIRE 1040 1936 1040 1904
WIRE 1216 1936 1216 1920
WIRE 1040 2064 1040 2016
WIRE 1216 2064 1216 2016
WIRE 1568 2080 1568 1984
FLAG 1088 1904 2
FLAG 1040 2064 0
FLAG 1568 2080 0
FLAG 1216 2064 0
SYMBOL VOLTAGE 1040 1920 R0
WINDOW 39 0 0 Left 0
WINDOW 123 0 0 Left 0
SYMATTR InstName Vgs_n
SYMATTR Value -2
SYMBOL voltage 1568 1888 R0
WINDOW 39 0 0 Left 0
WINDOW 123 0 0 Left 0
SYMATTR InstName Vds_pul
SYMATTR Value PULSE(0 10 0 10m 1m 20m)
SYMBOL RES 1232 2032 R180
WINDOW 0 36 76 Left 0
WINDOW 3 36 40 Left 0
SYMATTR InstName R1
SYMATTR Value 1p
SYMBOL NMOS 1168 1824 R0
SYMATTR InstName M1
SYMATTR Value VMOSMODEL
TEXT 904 1624 Left 0 !.model VMOSMODEL VDMOS(Cjo=2n  Vj=1  m=0.5   Is=1p N=1  Rb=0 Rg=0  Rd=0  Rs=0  Vto=2   Kp=10 Cgdmax=0 Cgdmin=0 Cgs=0    mfg=IR  Vds=30 Ron=1m Qg=10n)
TEXT 1680 1760 Left 0 !.save id(m1)
TEXT 1344 1576 Left 0 ;Reference circuit for VDMOS Diode Capacitor  curve
TEXT 1688 1832 Left 0 !.tran 10m startup
