Version 4
SHEET 1 3280 2100
WIRE 1360 1792 1216 1792
WIRE 1568 1792 1440 1792
WIRE 1216 1824 1216 1792
WIRE 1088 1904 1040 1904
WIRE 1168 1904 1088 1904
WIRE 1568 1904 1568 1792
WIRE 1040 1936 1040 1904
WIRE 1040 2064 1040 2016
WIRE 1216 2064 1216 1920
WIRE 1568 2080 1568 1984
FLAG 1088 1904 2
FLAG 1040 2064 0
FLAG 1568 2080 0
FLAG 1216 2064 0
SYMBOL VOLTAGE 1040 1920 R0
WINDOW 39 0 0 Left 0
WINDOW 123 0 0 Left 0
SYMATTR InstName Vgs
SYMATTR Value 0
SYMBOL voltage 1568 1888 R0
WINDOW 39 0 0 Left 0
WINDOW 123 0 0 Left 0
SYMATTR InstName Vds
SYMATTR Value 0
SYMBOL RES 1456 1776 R90
WINDOW 0 0 56 VBottom 0
WINDOW 3 32 56 VTop 0
SYMATTR InstName R1
SYMATTR Value 0.001
SYMBOL NMOS 1168 1824 R0
SYMATTR InstName M1
SYMATTR Value VMOSMODEL
TEXT 944 1672 Left 0 !.dc vds  0 10 0.1  vgs 2  3 .2
TEXT 904 1624 Left 0 !.model VMOSMODEL VDMOS(Rg=3  Rd=1.5m Rs=1.1m Vto=2  lambda=0.0 Kp=50 Cgdmax=2.0n Cgdmin=0.5n Cgs=5.3n Cjo=1n Is=100p Rb=1.9m mfg=IR  Vds=30 Ron=3.8m Qg=50n)
TEXT 944 1712 Left 0 !.save i(r1)
TEXT 1344 1576 Left 0 ;Reference circuit for VMOS family curve

