Version 4
SHEET 1 5945688 13421568
WIRE 3184 -1520 3168 -1520
WIRE 3424 -1520 3184 -1520
WIRE 3504 -1520 3424 -1520
WIRE 3616 -1520 3568 -1520
WIRE 3168 -1344 3168 -1520
WIRE 3424 -1328 3424 -1520
WIRE 3616 -1328 3616 -1520
WIRE 2928 -1264 2768 -1264
WIRE 3120 -1264 2928 -1264
WIRE 2768 -1232 2768 -1264
WIRE 3168 -1120 3168 -1248
WIRE 3424 -1120 3424 -1248
WIRE 3616 -1120 3616 -1248
WIRE 2768 -1104 2768 -1152
FLAG 3168 -1120 0
FLAG 3616 -1120 0
FLAG 3184 -1520 out
FLAG 3424 -1120 0
FLAG 2768 -1104 0
FLAG 2928 -1264 gate
SYMBOL CURRENT 3424 -1248 R180
WINDOW 0 24 88 Left 0
WINDOW 3 24 0 Left 0
SYMATTR InstName I3
SYMATTR Value {Id}
SYMBOL VOLTAGE 3616 -1344 R0
SYMATTR InstName V3
SYMATTR Value {Vds}
SYMBOL BI2 2768 -1232 R0
WINDOW 3 44 108 Left 0
WINDOW 39 48 57 Left 0
SYMATTR Value I=-0.001*(time > 0)
SYMATTR SpiceLine Rpar=100E6
SYMATTR InstName B1
SYMBOL pmos 3120 -1344 R0
SYMATTR InstName M1
SYMATTR Value VMOSMODEL
SYMBOL diode 3568 -1536 R90
WINDOW 0 0 32 VBottom 0
WINDOW 3 32 32 VTop 0
SYMATTR InstName D1
SYMATTR Value Dideal
TEXT 2840 -1432 Left 0 !.tran 80u startup
TEXT 2832 -1736 Left 0 !.model VMOSMODEL VDMOS(pchan Rg=3 Rd=80m Rs=60m Vto=-4 Kp=8 Cgdmax=1n Cgdmin=0.25n Cgs=1.7n Cjo=0.7n Is=140p Rb=100m mfg=IT  Vds=-100 Ron=200m Qg=70n)
TEXT 2848 -1480 Left 0 !.save v(gate)
TEXT 2832 -1528 Left 0 !.param2  Vds=-50  Id=-20
TEXT 2856 -1672 Left 0 !.model  Dideal   D(is=1E-10 n=1 vpk=500)

