Version 4
SHEET 1 880 876
WIRE -448 -2816 -1040 -2816
WIRE -416 -2816 -448 -2816
WIRE -448 -2784 -448 -2816
WIRE -496 -2768 -544 -2768
WIRE -576 -2720 -864 -2720
WIRE -1040 -2704 -1040 -2816
WIRE -864 -2576 -864 -2720
WIRE -832 -2576 -864 -2576
WIRE -544 -2576 -544 -2768
WIRE -544 -2576 -672 -2576
WIRE -1216 -2544 -1232 -2544
WIRE -1136 -2544 -1216 -2544
WIRE -1104 -2544 -1136 -2544
WIRE -1040 -2544 -1040 -2624
WIRE -976 -2544 -1040 -2544
WIRE -448 -2544 -448 -2704
WIRE -352 -2544 -448 -2544
WIRE -320 -2544 -352 -2544
WIRE -832 -2528 -912 -2528
WIRE -576 -2528 -576 -2720
WIRE -576 -2528 -656 -2528
WIRE -496 -2528 -576 -2528
WIRE -352 -2496 -352 -2544
WIRE -1216 -2480 -1216 -2544
WIRE -752 -2432 -752 -2480
WIRE -1040 -2416 -1040 -2544
WIRE -448 -2416 -448 -2544
WIRE -1216 -2400 -1216 -2416
WIRE -1136 -2400 -1136 -2480
WIRE -1136 -2400 -1216 -2400
WIRE -496 -2400 -496 -2528
WIRE -1216 -2272 -1216 -2400
WIRE -1040 -2272 -1040 -2352
WIRE -1040 -2272 -1216 -2272
WIRE -752 -2272 -1040 -2272
WIRE -448 -2272 -448 -2336
WIRE -448 -2272 -752 -2272
WIRE -352 -2272 -352 -2432
WIRE -352 -2272 -448 -2272
WIRE -448 -2240 -1040 -2240
WIRE -416 -2240 -448 -2240
WIRE -448 -2208 -448 -2240
WIRE -496 -2192 -544 -2192
WIRE -576 -2144 -864 -2144
WIRE -1040 -2112 -1040 -2240
WIRE -864 -2000 -864 -2144
WIRE -832 -2000 -864 -2000
WIRE -544 -2000 -544 -2192
WIRE -544 -2000 -672 -2000
WIRE -1216 -1968 -1232 -1968
WIRE -1136 -1968 -1216 -1968
WIRE -1104 -1968 -1136 -1968
WIRE -1040 -1968 -1040 -2032
WIRE -976 -1968 -1040 -1968
WIRE -448 -1968 -448 -2128
WIRE -352 -1968 -448 -1968
WIRE -320 -1968 -352 -1968
WIRE -832 -1952 -912 -1952
WIRE -576 -1952 -576 -2144
WIRE -576 -1952 -656 -1952
WIRE -496 -1952 -576 -1952
WIRE -352 -1920 -352 -1968
WIRE -1216 -1904 -1216 -1968
WIRE -752 -1856 -752 -1904
WIRE -1040 -1840 -1040 -1968
WIRE -448 -1840 -448 -1968
WIRE -1216 -1824 -1216 -1840
WIRE -1136 -1824 -1136 -1904
WIRE -1136 -1824 -1216 -1824
WIRE -496 -1824 -496 -1952
WIRE -576 -1792 -576 -1952
WIRE -576 -1792 -912 -1792
WIRE -1216 -1696 -1216 -1824
WIRE -1040 -1696 -1040 -1776
WIRE -1040 -1696 -1216 -1696
WIRE -720 -1696 -1040 -1696
WIRE -448 -1696 -448 -1760
WIRE -448 -1696 -720 -1696
WIRE -352 -1696 -352 -1856
WIRE -352 -1696 -448 -1696
WIRE -416 -1664 -448 -1664
WIRE -448 -1648 -448 -1664
WIRE -496 -1632 -544 -1632
WIRE -576 -1584 -864 -1584
WIRE -864 -1440 -864 -1584
WIRE -832 -1440 -864 -1440
WIRE -544 -1440 -544 -1632
WIRE -544 -1440 -672 -1440
WIRE -448 -1408 -448 -1568
WIRE -352 -1408 -448 -1408
WIRE -320 -1408 -352 -1408
WIRE -912 -1392 -912 -1792
WIRE -832 -1392 -912 -1392
WIRE -576 -1392 -576 -1584
WIRE -576 -1392 -656 -1392
WIRE -496 -1392 -576 -1392
WIRE -352 -1360 -352 -1408
WIRE -1152 -1312 -1168 -1312
WIRE -752 -1296 -752 -1344
WIRE -1168 -1280 -1168 -1312
WIRE -1024 -1280 -1168 -1280
WIRE -448 -1280 -448 -1408
WIRE -496 -1264 -496 -1392
WIRE -576 -1216 -576 -1392
WIRE -576 -1216 -912 -1216
WIRE -1168 -1168 -1168 -1280
WIRE -448 -1136 -448 -1200
WIRE -368 -1136 -448 -1136
WIRE -352 -1136 -352 -1296
WIRE -352 -1136 -368 -1136
WIRE -416 -1072 -448 -1072
WIRE -1344 -1040 -1360 -1040
WIRE -1280 -1040 -1344 -1040
WIRE -1232 -1040 -1280 -1040
WIRE -1168 -1040 -1168 -1088
WIRE -448 -1040 -448 -1072
WIRE -496 -1024 -544 -1024
WIRE -1024 -992 -1024 -1200
WIRE -944 -992 -1024 -992
WIRE -1344 -976 -1344 -1040
WIRE -576 -976 -864 -976
WIRE -1280 -912 -1280 -976
WIRE -1280 -912 -1344 -912
WIRE -864 -832 -864 -976
WIRE -832 -832 -864 -832
WIRE -544 -832 -544 -1024
WIRE -544 -832 -672 -832
WIRE -1344 -800 -1360 -800
WIRE -1264 -800 -1344 -800
WIRE -1232 -800 -1264 -800
WIRE -1168 -800 -1168 -1040
WIRE -1120 -800 -1168 -800
WIRE -448 -800 -448 -960
WIRE -352 -800 -448 -800
WIRE -320 -800 -352 -800
WIRE -912 -784 -912 -1216
WIRE -832 -784 -912 -784
WIRE -576 -784 -576 -976
WIRE -576 -784 -656 -784
WIRE -496 -784 -576 -784
WIRE -1056 -752 -1056 -784
WIRE -352 -752 -352 -800
WIRE -1344 -736 -1344 -800
WIRE -1168 -720 -1168 -800
WIRE -752 -688 -752 -736
WIRE -448 -672 -448 -800
WIRE -1344 -656 -1344 -672
WIRE -1264 -656 -1264 -736
WIRE -1264 -656 -1344 -656
WIRE -496 -656 -496 -784
WIRE -1344 -528 -1344 -656
WIRE -1168 -528 -1168 -656
WIRE -1168 -528 -1344 -528
WIRE -944 -528 -944 -992
WIRE -944 -528 -1168 -528
WIRE -448 -528 -448 -592
WIRE -448 -528 -944 -528
WIRE -352 -528 -352 -688
WIRE -352 -528 -448 -528
WIRE -336 -528 -352 -528
FLAG -1360 -1040 R1
IOPIN -1360 -1040 In
FLAG -1360 -800 R2
IOPIN -1360 -800 In
FLAG -1152 -1312 VDD
IOPIN -1152 -1312 BiDir
FLAG -336 -528 VSS
IOPIN -336 -528 BiDir
FLAG -1344 -912 VSS
FLAG -320 -800 QD
IOPIN -320 -800 Out
FLAG -416 -1072 VDD
FLAG -496 -976 0
FLAG -496 -608 0
FLAG -1056 -816 CL
FLAG -752 -688 CL
FLAG -320 -1408 QC
IOPIN -320 -1408 Out
FLAG -416 -1664 VDD
FLAG -496 -1584 0
FLAG -496 -1216 0
FLAG -752 -1296 CL
FLAG -1232 -1968 CKB
IOPIN -1232 -1968 In
FLAG -320 -1968 QB
IOPIN -320 -1968 Out
FLAG -416 -2240 VDD
FLAG -496 -2144 0
FLAG -496 -1776 0
FLAG -752 -1856 CL
FLAG -1232 -2544 CKA
IOPIN -1232 -2544 In
FLAG -320 -2544 QA
IOPIN -320 -2544 Out
FLAG -416 -2816 VDD
FLAG -496 -2720 0
FLAG -496 -2352 0
FLAG -752 -2432 CL
FLAG -720 -1696 Vss
FLAG -752 -2272 Vss
FLAG -368 -1136 Vss
SYMBOL schottky -1168 -1024 M270
WINDOW 0 32 32 VTop 2
WINDOW 3 0 32 VBottom 2
SYMATTR InstName D7
SYMATTR Value DS
SYMBOL schottky -1168 -784 M270
WINDOW 0 32 32 VTop 2
WINDOW 3 0 32 VBottom 2
SYMATTR InstName D8
SYMATTR Value DS
SYMBOL schottky -1360 -672 M180
WINDOW 0 24 64 Left 2
WINDOW 3 24 0 Left 2
SYMATTR InstName D9
SYMATTR Value DS
SYMBOL schottky -1360 -912 M180
WINDOW 0 24 64 Left 2
WINDOW 3 24 0 Left 2
SYMATTR InstName D10
SYMATTR Value DS
SYMBOL diode -1184 -720 R0
SYMATTR InstName D1
SYMATTR Value D2be
SYMBOL res -1184 -1184 R0
SYMATTR InstName R1
SYMATTR Value 20k
SYMBOL Digital\\buf -1120 -864 R0
WINDOW 3 -3 -7 Left 2
WINDOW 123 -14 143 Left 2
SYMATTR Value Td=5n
SYMATTR Value2 Ref=1.5V
SYMATTR InstName A1
SYMBOL cap -1296 -1040 R0
SYMATTR InstName C2
SYMATTR Value 1.5pF
SYMBOL cap -1280 -800 R0
SYMATTR InstName C3
SYMATTR Value 1.5pF
SYMBOL sw -448 -944 M180
SYMATTR InstName S9
SYMATTR Value SWH
SYMBOL sw -448 -576 M180
SYMATTR InstName S10
SYMATTR Value SWL
SYMBOL cap -368 -752 R0
SYMATTR InstName C13
SYMATTR Value 5p
SYMBOL Digital\\dflop -752 -880 R0
WINDOW 3 -65 -48 Left 2
SYMATTR Value TD=10n
SYMATTR InstName A2
SYMBOL sw -448 -1552 M180
SYMATTR InstName S1
SYMATTR Value SWH
SYMBOL sw -448 -1184 M180
SYMATTR InstName S2
SYMATTR Value SWL
SYMBOL cap -368 -1360 R0
SYMATTR InstName C1
SYMATTR Value 5p
SYMBOL Digital\\dflop -752 -1488 R0
WINDOW 3 -65 -48 Left 2
SYMATTR Value TD=10n
SYMATTR InstName A4
SYMBOL schottky -1040 -1952 M270
WINDOW 0 32 32 VTop 2
WINDOW 3 0 32 VBottom 2
SYMATTR InstName D5
SYMATTR Value DS
SYMBOL schottky -1232 -1840 M180
WINDOW 0 24 64 Left 2
WINDOW 3 24 0 Left 2
SYMATTR InstName D6
SYMATTR Value DS
SYMBOL diode -1056 -1840 R0
SYMATTR InstName D11
SYMATTR Value D2be
SYMBOL res -1056 -2128 R0
SYMATTR InstName R3
SYMATTR Value 20k
SYMBOL sw -448 -2112 M180
SYMATTR InstName S3
SYMATTR Value SWH
SYMBOL sw -448 -1744 M180
SYMATTR InstName S4
SYMATTR Value SWL
SYMBOL cap -368 -1920 R0
SYMATTR InstName C5
SYMATTR Value 5p
SYMBOL cap -1152 -1968 R0
SYMATTR InstName C6
SYMATTR Value 1.5pF
SYMBOL Digital\\dflop -752 -2048 R0
WINDOW 3 -65 -48 Left 2
SYMATTR Value TD=10n
SYMATTR InstName A6
SYMBOL Digital\\buf -976 -2032 R0
WINDOW 3 -3 -7 Left 2
WINDOW 123 -14 143 Left 2
SYMATTR Value Td=3n
SYMATTR Value2 Ref=1.5V
SYMATTR InstName A7
SYMBOL schottky -1040 -2528 M270
WINDOW 0 32 32 VTop 2
WINDOW 3 0 32 VBottom 2
SYMATTR InstName D12
SYMATTR Value DS
SYMBOL schottky -1232 -2416 M180
WINDOW 0 24 64 Left 2
WINDOW 3 24 0 Left 2
SYMATTR InstName D13
SYMATTR Value DS
SYMBOL diode -1056 -2416 R0
SYMATTR InstName D14
SYMATTR Value D2be
SYMBOL res -1056 -2720 R0
SYMATTR InstName R4
SYMATTR Value 20k
SYMBOL sw -448 -2688 M180
SYMATTR InstName S5
SYMATTR Value SWH
SYMBOL sw -448 -2320 M180
SYMATTR InstName S6
SYMATTR Value SWL
SYMBOL cap -368 -2496 R0
SYMATTR InstName C7
SYMATTR Value 5p
SYMBOL cap -1152 -2544 R0
SYMATTR InstName C8
SYMATTR Value 1.5pF
SYMBOL Digital\\dflop -752 -2624 R0
WINDOW 3 -65 -48 Left 2
SYMATTR Value TD=10n
SYMATTR InstName A8
SYMBOL Digital\\buf -976 -2608 R0
WINDOW 3 -3 -7 Left 2
WINDOW 123 -14 143 Left 2
SYMATTR Value Td=3n
SYMATTR Value2 Ref=1.5V
SYMATTR InstName A9
SYMBOL res -1040 -1296 R0
SYMATTR InstName R2
SYMATTR Value 1k
TEXT -1128 -1080 Left 2 !.model DS d vfwd=0.4  Ron=10 Roff=50Meg epsilon=60m
TEXT -1016 -1152 Left 2 !.model D2be d Vfwd=1.7 ron=100 epsilon=100
TEXT -1376 -1640 Left 2 !.model swL sw Level=2 vt=0.5 Vh=-200m Ron=10 Vser=0.1V Ilimit=32mA
TEXT -1360 -2216 Left 2 !.model swH sw Level=2 vt=0.5 Vh=-100m Ron=80 Vser=1.2V Ilimit=32mA
