Version 4
SHEET 1 880 680
WIRE -320 -128 -512 -128
WIRE -16 -128 -240 -128
WIRE 176 -128 -16 -128
WIRE 272 -128 176 -128
WIRE 368 -128 272 -128
WIRE 176 -48 176 -128
WIRE -256 0 -256 -80
WIRE 368 0 368 -128
WIRE -16 64 -16 -128
WIRE -512 80 -512 -128
WIRE -512 224 -512 160
WIRE -336 224 -512 224
WIRE -304 224 -304 -80
WIRE -304 224 -336 224
WIRE -256 224 -256 80
WIRE -256 224 -304 224
WIRE -16 224 -16 144
WIRE -16 224 -256 224
WIRE 176 224 176 32
WIRE 176 224 -16 224
WIRE 368 224 368 64
WIRE 368 224 176 224
WIRE -336 256 -336 224
FLAG -336 256 0
FLAG 272 -128 X
SYMBOL voltage -512 64 R0
WINDOW 123 0 0 Left 2
WINDOW 39 24 124 Left 2
SYMATTR SpiceLine Rser=0.00001
SYMATTR InstName V1
SYMATTR Value SINE(0 200 80k)
SYMBOL ind -32 48 R0
WINDOW 39 36 108 Left 2
SYMATTR SpiceLine Rser=5
SYMATTR InstName L1
SYMATTR Value 0.3m
SYMBOL sw -336 -128 R270
SYMATTR InstName S1
SYMBOL voltage -256 -16 R0
WINDOW 123 0 0 Left 2
WINDOW 39 24 124 Left 2
WINDOW 3 79 -46 VRight 2
SYMATTR Value PULSE(1 -1 2m 10n 10n 1 2)
SYMATTR InstName V2
SYMBOL cap 352 0 R0
SYMATTR InstName C1
SYMATTR Value {C}
SYMBOL MOV 160 -64 R0
SYMATTR InstName U2
SYMATTR SpiceModel V150ZA20
TEXT -168 280 Left 2 !.tran 4m
TEXT -208 -152 Left 2 !.model SW SW()
TEXT 112 256 Left 2 !.step param C list 1u 1p
